195122 ,विकिपीडिया 
137100 ,प 
99274 ,छ 
97790 ,र 
81268 ,तपाई 
80221 ,ष्ठ 
77901 ,श्रेणी 
77680 ,नेपाली 
74679 ,लागि 
74234 ,स 
73468 ,को 
69419 ,सम्पादन 
69055 ,मा 
68054 ,पनि 
54275 ,यो 
53911 ,हो 
52500 ,हेर्नुहोस् 
50080 ,नयाँ 
49855 ,केही 
48982 ,लेख 
46330 ,आफ्नो 
45457 ,चौतारी 
44899 ,विकिपीडियामा 
44491 ,अथवा 
44189 ,सहायता 
44139 ,प्रयोगस्थल 
43956 ,प्रयोगकर्ता 
43692 ,वार्ता 
41222 ,नाम 
39526 ,स्वागत 
38982 ,कुनै 
37947 ,ष्ठमा 
36757 ,वार्तालाप 
35699 ,गर्न 
34289 ,परिचय 
34026 ,होला 
33783 ,गर्ने 
33761 ,प्रश्नहरू 
33245 ,तथा 
33004 ,भने 
32918 ,प्रश्न 
32716 ,स्वशिक्षा 
30034 ,सबै 
29892 ,अन्य 
28441 ,एउटा 
28106 ,नमस्ते 
27657 ,जिल्ला 
27611 ,नेपाल 
27502 ,एक 
27257 ,कुरा 
26680 ,भएका 
26016 ,क 
25081 ,छन् 
24922 ,आदि 
23331 ,ढाँचा 
23089 ,हामी 
22786 ,वा 
22614 ,प्राय 
22321 ,गर्नुहोला 
22113 ,रहेको 
22079 ,लेख्न 
22055 ,सुझाव 
21736 ,राख्नु 
21707 ,समस्याको 
21622 ,सोधिने 
21528 ,विकास 
21059 ,नै 
21006 ,प्रयोग 
20354 ,सन्दर्भ 
20346 ,ले 
20321 ,प्रमुख 
20069 ,त 
19554 ,भिडियो 
19388 ,युटिसी 
19320 ,चित्र 
18631 ,तर 
18401 ,भाषा 
18400 ,यस 
17960 ,लाई 
17083 ,लेखहरू 
16707 ,भएको 
16272 ,जुन 
15969 ,पछि 
15527 ,थियो 
15238 ,भन्दा 
15128 ,गरेर 
15110 ,यहाँ 
14612 ,विभिन्न 
14593 ,छैन 
14398 ,सम्म 
14370 ,यदि 
14312 ,मुख्य 
14247 ,हुन्छ 
14110 ,सक्नुहुन्छ 
13971 ,म 
13960 ,नेपालको 
13942 ,यसले 
13893 ,यसलाई 
13842 ,मेरो 
13702 ,हुनेछ 
13368 ,मिति 
13253 ,मलाई 
13249 ,हरू 
13045 ,धन्यवाद 
12959 ,हुन्छन् 
12838 ,सरोज 
12588 ,अधिकार 
12564 ,गरि 
12553 ,तपाईँको 
12498 ,जी 
12432 ,सहयोग 
12361 ,आवश्यक 
12359 ,पहिला 
12331 ,अहिले 
12312 ,सामान्य 
12151 ,जसमा 
12074 ,लेखिएको 
12073 ,विश्वास 
12048 ,तर्फबाट 
11799 ,पया 
11786 ,सम्बन्धी 
11666 ,समस्या 
11608 ,विश्वका 
11583 ,विषयसूचि 
11580 ,नेपालका 
11574 ,विषयमा 
11567 ,गाउँ 
11520 ,हुँदैन 
11492 ,स्वत 
11479 ,भएमा 
11463 ,कसैले 
11450 ,नव 
11431 ,यहाँका 
11426 ,परेको 
11418 ,हार्दिक 
11395 ,योगदानको 
11374 ,वर्ष 
11363 ,मिलेर 
11356 ,लेखमा 
11329 ,सम्पर्क 
11280 ,आवश्यकता 
11278 ,खुला 
11244 ,लिङ्क 
11236 ,समुदायको 
11225 ,समस्त 
11190 ,दिन्छ 
11179 ,यहाँलाई 
11179 ,आगन्तुक 
11179 ,सहि 
11127 ,दूतावास 
11109 ,बनेर 
11104 ,सबैको 
11078 ,चारवटा 
11072 ,समिति 
11068 ,विकिपीडियन 
11062 ,हामीलाई 
11053 ,विकिपीडियालाई 
11052 ,लेख्नु 
11051 ,क्षेत्र 
11041 ,दिनको 
11038 ,समाधान 
11023 ,परे 
11018 ,धनी 
11000 ,व्यक्तिलाई 
10986 ,तपाईँलाई 
10979 ,द्वारा 
10974 ,स्वीक 
10966 ,वक्र 
10958 ,चाहिएमा 
10958 ,बढाउन 
10957 ,रमाईलो 
10947 ,परेमा 
10936 ,लेखिदिन्छ 
10913 ,विज्ञापन 
10898 ,थप्न 
10884 ,ग्रहित 
10874 ,विकिपीडियाले 
10869 ,बताउने 
10855 ,मान्नु 
10854 ,विषयका 
10849 ,आत्मकथा 
10848 ,विश्वकोष 
10840 ,विकिको 
10838 ,प्रवन्धक 
10838 ,दुईवटा 
10837 ,पढ्नुहोस् 
10836 ,अप्ठ्यारो 
10833 ,गुनासो 
10831 ,थिचेर 
10817 ,सोध्नु 
10817 ,सन् 
10809 ,जत्तिकै 
10804 ,बनाउनुहोला 
10804 ,आउनुहोस् 
10801 ,दुतावास 
10793 ,हरूसँग 
10791 ,ष्टको 
10786 ,बनाऔ 
10753 ,कुमार 
10677 ,अञ्चल 
10612 ,दिइरहनु 
10594 ,परिवर्तन 
10356 ,का 
10008 ,ढकाल 
9920 ,लेखहरु 
9646 ,सहायताका 
9634 ,ग 
9586 ,रूपमा 
9509 ,थिए 
9480 ,प्रश्नहरु 
9430 ,भारत 
8995 ,समय 
8746 ,राष्ट्रिय 
8539 ,ई 
8449 ,सामग्रीहरू 
8388 ,भन्ने 
7920 ,वि 
7836 ,ह 
7819 ,यसको 
7698 ,जन्म 
7652 ,पू 
7634 ,जिल्लाका 
7427 ,नोभेम्बर 
7416 ,जोशी 
7316 ,पत्रिका 
7206 ,धेरै 
7101 ,रोबोट 
7042 ,सूची 
7026 ,गर्दै 
7016 ,सि 
6999 ,विश्व 
6896 ,प्रयोगको 
6890 ,आनन्द 
6772 ,गरी 
6760 ,प्रसाद 
6756 ,राम 
6690 ,पौडेल 
6677 ,बिप्लब 
6521 ,गरेको 
6519 ,देखि 
6499 ,अ 
6422 ,दिन 
6345 ,मे 
6320 ,अनुसार 
6320 ,हुन् 
6272 ,द 
6201 ,जानकारीहरू 
6169 ,हुने 
6157 ,नगरपालिका 
6064 ,चलचित्र 
6027 ,जानकारीहरूका 
6013 ,गर्नुहोस 
6006 ,गरिएको 
5994 ,पर्ने 
5975 ,ठुटो 
5970 ,सम्पदा 
5950 ,स्क 
5792 ,हिज्जे 
5578 ,गरे 
5554 ,अप्रिल 
5543 ,हुन 
5507 ,देश 
5461 ,वत् 
5395 ,कि 
5374 ,गरेका 
5364 ,बाहिरी 
5352 ,गाविसहरू 
5277 ,अवस्थित 
5219 ,ख्या 
5197 ,गरिन्छ 
5104 ,गर्नु 
5103 ,राज्य 
5008 ,बाट 
4971 ,के 
4965 ,भारतीय 
4933 ,उनले 
4926 ,मार्च 
4917 ,भयो 
4866 ,हटक्याट 
4801 ,जस्तै 
4737 ,जानकारीहरु 
4729 ,भनिन्छ 
4633 ,ति 
4581 ,जानकारीहरुका 
4458 ,काम 
4396 ,त्यु 
4333 ,विश्वविद्यालय 
4312 ,नेपालमा 
4307 ,जनगणना 
4304 ,पहिलो 
4297 ,गाविस 
4268 ,मिलाउँदै 
4231 ,न 
4228 ,उनको 
4208 ,जनस 
4201 ,अभ्यास 
4188 ,विवरण 
4186 ,उनी 
4136 ,मन्दिर 
4103 ,धर्म 
4090 ,अक्टोबर 
4088 ,तपाईको 
4086 ,गणेश 
4024 ,बाह्य 
4013 ,युक्त 
4010 ,मात्र 
4002 ,रमेश 
3999 ,सिक्नको 
3952 ,सेप्टेम्बर 
3951 ,श 
3919 ,कार्य 
3894 ,यी 
3873 ,व 
3852 ,काठमाडौ 
3830 ,बोहरा 
3819 ,पुरस्कार 
3711 ,सामग्री 
3654 ,जिल्लाको 
3632 ,खाताको 
3614 ,स्वचालित 
3609 ,तिक 
3599 ,सकिन्छ 
3594 ,एव 
3592 ,कारण 
3590 ,भए 
3575 ,जनवरी 
3565 ,प्राप्त 
3564 ,जीवनी 
3541 ,त्यो 
3540 ,पाइने 
3539 ,सा 
3525 ,कडीहरू 
3520 ,भाग 
3515 ,जुलाई 
3508 ,रहेका 
3478 ,प्रकाशन 
3467 ,महिला 
3448 ,अगस्त 
3424 ,सन्देश 
3405 ,साथ 
3392 ,प्रकार 
3352 ,गा 
3349 ,विकिथन 
3342 ,जो 
3336 ,क्रिकेट 
3317 ,इतिहास 
3313 ,प्रमाणिक 
3265 ,विशेष 
3232 ,बनाइएका 
3209 ,प्राचीन 
3127 ,थप्दै 
3123 ,सुधारिएका 
3101 ,थप 
3099 ,साहित्य 
3087 ,सँग 
3069 ,हिन्दू 
3067 ,विधान 
3063 ,अङ्ग्रेजी 
3045 ,निर्माण 
3045 ,ब 
3034 ,साथै 
3016 ,सदस्य 
3001 ,राजा 
2997 ,जिल्लाहरू 
2996 ,स्थान 
2996 ,अर्को 
2981 ,तपाईलाई 
2964 ,सारियो 
2950 ,योगदान 
2933 ,स्थापना 
2932 ,पूर्व 
2932 ,वटा 
2913 ,मन 
2910 ,गर्दा 
2907 ,क्याम्पस 
2891 ,अर्थ 
2878 ,उपन्यास 
2874 ,प्रदान 
2870 ,उत्तर 
2864 ,डिसेम्बर 
2854 ,बोट 
2827 ,ठूलो 
2818 ,फेब्रुअरी 
2818 ,मध्य 
2811 ,राम्रो 
2807 ,दुई 
2800 ,दक्षिण 
2778 ,क्षेत्रमा 
2709 ,सम्बन्धि 
2697 ,लगइन 
2693 ,नदी 
2689 ,रुपमा 
2666 ,लिङ्कहरू 
2663 ,पाइन्छ 
2643 ,सञ्चार 
2643 ,गर्दछ 
2611 ,बै 
2568 ,फुटबल 
2567 ,अब 
2554 ,आज 
2554 ,अझ 
2553 ,गीत 
2550 ,अभिनेत्री 
2546 ,जीवित 
2540 ,शिक्षा 
2500 ,कम 
2470 ,त्रिभुवन 
2462 ,सबैभन्दा 
2440 ,पाठ 
2439 ,यसका 
2436 ,गर्छ 
2426 ,खाता 
2419 ,भारतका 
2415 ,श्री 
2406 ,क्षेत्रहरूको 
2382 ,घोषणा 
2370 ,हाल 
2363 ,स्थल 
2358 ,गौतम 
2348 ,समेत 
2333 ,बढी 
2330 ,पश्चिमाञ्चल 
2316 ,प्रसिद्ध 
2313 ,अमेरिका 
2313 ,छन 
2304 ,आधारमा 
2298 ,स्रोत 
2285 ,जीवन 
2281 ,जानकारी 
2275 ,विज्ञान 
2270 ,अनुप्रेषण 
2267 ,प्रकाशित 
2263 ,जना 
2255 ,शक 
2254 ,मानिन्छ 
2242 ,प्रकारको 
2239 ,राष्ट्र 
2231 ,त्यस 
2227 ,पार्टी 
2216 ,औ 
2211 ,अनुरोध 
2205 ,क्षेत्रको 
2204 ,ष्ठलाई 
2196 ,भएर 
2191 ,विकिपिडिया 
2189 ,हाम्रो 
2163 ,पर्व 
2162 ,जानकारीको 
2159 ,या 
2155 ,हटाउँदै 
2147 ,धार्मिक 
2146 ,बारेमा 
2139 ,पश्चिम 
2136 ,कुरामा 
2127 ,सरकार 
2125 ,लसकुस 
2118 ,घर 
2090 ,उच्च 
2084 ,जोडियो 
2084 ,ष्ण 
2069 ,अफ 
2060 ,निर्वाचन 
2060 ,कसरी 
2054 ,मैले 
2033 ,उपलब्ध 
2022 ,वनस्पति 
2017 ,प्रवेश 
2016 ,क्षेत्रहरू 
2012 ,चरा 
2009 ,स्थानमा 
2008 ,सालमा 
1992 ,सेवा 
1990 ,बनाउन 
1988 ,गाँउ 
1983 ,पुरुष 
1982 ,षि 
1981 ,सामाजिक 
1981 ,गर्नेछ 
1945 ,भनेर 
1943 ,अनि 
1941 ,ज 
1940 ,पत्रिकाको 
1940 ,देवराज 
1939 ,विक्रम 
1938 ,अमेरिकी 
1919 ,भारतको 
1919 ,ती 
1918 ,घटनाक्रम 
1915 ,समूह 
1908 ,स्वागतम् 
1902 ,साझा 
1900 ,गते 
1897 ,बि 
1891 ,भनेको 
1886 ,गएको 
1885 ,सम्बन्धित 
1878 ,अन्तर्राष्ट्रिय 
1863 ,समयमा 
1862 ,परेन 
1854 ,यस्तो 
1850 ,पर्दछ 
1849 ,पी 
1845 ,क्याम्पसहरू 
1843 ,कलेज 
1827 ,विकिमीडियाको 
1826 ,तपाईहरू 
1822 ,यसमा 
1821 ,खातालाई 
1821 ,घ 
1818 ,खाताले 
1814 ,प्रदेश 
1808 ,सप्तर्षि 
1801 ,समर्थन 
1796 ,जाति 
1796 ,आएको 
1795 ,छु 
1787 ,सभा 
1783 ,त्यसको 
1778 ,कथा 
1775 ,लिखित 
1774 ,ए 
1764 ,विद्यालय 
1761 ,उपन्यासहरू 
1760 ,तीन 
1753 ,है 
1746 ,पूजा 
1741 ,उक्त 
1739 ,भवानी 
1737 ,सक्छ 
1727 ,हेर्नुहोस 
1718 ,शीर्षक 
1717 ,विकी 
1717 ,इ 
1715 ,इतिहासमा 
1710 ,बसोबास 
1689 ,ग्रह 
1688 ,यसै 
1684 ,शाह 
1684 ,ड 
1682 ,आर 
1679 ,प्रकाश 
1676 ,उनलाई 
1667 ,सामाग्रीहरू 
1666 ,वर्ग 
1664 ,पुस्तक 
1663 ,मध्यमाञ्चल 
1661 ,महिना 
1653 ,अमेरिकन 
1649 ,हरु 
1647 ,गर्नुहोस् 
1641 ,प्रथम 
1637 ,केन्द्रीय 
1635 ,पहिले 
1633 ,पर्छ 
1628 ,लागी 
1621 ,खेल 
1619 ,पटक 
1611 ,दुवै 
1609 ,देखिन्छ 
1600 ,सानो 
1597 ,चार 
1595 ,ठाउ 
1591 ,दिने 
1591 ,ओभर 
1589 ,नगरपालिकाहरू 
1584 ,रेडियो 
1581 ,समितिहरू 
1577 ,महत्वपूर्ण 
1575 ,मदन 
1575 ,की 
1573 ,केन्द्र 
1564 ,जिल्लामा 
1562 ,कार्यक्रम 
1558 ,गर्नको 
1558 ,डा 
1555 ,साल 
1549 ,एउटै 
1543 ,सर्लाही 
1542 ,जस्तो 
1538 ,ईसा 
1526 ,नमस्कार 
1518 ,अध्ययन 
1516 ,अतिरिक्त 
1505 ,जसको 
1500 ,पानी 
1499 ,गर्दछन् 
1493 ,फूल 
1486 ,अन्तर्गत 
1479 ,गराउने 
1477 ,परियोजना 
1477 ,घटनाहरू 
1468 ,सगरमाथा 
1468 ,त्यसैले 
1467 ,अस्पताल 
1460 ,मानिस 
1459 ,वत 
1455 ,भाषाको 
1453 ,श्रेष्ठ 
1450 ,विश्वविद्यालयहरू 
1436 ,प्राक 
1435 ,दोस्रो 
1433 ,गणतन्त्र 
1428 ,छलफल 
1427 ,ऐतिहासिक 
1427 ,जगलेख 
1424 ,लामो 
1423 ,सुरू 
1414 ,जस्ता 
1413 ,हिन्दी 
1413 ,बागमती 
1413 ,आ 
1411 ,मानव 
1409 ,भारतमा 
1409 ,रोग 
1409 ,से 
1408 ,स्वरूप 
1408 ,बट 
1406 ,तह 
1404 ,विभाग 
1400 ,व्यवस्था 
1396 ,नामको 
1395 ,कविता 
1391 ,हालसम्म 
1390 ,प्रत्येक 
1388 ,स्थित 
1388 ,प्रति 
1388 ,लेखक 
1388 ,उनका 
1386 ,राजनैतिक 
1385 ,गरियो 
1384 ,अनुमति 
1383 ,उल्लेख 
1381 ,मीडियाविकि 
1381 ,ताल 
1379 ,सुधार 
1377 ,विश्वकप 
1373 ,यानाच्वँगु 
1373 ,पुनर्निदेश 
1373 ,मिलय् 
1370 ,आर्थिक 
1369 ,हामीले 
1366 ,स्थानीय 
1363 ,साट्दै 
1363 ,सो 
1362 ,शहर 
1361 ,जनकपुर 
1361 ,जसले 
1360 ,हुँदै 
1360 ,भगवान 
1360 ,किताब 
1354 ,कै 
1353 ,हुनु 
1352 ,अश्लिल 
1349 ,तपाईले 
1341 ,व्यक्तिको 
1341 ,ख 
1340 ,रूप 
1339 ,निम्न 
1332 ,एसिया 
1330 ,सम्पूर्ण 
1329 ,श्रेणलाई 
1325 ,लाइ 
1323 ,थापा 
1322 ,राजधानी 
1319 ,राजनीतिक 
1319 ,उत्पादन 
1319 ,हजार 
1319 ,यसरी 
1308 ,बेला 
1306 ,सूत्र 
1303 ,तिहरू 
1301 ,नामक 
1296 ,माध्यमिक 
1295 ,युद्ध 
1294 ,उपन्यासकार 
1294 ,हुनुहुन्छ 
1290 ,यदी 
1285 ,माथि 
1279 ,राम्ररी 
1277 ,पुस्तकालय 
1277 ,गठन 
1276 ,राजेश 
1275 ,कम्पनी 
1273 ,आफ्ना 
1273 ,ठिक 
1272 ,जब 
1271 ,पर्यटकीय 
1268 ,अधिकारी 
1262 ,बनेको 
1262 ,लि 
1262 ,छौ 
1256 ,ज्ञान 
1254 ,रिडाइरेक्टहरू 
1253 ,राष्ट्रपति 
1253 ,भाषामा 
1251 ,रचना 
1250 ,हटाइयो 
1247 ,ठाउँमा 
1246 ,लिमिटेड 
1246 ,त्यसपछि 
1246 ,शब्द 
1245 ,टिम 
1244 ,हाम्रा 
1241 ,सक्नु 
1239 ,वर्तमान 
1237 ,गण्डकी 
1236 ,कार्यक्षेत्र 
1234 ,अधिक 
1231 ,श्रेणीमा 
1231 ,युनेस्को 
1231 ,स्थलहरू 
1231 ,जनावर 
1223 ,सम्वन्धित 
1222 ,असर 
1219 ,खेलाडी 
1216 ,अञ्चलको 
1212 ,मध्ये 
1208 ,बेनुपराज 
1204 ,स्थापित 
1200 ,उपकरण 
1197 ,पूर्ण 
1193 ,योजना 
1192 ,एकल 
1191 ,चीन 
1185 ,पुरानो 
1185 ,जनाको 
1181 ,झापा 
1179 ,सय 
1177 ,च 
1173 ,शुभकामना 
1173 ,लिएको 
1166 ,मानिसहरू 
1163 ,चराहरू 
1162 ,निकै 
1161 ,कर 
1158 ,जसलाई 
1156 ,ठाउँहरू 
1154 ,भएकोले 
1153 ,होइन 
1151 ,पुन 
1149 ,सहर 
1148 ,उत्क 
1145 ,विकिमीडिया 
1141 ,विवाह 
1141 ,आयोग 
1140 ,तिथि 
1138 ,सञ्चालन 
1136 ,दैलेख 
1134 ,बैतडी 
1130 ,बनाउने 
1130 ,सूचना 
1129 ,आफुलाई 
1129 ,नीति 
1127 ,अञ्चलहरू 
1126 ,भई 
1121 ,भित्र 
1117 ,सफल 
1110 ,यहाँको 
1108 ,कोशी 
1105 ,भविष्यमा 
1098 ,हुँदा 
1097 ,समाज 
1097 ,इलाम 
1095 ,नक्शामा 
1094 ,माध्यमहरू 
1094 ,तयार 
1093 ,स्वास्थ्य 
1092 ,ष्ट 
1089 ,क्रममा 
1083 ,प्रान्त 
1083 ,मूल 
1083 ,कुल 
1081 ,कायम 
1081 ,सी 
1080 ,क्यालेण्डर 
1078 ,काल 
1077 ,पाल्पा 
1077 ,ट्याग 
1074 ,किन 
1073 ,ठाउँ 
1070 ,थाहा 
1057 ,अधिका 
1056 ,सक्रिय 
1054 ,छोरा 
1054 ,मगर 
1053 ,भागको 
1049 ,पूर्वी 
1047 ,अवस्थामा 
1047 ,प्रकाशक 
1046 ,परिवर्तनको 
1045 ,यही 
1043 ,हहरू 
1040 ,गरिनेछ 
1039 ,अभिनेत्रीहरू 
1039 ,लगभग 
1039 ,देवी 
1036 ,बजार 
1035 ,सञ्चारग 
1032 ,शर्मा 
1032 ,पाँच 
1029 ,प्रस्तुत 
1028 ,ललितपुर 
1027 ,मनपर्ने 
1026 ,गणना 
1024 ,श्रेय 
1023 ,गरिने 
1022 ,फेरि 
1021 ,स्याङ्जा 
1021 ,स्पष्टता 
1020 ,प्रधानमन्त्री 
1020 ,कोइराला 
1020 ,चितवन 
1019 ,सेना 
1017 ,यस्ता 
1014 ,अध्यक्ष 
1013 ,शक्ति 
1009 ,जगत 
1008 ,शुरु 
1008 ,क्लब 
1007 ,व्यक्तित्व 
1006 ,क्रस 
1003 ,तपाइको 
1002 ,वर्षको 
1000 ,प्रचलित 
1000 ,क्षमा 
1000 ,गएर 
1000 ,मी 
999 ,नेपालीमा 
998 ,अगस्ट 
995 ,जनाले 
995 ,लिएर 
990 ,मन्त्रालय 
990 ,हुनाले 
989 ,दिए 
988 ,दिल्ली 
986 ,आउने 
984 ,फारम 
984 ,कहरू 
983 ,गोत्र 
983 ,अरु 
980 ,लुम्बिनी 
977 ,सदरमुकाम 
976 ,आधुनिक 
974 ,शासन 
973 ,सम्मान 
973 ,दल 
969 ,गरिएकोछ 
968 ,कारणले 
967 ,नारायणी 
967 ,करिब 
965 ,सम्पादनको 
963 ,स्था 
962 ,कार्यालय 
960 ,प्रतियोगिता 
960 ,राज्यको 
960 ,जाने 
959 ,अथक 
957 ,त्यही 
954 ,सरकारी 
954 ,भूगोल 
951 ,सुविधाहरू 
951 ,अन्तिम 
951 ,खान 
950 ,नागरिक 
950 ,मदत 
949 ,पासवर्ड 
947 ,प्रतिशत 
945 ,प्रक 
945 ,तर्फ 
944 ,हुनै 
943 ,प्रविधि 
943 ,भागमा 
939 ,सभासद 
938 ,व्यवसायहरू 
938 ,मत 
937 ,खण्ड 
936 ,जान्छ 
934 ,और 
932 ,सूचनाहरू 
931 ,पूर्वका 
931 ,दिइनेछ 
930 ,पहिलाको 
930 ,निधन 
929 ,प्रयासको 
929 ,पुराण 
928 ,जन्तु 
928 ,नगर 
927 ,दुर्भाग्यवश 
927 ,क्राइस्ट 
927 ,उपकरणको 
927 ,कलियुग 
926 ,पर्यटन 
926 ,अश्लील 
925 ,पहाडी 
925 ,ढुक्क 
922 ,समाचार 
921 ,परिवर्तनले 
921 ,जिसस 
921 ,जहाँ 
920 ,सप्तरी 
919 ,सुविधायुक्त 
919 ,प्रार्थी 
919 ,बजारमा 
919 ,अवस्था 
919 ,आजको 
918 ,ग्रेजी 
917 ,प्रयोगकर्ताहरूका 
916 ,तपाईहरूलाई 
916 ,डेभलपर 
916 ,एम 
915 ,विकिहरूमा 
915 ,राख्नेछ 
915 ,निकुञ्ज 
915 ,उत्पन्न 
914 ,खाताहरूको 
913 ,टीमले 
913 ,जुध्न 
911 ,खातासँग 
910 ,असुविधाको 
910 ,विकीहरू 
909 ,गरिदिनेछौ 
909 ,ल्याउदैछ 
908 ,उपमहानगरपालिका 
908 ,जन्मदेखि 
908 ,केहि 
908 ,भ 
907 ,सहित 
906 ,गर्छन् 
901 ,भौतिक 
900 ,तस्वीर 
900 ,रोज्न 
898 ,काठमाडौँ 
898 ,मान्यता 
898 ,प्रणाली 
897 ,फाइनलाइजेसन 
896 ,दिनु 
893 ,उ 
892 ,विकिपीडियाको 
892 ,पर्वत 
890 ,हिमाल 
886 ,आधिकारिक 
886 ,शान्ति 
886 ,भएकाले 
885 ,मेन्टिनेन्स 
885 ,मिटर 
884 ,सुरु 
884 ,दिवस 
883 ,क्षेत्रफल 
880 ,लाग्ने 
880 ,त्यहाँ 
880 ,आमा 
879 ,काव्य 
879 ,राणा 
878 ,निर्वाचित 
877 ,विचार 
877 ,जारी 
877 ,राज 
876 ,आधार 
875 ,उपत्यका 
875 ,पूरा 
873 ,गर्नुभएको 
868 ,त्यस्तै 
867 ,सिर 
863 ,राख्ने 
863 ,यात्रा 
862 ,त्यसलाई 
862 ,दर्शन 
861 ,राजनीति 
861 ,आधारित 
860 ,डी 
859 ,सम्बन्ध 
857 ,तथ्याङ्क 
857 ,महाभारत 
855 ,परिवार 
852 ,विकि 
850 ,नामले 
850 ,चलन 
847 ,तत्व 
846 ,गर्दछु 
846 ,अक्षर 
844 ,कम्युनिष्ट 
844 ,जीव 
842 ,सहरहरू 
842 ,प्रधान 
839 ,व्यक्तिगत 
838 ,सामाग्री 
838 ,सम्पन्न 
837 ,आशा 
835 ,अर्थात् 
835 ,आएका 
833 ,भएपछि 
832 ,शास्त्र 
832 ,बनाएको 
831 ,उपयोग 
827 ,पोखरा 
827 ,आफ्नै 
826 ,सक्ने 
825 ,व्यक्ति 
823 ,हि 
823 ,नि 
822 ,व्यक्त 
822 ,सात 
821 ,नेपालीहरू 
821 ,साना 
820 ,उत्तरी 
817 ,पोख्रेल 
817 ,बाहिर 
811 ,सालको 
811 ,हरेक 
809 ,कलाकार 
809 ,फरक 
807 ,राई 
805 ,पुराना 
804 ,स्वतन्त्र 
804 ,वडा 
804 ,बाल 
803 ,लागेको 
802 ,बहादुर 
800 ,तिर 
798 ,विषय 
798 ,द्धि 
797 ,हिन्दु 
797 ,श्य 
795 ,खाना 
794 ,लाख 
792 ,दैनिक 
792 ,चिन्ह 
792 ,मेची 
788 ,वन 
787 ,क्षिप्त 
786 ,काभ्रेपलाञ्चोक 
786 ,बिजय 
784 ,सङ्ख्या 
784 ,आरम्भ 
782 ,होल्डर 
782 ,प्रयास 
781 ,घरमा 
779 ,रातो 
778 ,बाहिरका 
778 ,वेद 
776 ,लगायत 
776 ,नाटक 
775 ,समालोचना 
775 ,ल्याएको 
773 ,नेत 
772 ,भूमिका 
771 ,नक्सामा 
771 ,मद्दत 
771 ,नहुने 
770 ,सम्बन्धन 
770 ,उद्योग 
770 ,रक्षण 
768 ,ध्यान 
768 ,शिव 
768 ,ल 
767 ,आयोजना 
766 ,लेखको 
766 ,अघि 
765 ,चर्चित 
765 ,ठुलो 
765 ,सन 
763 ,इमेल 
763 ,दु 
762 ,गुल्मी 
762 ,बीच 
761 ,अवार्ड 
761 ,बौद्ध 
761 ,फिल्म 
759 ,देशको 
759 ,फिफा 
759 ,गए 
757 ,सूत्रहरू 
754 ,माओवादी 
750 ,वैज्ञानिक 
750 ,वर्णन 
750 ,उहाँ 
749 ,धनकुटा 
747 ,पाकिस्तान 
747 ,अलग 
746 ,अन्तराष्ट्रिय 
744 ,देवता 
744 ,थाले 
744 ,लिन 
743 ,प्रबन्धक 
743 ,परम्परा 
743 ,मतदान 
742 ,जल 
741 ,केवल 
740 ,अनेक 
737 ,विश्वमा 
737 ,गाविसमा 
737 ,कला 
736 ,पर 
735 ,डेटाथन 
733 ,नोबेल 
733 ,जम्मा 
732 ,बनाइएको 
728 ,सार्वजनिक 
728 ,बहुमुखी 
728 ,निरन्तर 
728 ,हेर्ने 
724 ,उत्सवहरू 
722 ,मेला 
720 ,थिइन् 
718 ,तेस्रो 
717 ,निम्ति 
716 ,चलचित्रहरू 
716 ,अभिनेता 
716 ,भनी 
715 ,कम्प्युटर 
714 ,प्रारम्भिक 
714 ,महाकाली 
714 ,तल 
713 ,जोन 
712 ,प्रत्यक्ष 
712 ,पत्र 
712 ,गोल 
711 ,ट 
710 ,राख्न 
710 ,भट्ट 
709 ,दिइएको 
709 ,श्र 
707 ,हेर्नुहोला 
707 ,तिनको 
706 ,त्यसै 
705 ,साधारण 
704 ,एप्रील 
703 ,दोलखा 
702 ,भक्तपुर 
702 ,युवा 
699 ,कर्णाली 
699 ,फल 
697 ,थर 
696 ,साहित्यकार 
696 ,स्वय 
696 ,कवि 
693 ,एन 
692 ,जनता 
691 ,प्रभाव 
691 ,पदार्थ 
691 ,गोरखा 
690 ,आचार्य 
690 ,मोरङ 
689 ,गाविसको 
689 ,कालो 
688 ,एस 
687 ,पूर्वाञ्चल 
685 ,खोला 
685 ,दाङ 
684 ,धनुषा 
681 ,मि 
680 ,सेती 
679 ,निवेदन 
679 ,अछाम 
678 ,नियम 
677 ,जनसङ्ख्या 
677 ,निम्तो 
676 ,तिथिको 
676 ,कास्की 
675 ,खोटाङ 
673 ,अरबी 
672 ,तथ्या 
672 ,विस 
671 ,माघ 
670 ,लिङ्ग 
670 ,गुरुङ 
669 ,सुन्दर 
669 ,दिएको 
667 ,स्थिति 
667 ,सुदूर 
667 ,फिलिप 
667 ,जन 
666 ,उदयपुर 
666 ,सडक 
665 ,श्रील 
665 ,आय 
664 ,बुद्ध 
664 ,अति 
662 ,अस्ट्रेलिया 
660 ,सुरक्षा 
660 ,अत्यन्त 
658 ,पठाउने 
658 ,सैनिक 
658 ,आई 
657 ,ट्विङ्कल 
657 ,विभाजन 
657 ,उपचार 
657 ,मिस 
655 ,आइसिसी 
655 ,ध 
654 ,धारा 
654 ,कोड 
653 ,राखिएको 
652 ,थिएन 
652 ,छोरी 
651 ,कपिलवस्तु 
651 ,बनाएर 
650 ,सुनसरी 
650 ,सहभागी 
648 ,अगाडि 
647 ,पश्चिमी 
647 ,विविध 
647 ,आदिमा 
646 ,अर्थात 
646 ,उसको 
645 ,साहित्यिक 
645 ,महत्व 
644 ,दुइ 
643 ,कहिले 
642 ,सम्बन्धमा 
642 ,सुर्खेत 
642 ,नेता 
641 ,बी 
638 ,लगायतका 
638 ,मध्येको 
637 ,डोटी 
636 ,भौगोलिक 
636 ,ज्यू 
635 ,व्यवस्थापन 
634 ,प्रकारका 
634 ,सभामा 
632 ,जापान 
632 ,उचित 
632 ,जति 
631 ,ठीक 
630 ,उहाँको 
629 ,नारायण 
628 ,पश्चिममा 
628 ,प्रहरी 
628 ,गोर्खा 
627 ,हिमालय 
627 ,रहने 
627 ,खाने 
626 ,एफएम 
625 ,राप्ती 
625 ,बारा 
625 ,मात 
624 ,गलत 
623 ,निर्देशक 
623 ,लोकसभा 
623 ,बाटो 
622 ,नुवाकोट 
620 ,फुल्ने 
620 ,गर्‍यो 
619 ,बारे 
619 ,असोज 
618 ,नभएको 
617 ,लिपि 
617 ,थ्वी 
616 ,विद्युत 
615 ,मन्त्री 
614 ,अरब 
613 ,जन्मेको 
613 ,मल्ल 
612 ,विश्वविद्यालयसँग 
612 ,निर्णय 
612 ,अवधिमा 
612 ,घोषित 
611 ,टेलिभिजन 
611 ,भोजपुर 
611 ,जात्रा 
610 ,सिन्धुपाल्चोक 
609 ,पूर्वमा 
609 ,विष्णु 
609 ,क्षमता 
609 ,गायक 
608 ,चलचित्रका 
604 ,सामुदायिक 
604 ,महिनामा 
603 ,समानुपातिक 
603 ,किलोमिटर 
603 ,जर्मनी 
603 ,लाग्छ 
603 ,दलहरू 
602 ,शुद्ध 
602 ,अवतार 
600 ,कार्तिक 
600 ,तनहुँ 
599 ,ब्रिटिश 
599 ,निबन्ध 
599 ,गरिएका 
599 ,ग्राम 
598 ,आन्दोलन 
597 ,भइरहेका 
595 ,विमानस्थल 
595 ,उद्देश्य 
595 ,छनौट 
594 ,प्राविधिक 
594 ,ग्रेस 
594 ,ऊ 
593 ,परम्परागत 
592 ,विद्यार्थी 
592 ,पिता 
591 ,थुप्रै 
590 ,कैलाली 
590 ,समान 
590 ,पा 
589 ,मकवानपुर 
587 ,राजनीतिज्ञहरू 
587 ,मानेर 
587 ,लिए 
586 ,सामूहिक 
586 ,राग 
585 ,ताप्लेजुङ 
585 ,अभिनय 
584 ,स्थापक 
583 ,परियोजनामा 
583 ,लगाउने 
583 ,व्रत 
582 ,महेन्द्र 
582 ,देउडा 
582 ,गल 
581 ,मान्छे 
580 ,गर्नका 
580 ,रहन्छ 
578 ,स्थानिय 
578 ,ष्ठको 
578 ,वैदिक 
578 ,हात 
577 ,उत्तरमा 
577 ,विजेता 
576 ,समाजमा 
576 ,चर्चा 
575 ,उपर्युक्त 
574 ,जोडिएको 
574 ,मात्रै 
574 ,पाउने 
574 ,लिने 
573 ,पुत्र 
573 ,कानून 
573 ,गैर 
572 ,प्रदर्शित 
572 ,तेह्रथुम 
571 ,मन्दिरमा 
571 ,सरकारले 
571 ,ठूला 
570 ,किन्ड्रेक 
569 ,भट्टराई 
569 ,जेनवरी 
568 ,सिराहा 
568 ,शुभ 
567 ,नवलपरासी 
567 ,समुह 
567 ,बल 
564 ,अफ्रिका 
564 ,शुक्ल 
564 ,बीचमा 
564 ,अग्लो 
564 ,शाही 
564 ,विजय 
563 ,वैशाख 
561 ,मन्दिरको 
561 ,बिभिन्न 
560 ,भरतपुर 
560 ,पवित्र 
560 ,रन 
559 ,हस्ताक्षर 
559 ,बस्ने 
559 ,परिषद 
559 ,आवेदन 
559 ,अझै 
558 ,विशाल 
558 ,भेरी 
558 ,बर्ष 
558 ,पुरा 
556 ,लेख्ने 
555 ,लोक 
554 ,विश्वसम्पदाथन 
554 ,मापदण्ड 
554 ,रूपले 
554 ,आकार 
554 ,गै 
552 ,सिन्धुली 
551 ,जे 
550 ,अनुसन्धान 
550 ,स्कार 
549 ,मुक्त 
549 ,बाहेक 
549 ,गर्यो 
549 ,रहे 
548 ,अनुवाद 
547 ,घिमिरे 
547 ,यिनको 
546 ,मानिसहरूस 
546 ,विजयी 
546 ,देशमा 
546 ,हे 
545 ,उपयुक्त 
545 ,सेतो 
545 ,नाच 
545 ,उप 
543 ,विश्वको 
543 ,रौतहट 
542 ,स्कोरकार्ड 
542 ,दक्षिणमा 
542 ,गरेकी 
541 ,सही 
540 ,छलफलहरूमा 
540 ,भू 
539 ,लेखलाई 
538 ,विस्तार 
538 ,तब 
537 ,त्यसमा 
536 ,ने 
535 ,महोत्तरी 
535 ,भन्न 
534 ,सुरक्षित 
534 ,पर्सा 
534 ,अगाडी 
533 ,ओखलढुङ्गा 
532 ,स्थानका 
532 ,निकाल्न 
532 ,नामबाट 
532 ,दिएका 
532 ,तरिका 
531 ,तत्कालीन 
530 ,म्याक्सिम 
530 ,विकसित 
530 ,अल 
529 ,प्रारम्भ 
529 ,समितिको 
529 ,शुरू 
528 ,बैशाख 
528 ,पक्ष 
527 ,तिको 
526 ,चाहन्छु 
526 ,हिमाली 
526 ,पुगेको 
525 ,देवनागरी 
524 ,क्षेत्रीय 
524 ,वेबसाइट 
524 ,रामेछाप 
524 ,रहन 
523 ,अभिनेताहरू 
523 ,गराउनु 
521 ,राजनीतिमा 
521 ,उदाहरण 
521 ,तारा 
520 ,जान 
519 ,हेर्दा 
519 ,भनिएको 
519 ,उसले 
518 ,धादिङ 
518 ,त्य 
517 ,मार्ग 
517 ,बलिउड 
516 ,मात्रामा 
515 ,बङ्गाल 
515 ,यिनी 
515 ,एफ 
514 ,हेर्न 
513 ,ट्वान्टी 
513 ,पोखरी 
513 ,सर 
512 ,प्रभावित 
512 ,स्तर 
512 ,डिक 
511 ,वेबसाईट 
510 ,गरेपछि 
509 ,वर्ल्ड 
509 ,जन्मको 
509 ,माया 
508 ,प्रदेशका 
508 ,समुदाय 
508 ,लेखन 
508 ,यति 
506 ,लामा 
506 ,करोड 
506 ,दा 
506 ,जा 
505 ,उहाँले 
505 ,कुन 
504 ,आएर 
503 ,आक्रमण 
503 ,श्रीक 
503 ,धन 
502 ,अस्पतालहरू 
502 ,आफूलाई 
502 ,उनि 
501 ,सन्तान 
501 ,खेलकुद 
501 ,कति 
500 ,शैक्षिक 
500 ,कार्यमा 
500 ,लिग 
500 ,यि 
499 ,फोटोग्राफर 
499 ,राखेर 
499 ,नम्बर 
498 ,बन्न 
497 ,पाँचथर 
497 ,कालमा 
497 ,लग्न 
496 ,स्पष्ट 
496 ,आँकडा 
496 ,हुदै 
496 ,भवन 
494 ,वनस्पतिहरू 
494 ,खेलाडीहरू 
493 ,लमजुङ 
493 ,बनेका 
493 ,ष्टि 
493 ,कतै 
492 ,चिनिन्छ 
492 ,दिनमा 
491 ,नामाकरण 
491 ,अनुमान 
490 ,स्वतन्त्रता 
490 ,उच्चारण 
490 ,लोगो 
489 ,विरुद्ध 
489 ,सूर्य 
489 ,प्रेम 
489 ,नेवार 
489 ,टेस्ट 
489 ,वीर 
488 ,राजमार्ग 
487 ,लिनक्स 
487 ,भएकोमा 
486 ,प्रा 
486 ,हैन 
485 ,पोर्टल 
485 ,देखी 
485 ,नया 
484 ,नगरपालिकाको 
484 ,एसियाली 
484 ,मै 
482 ,सकिने 
482 ,शरीर 
481 ,ग्रन्थ 
481 ,नदीको 
480 ,नाममा 
480 ,गयो 
480 ,ला 
480 ,आठ 
479 ,अधिकारको 
479 ,निश्चित 
479 ,स्थाको 
479 ,आँखा 
478 ,नियन्त्रण 
478 ,ब्राह्मण 
478 ,फ्रान्स 
478 ,एभ्स 
478 ,सार 
477 ,मानिसको 
477 ,प्राणी 
477 ,पछी 
476 ,मनोनित 
476 ,जनताको 
476 ,गर्छन 
476 ,गुरु 
474 ,अर्थतन्त्र 
474 ,किसिमको 
474 ,जनक 
473 ,बाल्यकाल 
473 ,रामायण 
473 ,श्रोत 
473 ,दै 
472 ,गर्दछन 
472 ,देखेर 
472 ,यादव 
472 ,मोडल 
472 ,अत 
471 ,सद्भाव 
471 ,जीवनको 
471 ,उमेरमा 
471 ,पुँजी 
471 ,देख्न 
471 ,दिएर 
470 ,चन्द्र 
470 ,महान 
470 ,रे 
469 ,प्रशासनिक 
469 ,गर्नुपर्छ 
469 ,शब्दको 
469 ,लाग्यो 
468 ,ष्ठहरू 
467 ,हुन्थ्यो 
467 ,दक्षिणी 
467 ,पाटन 
467 ,बा 
466 ,महाराष्ट्र 
466 ,ढ 
464 ,सिक्किम 
464 ,यातायात 
464 ,ईसाको 
464 ,घटित 
463 ,सरकारको 
463 ,इन 
462 ,प्रक्रिया 
462 ,काठमाण्डौ 
461 ,अर्घाखाँची 
461 ,सकेको 
461 ,मण्डल 
460 ,भगवती 
459 ,कडीहरु 
459 ,बाँकी 
459 ,नेकपा 
458 ,प्रजातान्त्रिक 
457 ,सरस्वती 
457 ,भाषाका 
457 ,उपनिषद 
456 ,परिवारको 
456 ,जनावरहरू 
456 ,शुरुवात 
456 ,जातिको 
456 ,त्यति 
456 ,ईसाका 
455 ,दर्शाउँदछ 
454 ,अधिराज्य 
454 ,डिग्री 
453 ,वर्षलाई 
453 ,बिहान 
453 ,प्रिय 
453 ,मसीह 
452 ,खेती 
451 ,समन्वय 
450 ,सफ्टवेयर 
450 ,पछिदेखि 
450 ,दरबार 
450 ,गको 
450 ,गई 
449 ,पद्धतिका 
449 ,प्रशासन 
449 ,भगवान् 
449 ,स्वर 
449 ,आउँछ 
449 ,ओ 
448 ,सिद्धान्त 
447 ,लघुकथा 
445 ,क्षेत्रलाई 
445 ,तिलाई 
444 ,अन्तरका 
444 ,दरवार 
443 ,सामान्यतया 
443 ,जूलियन 
443 ,सहायक 
442 ,जन्मलाई 
442 ,मूर्ति 
442 ,धान 
441 ,क्षेत्रका 
441 ,कार्यरत 
441 ,अधार 
440 ,वातावरण 
440 ,सम्मको 
440 ,वाला 
440 ,यौन 
440 ,चाड 
440 ,आधा 
439 ,एसियाका 
439 ,मात्रा 
439 ,प्रजनन 
439 ,योग्य 
438 ,निर्माता 
438 ,बन्द 
437 ,स्टेडियम 
437 ,पाए 
436 ,पञ्चाग 
436 ,आदिको 
436 ,पद 
436 ,ऐन 
435 ,लोकप्रिय 
435 ,हरूको 
435 ,हरियो 
435 ,तामाङ 
435 ,गरेमा 
435 ,शाखा 
435 ,विधि 
434 ,विकिपिडियामा 
434 ,राष्ट्रीय 
434 ,उपनिषद् 
434 ,नुक्त 
433 ,विधानसभा 
433 ,प्रस्ताव 
433 ,व्यापार 
433 ,यस्तै 
432 ,सबभन्दा 
432 ,रुकुम 
431 ,म्याच 
431 ,अपलोड 
430 ,महर्षि 
430 ,एशिया 
430 ,आवाज 
430 ,गो 
429 ,मुख्यालय 
429 ,गलादेश 
429 ,सारा 
429 ,एल 
428 ,कोरिया 
428 ,एकादशी 
428 ,रसायन 
427 ,एकदिवसीय 
427 ,गान्धी 
427 ,विरोध 
426 ,इन्टरनेट 
426 ,होस् 
426 ,टाढा 
426 ,गलमय 
426 ,आयो 
426 ,आइ 
425 ,काठमाडौँमा 
425 ,प्रदर्शन 
425 ,तत्कालिन 
425 ,सल्यान 
425 ,हलिउड 
425 ,साथमा 
425 ,उसलाई 
425 ,पात 
424 ,एन्ड 
424 ,दर 
423 ,प्रतिनिधित्व 
423 ,स्कूल 
423 ,जर्मन 
423 ,क्रमश 
423 ,दर्भ 
423 ,तिमी 
423 ,अरू 
422 ,निर्वाचनमा 
422 ,घटनाहरु 
422 ,देखिने 
422 ,तिम्रो 
422 ,जुम्ला 
422 ,भिन्न 
422 ,गुफा 
421 ,पछिल्लो 
421 ,अधारित 
421 ,भै 
420 ,प्रतिष्ठान 
420 ,पानीको 
420 ,दर्ता 
420 ,निजी 
418 ,धौलागिरी 
416 ,सदीय 
416 ,दलको 
416 ,तु 
415 ,लभ्स 
414 ,उत्पत्ति 
414 ,चैत्र 
414 ,रानी 
414 ,बनाए 
414 ,पहाड 
414 ,पार 
413 ,पौराणिक 
413 ,योग 
412 ,कतिपय 
411 ,कार्यक्रममा 
411 ,भन्नाले 
411 ,अपेक्षा 
411 ,खेलमा 
411 ,आए 
410 ,हटाउन 
410 ,सत्य 
410 ,गरिन 
409 ,भाइ 
408 ,स्वरूपण 
408 ,निर्मित 
408 ,पहिचान 
408 ,खाली 
408 ,क्रम 
407 ,रिडाइरेक्ट 
407 ,नियमित 
407 ,पाउन 
407 ,धरान 
407 ,था 
406 ,मध्यमाञ्चलका 
406 ,स्तनधारी 
406 ,प्रख्यात 
406 ,कर्मचारी 
406 ,अभियान 
406 ,स्म 
405 ,माता 
405 ,सम 
404 ,दुबै 
403 ,ब्राजिल 
403 ,सक्छन् 
403 ,सेन्ट 
403 ,न्यू 
402 ,क्षेत्री 
402 ,रह्यो 
402 ,टि 
401 ,य 
400 ,पार्टीको 
400 ,भन्दछन् 
400 ,कथानक 
400 ,अवसर 
399 ,विश्वविद्यालयहरूको 
399 ,गाउँमा 
398 ,समावेश 
397 ,भाषाहरू 
397 ,समाप्त 
397 ,छैनन् 
397 ,राय 
396 ,राखेको 
396 ,नागरी 
395 ,परिवारमा 
394 ,पश्चात 
394 ,खुल्ला 
393 ,इतिहासका 
393 ,माछा 
392 ,त्यस्तो 
392 ,मुम्बई 
392 ,गुणहरू 
392 ,घटना 
392 ,हक 
391 ,कान्तिपुर 
391 ,दार्चुला 
391 ,देखिएको 
391 ,तिब्बत 
391 ,लागू 
391 ,कोष 
390 ,विश्लेषण 
390 ,नेपालले 
390 ,रक्षा 
390 ,तल्लो 
389 ,विशेषता 
389 ,वितरण 
389 ,बिहार 
388 ,क्रान्ति 
388 ,बेलायती 
388 ,बर्दिया 
388 ,पर्दछन् 
388 ,खाद्य 
387 ,सम्पादक 
387 ,‍‍‍‍‍ 
387 ,समयको 
387 ,व्यास 
387 ,बालक 
387 ,त्व 
386 ,स्थानहरू 
386 ,प्रसारण 
386 ,तरिकाले 
386 ,सुविधा 
386 ,मासिक 
386 ,तराई 
385 ,प्रचलन 
385 ,थाल्यो 
385 ,रहेछ 
384 ,साहित्यमा 
384 ,हत्या 
384 ,यसबाट 
384 ,ईमेल 
384 ,चा 
383 ,रोल्पा 
383 ,मनाउने 
383 ,वस्तु 
383 ,पल्ट 
383 ,चन्द 
383 ,बढि 
382 ,चौथो 
381 ,ठेगाना 
381 ,दलित 
381 ,बने 
381 ,आदी 
380 ,क्ति 
380 ,दी 
380 ,अम 
379 ,लक्ष्मी 
379 ,महादेव 
379 ,परिचित 
379 ,स्करण 
379 ,भ्रमण 
379 ,सोही 
379 ,बझाङ 
378 ,चिकित्सा 
378 ,उनीहरू 
378 ,फेरी 
377 ,सर्वाधिक 
377 ,उचाई 
377 ,आफै 
376 ,बन्यो 
376 ,गराउन 
376 ,एमाले 
376 ,चालन 
375 ,प्रकाशका 
375 ,किनभने 
375 ,मौलिक 
374 ,लघुकथाहरू 
374 ,कलाकारहरू 
374 ,श्रावण 
374 ,शरीरमा 
374 ,भित्री 
374 ,उमेर 
374 ,एकै 
373 ,विकिमिडिया 
373 ,प्राथमिक 
373 ,पाइन्छन् 
373 ,वार्षिक 
373 ,मानिएको 
372 ,विकिपीडियाका 
372 ,मन्दिरहरू 
372 ,मार्फत 
372 ,पत्नी 
372 ,चुनाव 
372 ,साधन 
372 ,बिना 
371 ,अमेरिकाका 
370 ,विदेशी 
370 ,पुग्न 
370 ,चौधरी 
370 ,सीमा 
369 ,आयोजक 
369 ,भएन 
368 ,अष्ट्रेलिया 
368 ,सहकारी 
368 ,बाजा 
367 ,हासिल 
367 ,एकीक 
367 ,केत 
367 ,टी 
366 ,शेर्पा 
365 ,भन्दै 
365 ,जेष्ठ 
365 ,भूमि 
365 ,तेल 
365 ,शी 
364 ,समाजवादी 
364 ,पात्र 
364 ,घको 
364 ,ढु 
363 ,लोकतान्त्रिक 
363 ,प्युठान 
363 ,जाजरकोट 
363 ,पाइएको 
363 ,विमान 
363 ,अभिव 
362 ,प्राचिन 
362 ,शिक्षण 
362 ,बसेको 
362 ,अनुभव 
362 ,आफू 
361 ,माथिल्लो 
361 ,किमी 
360 ,कलेण्डरमा 
360 ,त्ति 
359 ,बेलायत 
359 ,परिणाम 
359 ,विस्त 
359 ,आदर्श 
359 ,खास 
359 ,औँ 
358 ,महिनाको 
358 ,शहरहरू 
358 ,लगाएर 
358 ,चरण 
357 ,फैलिएको 
357 ,यद्यपि 
357 ,फिट 
356 ,बनाई 
356 ,पुगे 
355 ,विकासको 
355 ,मान्ने 
354 ,साथी 
353 ,मिलाएर 
353 ,रेखा 
352 ,गीतकार 
352 ,दुलाल 
352 ,फोन 
352 ,देव 
351 ,राज्यमा 
351 ,यिनले 
351 ,ग्रहण 
351 ,देखा 
351 ,गया 
351 ,कलन 
350 ,म्याग्दी 
350 ,सालदेखि 
350 ,पत्रकार 
350 ,दोश्रो 
350 ,छोटो 
350 ,रूख 
350 ,भनि 
349 ,युग 
349 ,नही 
349 ,सद 
348 ,सर्वोच्च 
348 ,सम्भावना 
348 ,जीवनमा 
348 ,भाद्र 
348 ,कप 
347 ,रूपन्देही 
347 ,फाइनान्स 
347 ,भण्डारी 
347 ,पोखरेल 
346 ,महत्त्वपूर्ण 
346 ,सर्वप्रथम 
346 ,राजाले 
346 ,बनाउनु 
346 ,राखी 
346 ,मेरा 
346 ,रगत 
345 ,राख्नुहोला 
345 ,दोहोरो 
345 ,हालको 
345 ,क्लिक 
345 ,भोजन 
345 ,रस 
344 ,वर्षहरुको 
344 ,प्रव 
344 ,ण 
343 ,मनोरञ्जन 
343 ,जापानी 
343 ,सजिलो 
343 ,औसत 
342 ,निर्मल 
342 ,अन्डर 
342 ,एण्ड 
341 ,विद्यालयहरू 
341 ,साप्ताहिक 
341 ,देवकोटा 
341 ,अलङ्कार 
341 ,मुक्ति 
341 ,गर्थे 
340 ,गोर्की 
338 ,सुनुवार 
338 ,शारीरिक 
338 ,मानसिक 
338 ,पाण्डे 
338 ,सागर 
338 ,कोही 
338 ,दश 
337 ,प्रजाति 
337 ,स्नातक 
337 ,राजाको 
337 ,वयस्क 
337 ,युरोप 
337 ,बिकास 
337 ,राशि 
337 ,जस 
336 ,माध्यमबाट 
336 ,धर्मको 
336 ,सम्वत 
336 ,जितेर 
336 ,पेशा 
336 ,गर 
335 ,जिम्मेवारी 
335 ,स्वीकार 
335 ,भन्छन् 
335 ,सैन्य 
334 ,वर्षहरुलाई 
334 ,चलचित्रमा 
334 ,हुनुपर्छ 
334 ,उल्लेखित 
334 ,युकेश 
334 ,असार 
334 ,हार 
334 ,पौष 
334 ,जेठ 
334 ,गाल 
334 ,ली 
334 ,दे 
333 ,स्त्री 
333 ,सामेल 
333 ,बाँके 
333 ,दान 
333 ,नौ 
332 ,विशिष्ट 
332 ,ङ्खला 
332 ,शोधन 
332 ,गायन 
331 ,मनाइन्छ 
331 ,बराबर 
331 ,जिला 
330 ,सोलुखुम्बु 
330 ,साहित्यको 
330 ,साम्राज्य 
330 ,सिमाना 
330 ,वर्षमा 
330 ,खेल्ने 
330 ,सुची 
330 ,जय 
329 ,सहयोगी 
329 ,पुग्यो 
329 ,उपाधि 
329 ,आगामी 
329 ,थोरै 
329 ,डट 
328 ,व्याख्या 
328 ,सुरुवात 
328 ,लेखेको 
328 ,अन्त्य 
328 ,वर्षा 
328 ,माटो 
328 ,छिन् 
328 ,जून 
328 ,गाई 
328 ,दि 
327 ,थ्वीनारायण 
327 ,पर्याप्त 
327 ,गर्नाले 
326 ,प्रधानमन्त्रीहरू 
326 ,सुधारहरू 
326 ,स्वामी 
326 ,द्धिको 
326 ,डे 
325 ,सेनाको 
325 ,आग्रह 
325 ,अवधि 
325 ,कार 
324 ,आदिवासी 
324 ,बेलामा 
324 ,सङ्घ 
324 ,बाबु 
324 ,कहाँ 
323 ,गर्नुपर्ने 
323 ,देशहरू 
323 ,हातमा 
323 ,बुटवल 
323 ,पार्क 
323 ,शैली 
321 ,वास्तवमा 
321 ,उनीहरूको 
321 ,परिषद् 
321 ,तिनलाई 
321 ,रोगको 
321 ,परेका 
321 ,बसेर 
321 ,छन्द 
321 ,हाड 
321 ,सधै 
320 ,आन्तरिक 
320 ,पानीमा 
320 ,देवीको 
320 ,जनबादी 
320 ,राजव 
320 ,सित 
319 ,गर्नुभयो 
319 ,जन्मेका 
319 ,कहिल्यै 
319 ,स्नान 
319 ,हिजो 
319 ,खबर 
319 ,आम 
318 ,पत्ता 
318 ,पुल 
318 ,खोज 
317 ,पूर्णिमा 
317 ,श्राद्ध 
317 ,पाईन्छ 
317 ,कप्तान 
317 ,सिटी 
317 ,ता 
317 ,गण 
316 ,व्यापक 
316 ,अर्जुन 
316 ,कक्षा 
316 ,थारु 
315 ,कञ्चनपुर 
315 ,किसिमका 
315 ,सक्दैन 
315 ,प्रचार 
315 ,दियो 
314 ,तमिलनाडु 
314 ,रेकर्ड 
314 ,लक्षण 
314 ,भएपनि 
314 ,पाएका 
314 ,धामी 
314 ,झरना 
313 ,वास्तविक 
313 ,शरीरको 
313 ,टस 
312 ,सर्वश्रेष्ठ 
312 ,नभएर 
312 ,रही 
312 ,यहा 
312 ,गजल 
311 ,उल्लेखनीय 
311 ,ब्राउजर 
311 ,मिनेट 
311 ,किरात 
311 ,रत्न 
311 ,जबकि 
311 ,दूध 
311 ,अलि 
310 ,विकिमा 
310 ,बागलुङ 
310 ,जग्गा 
310 ,घरेलु 
310 ,बस्न 
310 ,गुण 
308 ,प्रविधिको 
308 ,राजस्थान 
308 ,कार्की 
308 ,जाँदा 
308 ,खला 
307 ,अन्नपूर्ण 
307 ,भइरहेको 
307 ,सेवन 
306 ,समाजको 
306 ,आफूले 
306 ,वर्ण 
306 ,फोटो 
305 ,सिर्जना 
305 ,समुद्र 
305 ,बनाएका 
305 ,भावना 
305 ,एकपटक 
305 ,डि 
305 ,जि 
304 ,अङ्ग्रेजीमा 
304 ,मुलुकमा 
304 ,दायाँ 
303 ,हुनुहुन्थ्यो 
303 ,विराटनगर 
303 ,अनलाईन 
303 ,खड्का 
303 ,ज्यु 
303 ,गति 
302 ,समयसम्म 
302 ,ष्टिले 
302 ,बाजुरा 
302 ,पर्नेछ 
302 ,पक्षमा 
302 ,गर्दथे 
302 ,रहेर 
302 ,कन 
301 ,युद्धमा 
301 ,सबैलाई 
301 ,डिक्सन 
301 ,मुगल 
300 ,गायकहरू 
300 ,कर्नाटक 
300 ,देशका 
300 ,गूगल 
300 ,दशै 
300 ,वी 
299 ,बन्ने 
299 ,हुँ 
299 ,रात 
298 ,माओवादीको 
298 ,आयुर्वेद 
298 ,पराजुली 
298 ,गुजरात 
298 ,अवसरमा 
298 ,कस्तो 
298 ,नजीक 
298 ,मह 
297 ,अमेरिकाको 
297 ,ओलम्पिक 
297 ,रेग्मी 
297 ,प्रमाण 
297 ,च्यानल 
297 ,कुमारी 
297 ,आदरणीय 
297 ,वहाँ 
297 ,माग 
297 ,आउन 
296 ,बार्सिलोना 
296 ,हरूलाई 
296 ,स्कुल 
296 ,पार्न 
296 ,न्याय 
296 ,घण्टा 
296 ,मासु 
296 ,जसो 
295 ,विक्रमी 
295 ,स्थायी 
295 ,सीमित 
295 ,सचिव 
294 ,धारणा 
294 ,चीनको 
294 ,साउन 
294 ,भदौ 
294 ,कमी 
293 ,जिल्लाहरु 
293 ,समुदायले 
293 ,निमित्त 
293 ,अगाथा 
293 ,प्रब 
293 ,पि 
292 ,दुइपल्ट 
292 ,गुणस्तर 
292 ,हनुमान 
292 ,तरकारी 
292 ,सुनेर 
291 ,उपत्यकाको 
291 ,प्रज्ञा 
291 ,शामिल 
291 ,युगमा 
291 ,मैदान 
291 ,भगत 
291 ,रा 
290 ,विधानसभामा 
290 ,सम्मानित 
290 ,तालिका 
290 ,क्रिया 
290 ,मीटर 
290 ,रुप 
290 ,बम 
289 ,प्रतियोगिताको 
289 ,सहभागिता 
289 ,मुस्लिम 
289 ,जेम्स 
288 ,त्यसैगरी 
288 ,व्याकरण 
288 ,कश्मीर 
288 ,किसान 
288 ,आमाको 
288 ,भनाई 
287 ,प्रसिद्धि 
287 ,ज्ञानबाकस 
287 ,प्रगति 
287 ,द्धारा 
287 ,त्यसका 
287 ,जातीय 
287 ,क्ष 
286 ,इङ्गल्याण्ड 
286 ,गरिन्थ्यो 
286 ,मन्त्र 
286 ,दुर्गा 
286 ,आन्ध्र 
286 ,भनेका 
286 ,फागुन 
286 ,उपाय 
286 ,फ 
285 ,मध्यपश्चिमाञ्चल 
285 ,अफगानिस्तान 
285 ,राष्ट्रको 
285 ,भइसकेको 
285 ,साँचा 
285 ,भनिने 
285 ,चालु 
285 ,बस 
284 ,बुझिन्छ 
284 ,ख्यामा 
284 ,सबैले 
284 ,हटाई 
284 ,तथ्य 
283 ,ऊर्जा 
283 ,यज्ञ 
283 ,एवम् 
283 ,मुख 
283 ,टु 
283 ,खस 
282 ,महिलाहरू 
282 ,हुनसक्छ 
282 ,टेलिफोन 
282 ,औपचारिक 
282 ,पालन 
282 ,कर्म 
282 ,मान 
282 ,घीय 
281 ,रुपन्देही 
281 ,मुस्ताङ 
281 ,शिर्षक 
281 ,दिइन्छ 
281 ,शासक 
281 ,एकता 
281 ,आक 
280 ,राजस्व 
280 ,बमोजिम 
280 ,हवाई 
280 ,किया 
280 ,आषाढ 
280 ,सरल 
280 ,पनी 
280 ,हु 
279 ,सन्दर्भमा 
279 ,अत्यधिक 
279 ,परमाणु 
279 ,नदीहरू 
279 ,अभिलेख 
279 ,पारेर 
279 ,जसबाट 
279 ,नभई 
279 ,गी 
278 ,प्रकाशनका 
278 ,मुद्रा 
278 ,गायिका 
278 ,सक्दछ 
278 ,द्वीप 
278 ,दाहाल 
278 ,इलाका 
278 ,इटाली 
278 ,भाले 
278 ,चेक 
278 ,फर 
277 ,वन्यजन्तु 
277 ,जलविद्युत 
277 ,वर्गीकरण 
277 ,मुख्यत 
277 ,फिर्ता 
277 ,पाएको 
277 ,महेश 
277 ,डलर 
276 ,विकिपरियोजना 
276 ,श्रीमती 
276 ,राम्रा 
276 ,कुकुर 
276 ,भाई 
276 ,कूल 
275 ,लेखेका 
275 ,पदमा 
275 ,स्त 
275 ,रु 
274 ,समर्थनको 
274 ,रासायनिक 
274 ,सम्मेलन 
274 ,तिब्बती 
274 ,उन्मुख 
274 ,होली 
274 ,लागे 
273 ,लण्डन 
272 ,लक्ष्मीप्रसाद 
272 ,कविताहरू 
272 ,उनीहरूले 
272 ,वुलेटिन 
272 ,मित्र 
272 ,घरको 
272 ,लघु 
272 ,कदर 
271 ,उत्पादक 
271 ,वेस्ट 
271 ,रनले 
271 ,नामा 
271 ,सके 
271 ,पदक 
270 ,हावापानी 
270 ,उपाध्याय 
270 ,हुनुभयो 
270 ,प्रेरित 
270 ,मिश्र 
270 ,प्रकट 
270 ,चम्चा 
270 ,रुचि 
270 ,कु 
269 ,गरिरहेका 
269 ,सशस्त्र 
269 ,लिम्बु 
269 ,तिमा 
269 ,कपडा 
269 ,कडा 
269 ,दस 
268 ,महिलाको 
268 ,फाल्गुण 
268 ,कमन्समा 
267 ,तर्राष्ट्रीय 
267 ,जानकारीका 
267 ,टिप्पणी 
267 ,सुब्बा 
267 ,उपनाम 
267 ,उत्तम 
266 ,राजेन्द्र 
266 ,धवलागिरी 
266 ,लेखिएका 
266 ,महात्मा 
266 ,प्रशासक 
266 ,एघारौ 
266 ,घर्ष 
266 ,नम 
265 ,प्रतिक्रिया 
265 ,सम्पत्ति 
265 ,हुदैन 
265 ,सम्भव 
265 ,डाँडा 
265 ,अमर 
264 ,स्रोतहरू 
264 ,अत्यन्तै 
264 ,हिसाबले 
264 ,सल्लाह 
264 ,लिइन्छ 
264 ,नक्सा 
264 ,पैसा 
264 ,बनी 
263 ,वित्तीय 
263 ,कोलकाता 
263 ,हुन्छन 
263 ,विलियम 
263 ,जनताले 
263 ,भन्नु 
263 ,बसेका 
263 ,त्यहि 
263 ,टाउको 
263 ,मौसम 
263 ,चिसो 
263 ,शको 
262 ,व्यापारिक 
262 ,डडेलधुरा 
262 ,वैधानिक 
262 ,ज्योतिष 
262 ,जान्छन् 
262 ,कुराको 
262 ,विवाद 
262 ,यसैले 
262 ,तारिक 
262 ,तसर्थ 
261 ,ग्रहालय 
261 ,काममा 
261 ,पित 
260 ,ज्याक 
260 ,गणित 
260 ,खनाल 
260 ,रुख 
260 ,मकै 
259 ,बार्नस्टार 
259 ,हुनुपर्ने 
259 ,कुराहरू 
259 ,बस्ती 
259 ,नजीकै 
259 ,रोमन 
259 ,शनि 
258 ,मनोरञ्जनात्मक 
258 ,नियुक्त 
258 ,पुग्ने 
258 ,त्यसले 
258 ,ज्वरो 
258 ,सीता 
258 ,नष्ट 
258 ,इराक 
257 ,प्रतिनिधि 
257 ,शताब्दी 
257 ,विकासका 
257 ,नक्षत्र 
257 ,माध्यम 
257 ,ख्याको 
257 ,सुख 
257 ,भी 
256 ,प्रजातन्त्र 
256 ,शास्त्रीय 
256 ,दिनुहोला 
256 ,गरिरहेको 
256 ,अस्तित्व 
256 ,भनाइ 
256 ,पढ्न 
256 ,नजिक 
256 ,जमीन 
256 ,खर्च 
256 ,रथ 
256 ,यु 
255 ,अहिलेसम्म 
255 ,अवस्थिति 
255 ,त्यस्ता 
255 ,खासगरी 
255 ,लगानी 
255 ,मूल्य 
255 ,मध्यम 
255 ,थिएँ 
254 ,सोभियत 
254 ,सूचीमा 
254 ,उपयोगी 
254 ,शिखर 
254 ,सुन 
253 ,त्वमा 
253 ,चिया 
253 ,औषधि 
253 ,रकम 
253 ,जेल 
253 ,सु 
252 ,क्यालिफोर्निया 
252 ,राज्यहरू 
252 ,विभाजित 
252 ,पोथ्रा 
252 ,प्रश 
252 ,जोड 
251 ,सम्पादनहरू 
251 ,हटाउने 
251 ,स्टेफन 
251 ,शहरको 
251 ,एल्बम 
251 ,पर्न 
251 ,काठ 
250 ,देउराली 
250 ,विगतमा 
250 ,साँखर 
250 ,बिजयी 
250 ,तीर्थ 
250 ,बाली 
250 ,पशु 
249 ,स्थानहरूमा 
249 ,बढाउनुका 
249 ,अनिवार्य 
249 ,ग्रामीण 
249 ,बस्नेत 
249 ,ज्योति 
249 ,लगाउन 
249 ,इस 
248 ,पात्रहरू 
248 ,निर्धारण 
248 ,अनुवादित 
248 ,तालहरू 
248 ,सकेन 
248 ,अन्त 
248 ,बलि 
247 ,द्वितीय 
247 ,लाग्दछ 
247 ,दुल्लु 
247 ,तत्त्व 
247 ,प्रेस 
247 ,बराल 
247 ,पेज 
247 ,बर 
246 ,सम्पादनथन 
246 ,परीक्षण 
246 ,लगातार 
246 ,लक्ष्य 
246 ,बसोवास 
246 ,टेरियर 
246 ,शहीद 
246 ,भएकी 
246 ,पन्त 
246 ,गुठी 
246 ,जित 
246 ,जाब 
245 ,अमेरिकामा 
245 ,निर्देशन 
245 ,मैथिली 
245 ,मुद्दा 
245 ,छुट्टै 
245 ,पुजा 
245 ,जसका 
245 ,नभए 
244 ,मिलाउदै 
244 ,प्रशस्त 
244 ,लेखनाथ 
244 ,मोबाइल 
244 ,खण्डमा 
244 ,भक्ति 
244 ,मनाङ 
244 ,धारण 
244 ,त्र 
244 ,यू 
243 ,शुभकामनाले 
243 ,शक्तिशाली 
243 ,प्रमाणित 
243 ,राज्यका 
243 ,गाउँको 
243 ,कल्पना 
243 ,शुक्र 
243 ,थारू 
243 ,गोली 
243 ,पु 
242 ,उपत्यकामा 
242 ,औद्योगिक 
242 ,पार्ने 
242 ,स्पेन 
242 ,शहरमा 
242 ,बच्चा 
242 ,पद्म 
242 ,सफा 
241 ,शिक्षाको 
241 ,सदस्यता 
241 ,वाणिज्य 
241 ,हेक्टर 
241 ,सम्ममा 
241 ,यन्त्र 
241 ,प्रतीक 
241 ,बढ्दै 
241 ,मेरी 
241 ,एफसी 
241 ,आगो 
240 ,मेटाउनु 
240 ,तापक्रम 
240 ,सभ्यता 
240 ,लागेका 
240 ,डोल्पा 
240 ,तापनि 
240 ,यसो 
239 ,इन्जिनियरिङ 
239 ,व्यावसायिक 
239 ,व्यक्तिले 
239 ,आन्दोलनमा 
239 ,लेखहरूको 
239 ,पूर्वीय 
239 ,मैनाली 
239 ,थालेको 
239 ,एप्रिल 
239 ,छोडेर 
239 ,हाते 
239 ,आर्य 
238 ,अर्थतन्त्रहरू 
238 ,क्यान्सर 
238 ,उपस्थिति 
238 ,अन्तरिम 
238 ,परिणत 
238 ,जैविक 
238 ,खालको 
238 ,विधा 
238 ,लेखा 
237 ,विश्वेश्वरप्रसाद 
237 ,मानिसहरूको 
237 ,पुस्तकहरू 
237 ,कार्यकारी 
237 ,यिनीहरू 
237 ,लम्बाई 
237 ,पुष्टि 
237 ,नगरको 
237 ,मोहन 
237 ,सहज 
236 ,विकिपिडियालाई 
236 ,जनआन्दोलन 
236 ,अफ्रिकाका 
236 ,प्रयोगमा 
236 ,कार्यलाई 
236 ,विकेटले 
236 ,महत्त्व 
236 ,आकारको 
236 ,इच्छा 
236 ,सँगै 
236 ,तमिल 
236 ,क्षी 
236 ,बे 
236 ,न् 
235 ,प्रतियोगितामा 
235 ,सदस्यहरू 
235 ,मनाइने 
235 ,जनजाति 
235 ,मिल्छ 
235 ,डर 
234 ,प्रयोगकर्ताहरू 
234 ,लिङ्कहरु 
234 ,शाश्वत 
234 ,पुगेका 
234 ,खुट्टा 
234 ,बहिनी 
234 ,काली 
234 ,भइ 
233 ,क्रान्तिकारी 
233 ,वायु 
233 ,कथास 
233 ,झै 
232 ,प्रणालीको 
232 ,रसायनिक 
232 ,मेडिकल 
232 ,थ्वीको 
232 ,तुल्सी 
232 ,कालिका 
232 ,शमशेर 
232 ,गरिन् 
232 ,भैरव 
232 ,करीब 
232 ,बजे 
232 ,थे 
231 ,ब्यक्तिहरू 
231 ,हैदराबाद 
231 ,युरोपेली 
231 ,रमाइलो 
231 ,बोलिने 
231 ,गर्नमा 
231 ,सफलता 
231 ,गोपाल 
231 ,टापू 
231 ,मठ 
230 ,व्यक्तित्वहरू 
230 ,रक्षित 
230 ,पाँचौ 
230 ,दुइटै 
230 ,जोडेर 
230 ,अपराध 
230 ,मनमा 
229 ,विकिपिडियाको 
229 ,स्थानको 
229 ,परीक्षा 
229 ,गर्दछौ 
229 ,हाइफा 
229 ,भूभाग 
228 ,आवेदनहरू 
228 ,व्यवहार 
228 ,बनाउनको 
228 ,हरूले 
228 ,होटल 
228 ,जात 
227 ,अनुप्रेषणलाई 
227 ,राष्ट्रियता 
227 ,फ्रान्सेली 
227 ,शताब्दीमा 
227 ,देखिन्छन् 
227 ,प्रदेशको 
227 ,गोदावरी 
227 ,उपस्थित 
227 ,दुइवटा 
227 ,लिएका 
227 ,निको 
227 ,जर्ज 
227 ,आकाश 
227 ,यहि 
227 ,कित 
226 ,सक्रियताको 
226 ,क्रिकेटमा 
226 ,बाह्यलि 
226 ,पुरालेख 
226 ,ज्ञानको 
226 ,ष्ठहरु 
226 ,विकल्प 
226 ,सारमा 
226 ,शिकार 
226 ,बायाँ 
226 ,गर्छु 
226 ,घाट 
225 ,वर्गिकरण 
225 ,एतिहासिक 
225 ,मिश्रित 
225 ,महाकवि 
225 ,अभिनित 
225 ,कमजोर 
225 ,छिटो 
225 ,थाह 
225 ,तमा 
225 ,लो 
224 ,परिसम्पत्ति 
224 ,प्रभावकारी 
224 ,साक्षरता 
224 ,खुवासभा 
224 ,किनारमा 
224 ,सम्राट 
224 ,लिम्बू 
224 ,बेलुका 
224 ,आयोजित 
224 ,सिरहा 
224 ,धाम 
224 ,वर 
223 ,अधिकारहरुको 
223 ,ड्यनिएल्ले 
223 ,समुदायमा 
223 ,पार्टीका 
223 ,विषयहरू 
223 ,तुलनामा 
223 ,गर्दछौँ 
223 ,शिक्षक 
223 ,किराँत 
223 ,उदेश्य 
223 ,माथी 
223 ,गिरी 
223 ,गएका 
222 ,अर्थतन्त्रहरूस 
222 ,इन्टरनेसनल 
222 ,राख्दछौँ 
222 ,क्यानाडा 
222 ,पराजित 
222 ,निर्भर 
222 ,तेश्रो 
222 ,जातिका 
222 ,माघे 
222 ,गे 
221 ,टक्र्याउन 
221 ,काँग्रेस 
221 ,मानिने 
221 ,बोकेको 
221 ,सिद्ध 
221 ,ष्ठता 
221 ,नदीमा 
221 ,टर्की 
221 ,गली 
220 ,न्युजिल्यान्ड 
220 ,वर्षसम्म 
220 ,भइसकेका 
220 ,पर्वहरू 
220 ,शिकारी 
220 ,पुरै 
219 ,राजनीतिज्ञ 
219 ,जीवनशैली 
219 ,कुनैपनि 
219 ,मिल्ने 
219 ,स्टार 
219 ,सन्धि 
219 ,नेशनल 
219 ,टापु 
219 ,गुरू 
219 ,कठिन 
219 ,माझ 
218 ,महानगरपालिका 
218 ,पुरातात्विक 
218 ,शक्तिपीठ 
218 ,स्थाहरू 
218 ,महासागर 
218 ,दुख्ने 
218 ,कब्जा 
218 ,बुढा 
218 ,सेन 
217 ,सङ्खुवासभा 
217 ,गोरखापत्र 
217 ,प्रतिभा 
217 ,जानिन्छ 
217 ,चाडपर्व 
217 ,ठाउँको 
217 ,फाइदा 
217 ,नवराज 
217 ,लिनु 
217 ,बैक 
217 ,प्र 
217 ,तिन 
216 ,राजकुमार 
216 ,युनाइटेड 
216 ,विकासमा 
216 ,जनवादी 
216 ,चिनिने 
216 ,गम्भीर 
216 ,बुझ्न 
216 ,ईश्वर 
216 ,हुनत 
216 ,श्रम 
216 ,टावर 
216 ,जनरल 
216 ,खैरो 
215 ,अन्तरिक्ष 
215 ,वाराणसी 
215 ,इत्यादि 
215 ,बित्ने 
215 ,छिमेकी 
215 ,अवलोकन 
215 ,हालेर 
215 ,रसुवा 
215 ,म्यान 
215 ,मसँग 
215 ,दिशा 
215 ,केसी 
214 ,परिक्रमा 
214 ,महासचिव 
214 ,दिनसम्म 
214 ,परिकार 
214 ,हजारौ 
214 ,शुल्क 
214 ,मकर 
214 ,गमा 
213 ,प्रशान्त 
213 ,आधिकारीक 
213 ,वर्गको 
213 ,पाण्डव 
213 ,इस्लाम 
213 ,गहिरो 
213 ,यता 
213 ,आफु 
212 ,साहित्यकारहरू 
212 ,कार्यक्रमहरू 
212 ,अर्जेन्टिना 
212 ,उद्देश्यले 
212 ,शहरहरुको 
212 ,प्रश्नको 
212 ,परन्तु 
212 ,अन्तमा 
212 ,बलियो 
212 ,पक्कै 
212 ,अदालत 
212 ,अक्षा 
212 ,फ्रा 
212 ,नाता 
212 ,तिका 
212 ,उनकी 
211 ,सामाग्रीरू 
211 ,फैलाउन 
211 ,सहमति 
211 ,सजिलै 
211 ,बढेको 
211 ,गाली 
211 ,पेट 
211 ,हल 
211 ,सब 
210 ,सञ्चालित 
210 ,मानिसले 
210 ,मह्कुमा 
210 ,हतियार 
210 ,यसैगरी 
210 ,कसैलाई 
210 ,फारसी 
210 ,झण्डा 
210 ,पटना 
209 ,रामचरितमानस 
209 ,विश्वकर्मा 
209 ,मानिन्छन् 
209 ,त्यसबेला 
209 ,सिफारिस 
209 ,सम्झौता 
209 ,पर्यटक 
209 ,तपस्या 
209 ,पछाडी 
209 ,ष्य 
209 ,शिक 
209 ,पास 
209 ,एयर 
208 ,कार्यक्रमको 
208 ,प्राथमिकता 
208 ,उत्तराखण्ड 
208 ,भानुभक्त 
208 ,व्यवसाय 
208 ,विद्या 
208 ,तुलसी 
208 ,कानुन 
208 ,नगरी 
208 ,कल्प 
207 ,उहाँका 
207 ,स्मरण 
207 ,किनकी 
207 ,रक्त 
207 ,प्रस 
207 ,चक्र 
207 ,जैन 
206 ,केन्द्रित 
206 ,देशहरूमा 
206 ,परिभाषा 
206 ,देवताको 
206 ,नसक्ने 
206 ,पुग्छ 
206 ,निकाय 
206 ,यिनै 
206 ,अन्न 
206 ,वेब 
205 ,हुम्ला 
205 ,बर्षको 
205 ,इजरायल 
205 ,बाहुन 
205 ,निवास 
205 ,घनत्व 
205 ,लिया 
205 ,तलका 
205 ,आदेश 
205 ,अङ्ग 
205 ,वाट 
205 ,खडा 
205 ,एच 
204 ,बताउनुहुन्छ 
204 ,जन्मिएका 
204 ,भिटामिन 
204 ,स्तरीय 
204 ,स्तरमा 
204 ,डिभिजन 
204 ,किल्ला 
204 ,सहरमा 
204 ,वसन्त 
204 ,मनोरम 
204 ,भर्ना 
204 ,कामना 
204 ,जानु 
204 ,खुसी 
204 ,किरण 
204 ,बुध 
204 ,झा 
203 ,ज्ञानेन्द्र 
203 ,कार्यहरू 
203 ,एकादशीको 
203 ,सुवेदी 
203 ,पिताको 
203 ,सारको 
203 ,फाइनल 
203 ,खेल्न 
203 ,पोथी 
203 ,अशोक 
203 ,वाद 
203 ,बाघ 
203 ,द्र 
203 ,द्ध 
203 ,गित 
202 ,आकर्षण 
202 ,साउदी 
202 ,ग्रेट 
202 ,सह 
201 ,राष्ट्रस 
201 ,जडीबुटी 
201 ,सतहबाट 
201 ,प्रहार 
201 ,चित्रण 
201 ,मोडेल 
201 ,भेगमा 
201 ,तिहार 
201 ,चाँडै 
201 ,भारी 
200 ,दार्शनिक 
200 ,महाराज 
200 ,सारका 
200 ,पर्यो 
200 ,गीति 
200 ,गहना 
200 ,कामी 
200 ,स्व 
200 ,सतह 
200 ,कान 
200 ,कडी 
199 ,किलोमीटर 
199 ,युद्धको 
199 ,पञ्चायत 
199 ,सिड्नी 
199 ,बोल्ने 
199 ,लेखेर 
199 ,ज्यान 
199 ,एकदमै 
199 ,आपसमा 
199 ,सपना 
199 ,गरौँ 
199 ,अवधी 
199 ,विक 
198 ,मानिसहरूले 
198 ,गर्नुपर्दछ 
198 ,इलाहाबाद 
198 ,कुरालाई 
198 ,हुँदैछ 
198 ,पद्धति 
198 ,रियल 
198 ,ब्लग 
198 ,फाइल 
198 ,हाे 
198 ,पेश 
198 ,नुन 
197 ,उपत्यकाका 
197 ,हुनुभएको 
197 ,जाँच्दै 
197 ,बनाइने 
197 ,सक्षम 
197 ,नतिजा 
197 ,अन्तर 
197 ,भक्त 
197 ,पति 
197 ,दुध 
197 ,आयु 
197 ,पो 
197 ,खा 
196 ,सुनिश्चित 
196 ,स्मारक 
196 ,बिक्रम 
196 ,सातौ 
196 ,राखे 
196 ,दाजु 
196 ,लाल 
196 ,भाव 
195 ,क्रिस्टीका 
195 ,साहित्यका 
195 ,ल्याटिन 
195 ,कालीकोट 
195 ,एकमात्र 
195 ,कथाहरू 
195 ,आकर्षक 
195 ,मुगु 
195 ,बाबा 
195 ,टीम 
195 ,गत 
194 ,गरिदिनुहुन 
194 ,नेटवर्क 
194 ,इण्डिया 
194 ,हिमाचल 
194 ,वर्गमा 
194 ,पशुपति 
194 ,कल्याण 
194 ,रमणीय 
194 ,आफुले 
194 ,पैदा 
194 ,टाइप 
194 ,जरा 
194 ,ओम 
193 ,यूनाइटेड 
193 ,क्याथरिन 
193 ,श्रीराम 
193 ,भूकम्प 
193 ,वेल्स 
193 ,आरक्ष 
193 ,अर्का 
193 ,हङकङ 
193 ,योजक 
193 ,जसरी 
193 ,बसे 
193 ,घका 
193 ,भर 
192 ,सुदूरपश्चिमाञ्चल 
192 ,स्नातकोत्तर 
192 ,लेखापरीक्षण 
192 ,समितिहरूस 
192 ,सेनाले 
192 ,ओगटेको 
192 ,ष्णले 
192 ,पर्दा 
192 ,धनगढी 
192 ,लखनऊ 
192 ,परेछ 
192 ,निकट 
192 ,नारी 
192 ,त्री 
192 ,अखिल 
192 ,दशक 
192 ,कमल 
192 ,कदम 
192 ,गम 
191 ,पूर्वमन्त्री 
191 ,माइक्रोसफ्ट 
191 ,तिमीलाई 
191 ,भुमिका 
191 ,पर्‍यो 
191 ,औचित्य 
191 ,हमाल 
191 ,लागु 
191 ,योगी 
191 ,धूलो 
191 ,तौल 
190 ,गोर्खाली 
190 ,धन्यबाद 
190 ,जनतालाई 
190 ,इन्डिया 
190 ,स्तम्भ 
190 ,मारिया 
190 ,पर्दैन 
190 ,दिशामा 
190 ,लाग्न 
190 ,पुर्व 
190 ,घाइते 
190 ,आश्रम 
190 ,मौका 
190 ,माडी 
189 ,विधानसभाको 
189 ,प्रशिक्षण 
189 ,कालिकोट 
189 ,खेलेको 
189 ,सर्प 
189 ,आयात 
189 ,ना 
188 ,ग्रहहरू 
188 ,यिनलाई 
188 ,भीमसेन 
188 ,पञ्जाब 
188 ,उचाइमा 
188 ,शारदा 
188 ,महसुस 
188 ,हाउस 
188 ,गराए 
188 ,बार 
188 ,रक 
188 ,भो 
188 ,दो 
187 ,बिस्तारै 
187 ,रूपबाट 
187 ,पण्डित 
187 ,चाहिँ 
187 ,खेलको 
187 ,अनवरत 
187 ,खोजी 
187 ,टोल 
187 ,मु 
186 ,ष्णप्रसाद 
186 ,सुरुङ्गा 
186 ,विद्यमान 
186 ,यसप्रकार 
186 ,नेपाललाई 
186 ,सुन्दरी 
186 ,भूमिगत 
186 ,कार्बन 
186 ,शाक्य 
186 ,पालना 
186 ,बिहे 
186 ,थपिए 
186 ,उडान 
186 ,भात 
186 ,तय 
185 ,यजुर्वेद 
185 ,मनमुटाव 
185 ,स्पेनी 
185 ,ज्यादै 
185 ,समिती 
185 ,सभाको 
185 ,सत्ता 
185 ,झन्डै 
185 ,टेलर 
185 ,जाता 
185 ,किलो 
185 ,काजी 
185 ,करने 
184 ,व्यवस्थित 
184 ,पेरियोडिक 
184 ,धेरैजसो 
184 ,गाविसका 
184 ,व्रतको 
184 ,वार्ड 
184 ,बिचमा 
184 ,रबिन 
184 ,जाती 
184 ,छाला 
184 ,मनु 
184 ,भेट 
184 ,धित 
184 ,धी 
184 ,थ 
183 ,पत्रकारिता 
183 ,आउँछन् 
183 ,अध्याय 
183 ,सामान 
183 ,सहरको 
183 ,यसपछि 
183 ,पहिरन 
183 ,सोम 
183 ,लाभ 
183 ,गले 
183 ,लभ 
182 ,मार्क्सवादी 
182 ,स्थितिमा 
182 ,मानिसलाई 
182 ,विधानमा 
182 ,बाबुराम 
182 ,कर्तव्य 
182 ,जयन्ती 
182 ,आश्विन 
182 ,बोकेर 
182 ,बीचको 
182 ,नभएका 
182 ,चेतना 
182 ,किशोर 
182 ,हटाइ 
182 ,माला 
182 ,नीलो 
182 ,तिनै 
182 ,घोडा 
182 ,गीता 
182 ,बगै 
182 ,ही 
181 ,इन्टरनेशनल 
181 ,दिनकोलागि 
181 ,इतिहासको 
181 ,सम्बोधन 
181 ,विन्डोज 
181 ,बुद्धको 
181 ,वाह्य 
181 ,मराठी 
181 ,जरुरी 
181 ,अनेकौ 
181 ,कोट 
181 ,हत 
181 ,ष 
180 ,जन्मस्थान 
180 ,पहिलोपटक 
180 ,सफलताको 
180 ,अधिकतम 
180 ,भुटान 
180 ,पारी 
180 ,दिया 
180 ,आसाम 
180 ,रुस 
180 ,दैन 
180 ,बन 
179 ,व्यक्तिहरू 
179 ,प्रजातिका 
179 ,अवार्डहरू 
179 ,बसन्तपुर 
179 ,विधानको 
179 ,सङ्घीय 
179 ,विषयको 
179 ,मनोनयन 
179 ,बाक्लो 
179 ,पछाडि 
179 ,कामको 
179 ,दय 
178 ,केन्द्रिय 
178 ,उपाध्यक्ष 
178 ,अन्तरविकी 
178 ,पार्टीले 
178 ,वर्षपछि 
178 ,राखिन्छ 
178 ,जुनसुकै 
178 ,वर्षीय 
178 ,चरित्र 
178 ,कानूनी 
178 ,भूटान 
178 ,पाइला 
178 ,आगरा 
178 ,लिई 
178 ,शा 
178 ,मल 
178 ,झ 
177 ,अर्थशास्त्र 
177 ,गोर्कीका 
177 ,ल्याउने 
177 ,राज्यले 
177 ,पार्वती 
177 ,अहिलेको 
177 ,सङ्गठन 
177 ,धर्ममा 
177 ,धर्मका 
177 ,तेलुगु 
177 ,उठाउने 
177 ,ष्णको 
177 ,विजया 
177 ,माइकल 
177 ,प्रवर 
177 ,खारेज 
177 ,एकजना 
177 ,रङ्ग 
177 ,डेटा 
177 ,अन 
176 ,विश्वव्यापी 
176 ,चलचित्रको 
176 ,समुद्री 
176 ,शक्तिको 
176 ,फ्रेन्च 
176 ,गाउँहरू 
176 ,अफ्रीका 
176 ,पक्षको 
176 ,उचाईमा 
176 ,शासित 
176 ,जोखिम 
176 ,चलेको 
176 ,निलो 
176 ,जाँच 
176 ,करिव 
176 ,एकदम 
176 ,असफल 
176 ,रेल 
176 ,ध्र 
176 ,चैत 
176 ,कलम 
175 ,विकिप्रयोगकर्ता 
175 ,शताब्दीको 
175 ,समुदायका 
175 ,विकितथ्य 
175 ,लक्ष्मण 
175 ,यूरोपीय 
175 ,समूहमा 
175 ,हुलाक 
175 ,पेरिस 
175 ,पताका 
175 ,चरणमा 
174 ,निम्नलिखित 
174 ,आध्यात्मिक 
174 ,निर्धारित 
174 ,सम्मिलित 
174 ,हरियाणा 
174 ,दिन्छन् 
174 ,तपाइँको 
174 ,आकर्षित 
174 ,सेन्टर 
174 ,लगाएको 
174 ,पर्वको 
174 ,चेन्नई 
174 ,हल्का 
174 ,दशमलव 
174 ,छोरो 
174 ,कही 
174 ,उदय 
174 ,आलु 
173 ,इङ्गल्यान्ड 
173 ,सन्दर्भहरू 
173 ,सर्वोत्क 
173 ,प्रयुक्त 
173 ,सोध्ने 
173 ,शब्दले 
173 ,नेवारी 
173 ,नामकरण 
173 ,गुम्बा 
173 ,इन्द्र 
173 ,विकेट 
173 ,मान्न 
173 ,पछिको 
173 ,क्षति 
173 ,आफ्नी 
173 ,आत्मा 
173 ,अग्नि 
173 ,पैदल 
173 ,नायक 
173 ,जटिल 
173 ,माई 
173 ,निर 
173 ,अली 
172 ,विजेताहरू 
172 ,एनिमर्फ्स 
172 ,विविधता 
172 ,मोहम्मद 
172 ,हिस्सा 
172 ,वरिपरि 
172 ,ठाँउमा 
172 ,सनातन 
172 ,श्लोक 
172 ,चलाउन 
172 ,गर्मी 
172 ,निगम 
172 ,दशमी 
171 ,प्रयोगकर्ताको 
171 ,कार्यान्वयन 
171 ,अन्त्यमा 
171 ,भोजपुरी 
171 ,रामपुर 
171 ,बढाउने 
171 ,शान्त 
171 ,परिसर 
171 ,गल्ती 
171 ,गतिमा 
171 ,अन्तत 
171 ,गठित 
171 ,पहे 
171 ,गाउ 
171 ,खल 
170 ,सुदूरपश्चिम 
170 ,लक्षणहरू 
170 ,महाकाव्य 
170 ,चिनियाँ 
170 ,मिथिला 
170 ,प्रताप 
170 ,थिएनन् 
170 ,हुन्न 
170 ,हरुको 
170 ,मुफ्त 
170 ,गीतको 
170 ,उर्जा 
170 ,दक्ष 
170 ,खाडी 
170 ,कपूर 
170 ,इन्च 
170 ,मेल 
170 ,लस 
170 ,आत 
170 ,ङ 
169 ,नगरपालिकामा 
169 ,सचिवालय 
169 ,पाथीभरा 
169 ,स्वर्ण 
169 ,स्तरको 
169 ,विरोधी 
169 ,जित्ने 
169 ,स्वाद 
169 ,विष्ट 
169 ,सहमत 
169 ,बधाई 
169 ,हरि 
169 ,अहि 
169 ,सक 
168 ,क्षेत्रहरूमा 
168 ,राख्नुहोस् 
168 ,डडेल्धुरा 
168 ,नागरिकता 
168 ,ब्याटिङ 
168 ,कलात्मक 
168 ,अन्तरगत 
168 ,गरीँदै 
168 ,अर्थमा 
168 ,तालको 
168 ,जम्मू 
168 ,चालित 
168 ,क्रमण 
168 ,राती 
168 ,धातु 
168 ,गरीब 
168 ,क्रा 
168 ,बरु 
168 ,पाप 
168 ,आउट 
167 ,भिक्टोरिया 
167 ,डेभलपमेण्ट 
167 ,प्रार्थना 
167 ,प्रकारले 
167 ,पहिरनहरू 
167 ,क्यानडा 
167 ,कार्यको 
167 ,बढाउनु 
167 ,पर्वमा 
167 ,विदेश 
167 ,दिनेछ 
167 ,ज्ञात 
167 ,कन्या 
167 ,उर्दू 
167 ,मरिच 
167 ,बुबा 
167 ,अभाव 
167 ,पुस 
167 ,कको 
166 ,भनिन्थ्यो 
166 ,मनुष्य 
166 ,पुस्ता 
166 ,एकीकरण 
166 ,सकेका 
166 ,वित्त 
166 ,मदिरा 
166 ,ब्याज 
166 ,तालिम 
166 ,चालक 
165 ,काङ्ग्रेस 
165 ,मेक्सिको 
165 ,पोर्चुगल 
165 ,देशान्तर 
165 ,निर्वाह 
165 ,स्थाले 
165 ,तत्काल 
165 ,बाह्र 
165 ,पुण्य 
165 ,नेहरू 
165 ,तैयार 
165 ,झण्डै 
165 ,जानकी 
165 ,कन्नड 
165 ,आबद्ध 
165 ,आउनु 
165 ,महल 
164 ,अन्तर्गतको 
164 ,एलेमेन्ट 
164 ,हप्ताको 
164 ,विद्रोह 
164 ,पूजाआजा 
164 ,कम्युटर 
164 ,थालेका 
164 ,गराएका 
164 ,कन्काई 
164 ,शाहको 
164 ,यिनका 
164 ,मजदुर 
164 ,नजिकै 
164 ,षिको 
164 ,छैन् 
164 ,गहुँ 
164 ,चयन 
164 ,ऐ 
163 ,आन्दोलनको 
163 ,वर्णमाला 
163 ,मान्छेको 
163 ,मानिसहरु 
163 ,उपमहानगर 
163 ,बिरुद्ध 
163 ,नियमहरू 
163 ,आधारभूत 
163 ,सभासद् 
163 ,वरिष्ठ 
163 ,ल्याउन 
163 ,भण्डार 
163 ,बताएका 
163 ,पारेको 
163 ,यस्को 
163 ,मुलुक 
163 ,पुरूष 
163 ,ग्यास 
163 ,डिया 
163 ,चीनी 
163 ,लोप 
162 ,सिम्प्सनस् 
162 ,पारिवारिक 
162 ,समर्पित 
162 ,मानन्धर 
162 ,हालैका 
162 ,समुहको 
162 ,मिलियन 
162 ,भविष्य 
162 ,प्रसार 
162 ,पूर्वज 
162 ,त्यहा 
162 ,तयारी 
162 ,छेउमा 
162 ,आउँदा 
162 ,खराब 
162 ,बिच 
161 ,हुनुपर्दछ 
161 ,राख्नुहोस 
161 ,महासन्धि 
161 ,चन्द्रमा 
161 ,घरपालुवा 
161 ,शब्दहरू 
161 ,मलेसिया 
161 ,ख्यालाई 
161 ,लेखिका 
161 ,राखेका 
161 ,बग्ने 
161 ,पीडित 
161 ,कसैको 
161 ,इराकी 
161 ,पायो 
161 ,टीका 
161 ,जहा 
161 ,हर 
161 ,यह 
160 ,फिल्मोग्राफी 
160 ,नेपालीहरूको 
160 ,दार्जिलिङ 
160 ,पञ्चायती 
160 ,स्वीडेन 
160 ,शैलीमा 
160 ,निवासी 
160 ,थ्वीमा 
160 ,चलाउने 
160 ,शिवको 
160 ,कारका 
160 ,एक्लै 
160 ,अग्ला 
160 ,फेला 
160 ,पावन 
160 ,न्यु 
160 ,रोक 
160 ,बाद 
159 ,सौन्दर्य 
159 ,प्रिमियर 
159 ,न्यौपाने 
159 ,हुन्थे 
159 ,बिताउन 
159 ,पञ्चमी 
159 ,पक्राउ 
159 ,दूरीमा 
159 ,रुपले 
159 ,रिजाल 
159 ,हिता 
159 ,विगत 
159 ,लेखे 
159 ,दलले 
159 ,चामल 
159 ,अङ्क 
159 ,नोट 
159 ,पप 
159 ,डल 
158 ,क्षेत्रबाट 
158 ,साधारणतया 
158 ,समस्याहरू 
158 ,ग्रेजीमा 
158 ,टेलीफोन 
158 ,एजेण्डा 
158 ,पेशागत 
158 ,जलवायु 
158 ,स्वयम 
158 ,शङ्कर 
158 ,लेखका 
158 ,बिशेष 
158 ,ढोका 
158 ,कपाल 
158 ,हाँ 
158 ,सीर 
157 ,मुख्यमन्त्री 
157 ,अस्पतालमा 
157 ,विक्सनरी 
157 ,मेगाहर्ज 
157 ,परिवारका 
157 ,नरेन्द्र 
157 ,रिपोर्ट 
157 ,बनाइन्छ 
157 ,नेपालकै 
157 ,मिसाएर 
157 ,बिक्री 
157 ,प्रवाह 
157 ,स्टिल 
157 ,सामना 
157 ,थिइन 
157 ,गढी 
157 ,दह 
157 ,चल 
157 ,‍ 
156 ,म्याड्रिड 
156 ,देवकोटाका 
156 ,विश्वकै 
156 ,ब्रह्मा 
156 ,तपाईँले 
156 ,सहितको 
156 ,मिल्दछ 
156 ,टुक्रा 
156 ,काभ्रे 
156 ,स्टेट 
156 ,बाध्य 
156 ,फलफूल 
156 ,पोष्ट 
156 ,नमुना 
156 ,औषधीय 
156 ,हुदा 
156 ,सन्त 
156 ,दाना 
156 ,उनकै 
156 ,अरुण 
156 ,सोच 
156 ,याे 
156 ,घले 
155 ,पाकिस्तानको 
155 ,सोध्नुहोला 
155 ,सिद्धार्थ 
155 ,शास्त्री 
155 ,विष्णुको 
155 ,नमस्कार् 
155 ,तरिकाहरु 
155 ,जनकपुरको 
155 ,सूर्यको 
155 ,सङ्ग्रह 
155 ,मण्डेला 
155 ,सिस्टम 
155 ,सभापति 
155 ,मस्जिद 
155 ,बाटोमा 
155 ,फिस्टो 
155 ,यमुना 
155 ,बनायो 
155 ,पोस्ट 
155 ,हावा 
155 ,हाँस 
155 ,काशी 
155 ,आरोप 
155 ,आठौ 
154 ,वेवसाइट 
154 ,परशुराम 
154 ,जातीयता 
154 ,जसमध्ये 
154 ,कुराहरु 
154 ,अध्यापन 
154 ,विशेषत 
154 ,रोज्यो 
154 ,भारतिय 
154 ,बनाइयो 
154 ,तानसेन 
154 ,हेरेर 
154 ,हरूमा 
154 ,समग्र 
154 ,पाउनु 
154 ,तालीम 
154 ,रोटी 
154 ,देखे 
154 ,खुशी 
154 ,अभिब 
154 ,दाल 
154 ,चाई 
153 ,विश्वयुद्ध 
153 ,धर्मग्रन्थ 
153 ,लोकतन्त्र 
153 ,स्टेशन 
153 ,साँस्क 
153 ,रोजेको 
153 ,राखियो 
153 ,युनियन 
153 ,ब्रह्म 
153 ,शाहले 
153 ,कुवैत 
153 ,काण्ड 
153 ,हेतु 
153 ,लियो 
153 ,ठुला 
153 ,चारै 
153 ,अनुस 
153 ,दास 
152 ,मध्यवर्ती 
152 ,पाश्चात्य 
152 ,उनीहरूलाई 
152 ,राजालाई 
152 ,तपाइँले 
152 ,ग्रेसका 
152 ,समाजका 
152 ,नगर्ने 
152 ,हिन्द 
152 ,सुन्न 
152 ,सट्टा 
152 ,कुरो 
152 ,कर्ण 
152 ,इरान 
152 ,व्य 
152 ,लखन 
152 ,रवि 
152 ,बास 
152 ,हा 
151 ,समितिले 
151 ,समितिका 
151 ,स्वरुप 
151 ,शासनको 
151 ,राजकीय 
151 ,प्रकोप 
151 ,अनुरूप 
151 ,हप्ता 
151 ,सार्क 
151 ,ठकुरी 
151 ,जयपुर 
151 ,अपभ्र 
151 ,मुटु 
151 ,काला 
151 ,आव 
150 ,प्रजातिहरू 
150 ,निर्माणको 
150 ,रहन्छन् 
150 ,यहाँबाट 
150 ,स्थागत 
150 ,पालामा 
150 ,शीर्ष 
150 ,चिह्न 
150 ,गुप्त 
150 ,सिसप 
150 ,मनको 
150 ,गराई 
150 ,औजार 
150 ,शतक 
150 ,लग 
149 ,प्रयोगकर्ताले 
149 ,ष्टिकोणले 
149 ,कोलम्बिया 
149 ,प्रमण्डल 
149 ,डेनमार्क 
149 ,विद्वान 
149 ,लगाएका 
149 ,प्रतिक 
149 ,एकिकरण 
149 ,लागेर 
149 ,रक्सी 
149 ,बसन्त 
149 ,माधव 
149 ,तर्क 
149 ,चिली 
149 ,वे 
148 ,रमाउनुहुनेछ 
148 ,मान्नुहुनेछ 
148 ,नेपालीभाषी 
148 ,फलस्वरूप 
148 ,महिलाले 
148 ,बाजाहरू 
148 ,जर्जिया 
148 ,हरुलाई 
148 ,स्काउट 
148 ,बिरुवा 
148 ,पर्खाल 
148 ,त्यसरी 
148 ,जोड्ने 
148 ,गाह्रो 
148 ,खिलाडी 
148 ,इन्डिज 
148 ,आयोगले 
148 ,अज्ञात 
148 ,स्थिर 
148 ,रक्षक 
148 ,प्रथा 
148 ,पातको 
148 ,अग्रप 
148 ,लडाई 
148 ,जोडी 
148 ,गाढा 
148 ,गाको 
148 ,सान 
148 ,ठोस 
148 ,खाम 
148 ,ठ 
147 ,पूर्वाञ्चलका 
147 ,दुर्घटना 
147 ,सापकोटा 
147 ,समयदेखि 
147 ,गोरखपुर 
147 ,अफ्रिकी 
147 ,सेवामा 
147 ,सम्शेर 
147 ,यथार्थ 
147 ,डाक्टर 
147 ,टाइम्स 
147 ,आराधना 
147 ,मधेसी 
147 ,मकालु 
147 ,भन्यो 
147 ,तुलना 
147 ,तपाईँ 
147 ,कुण्ड 
147 ,आरोहण 
147 ,लगाए 
147 ,रामक 
147 ,बताए 
147 ,गये 
147 ,कहा 
147 ,एकड 
147 ,ओर 
147 ,् 
146 ,स्थलहरूको 
146 ,वर्षहरूमा 
146 ,समुन्द्र 
146 ,चलिरहेको 
146 ,राजाहरू 
146 ,मलेशिया 
146 ,गणराज्य 
146 ,सम्झना 
146 ,तस्विर 
146 ,विराट 
146 ,मध्यप 
146 ,दर्जा 
146 ,गढवाल 
146 ,आज्ञा 
146 ,वनमा 
146 ,पुरी 
146 ,सवै 
146 ,याद 
146 ,काे 
146 ,तो 
145 ,च्याम्पियनसिप 
145 ,बनाउनुहोस् 
145 ,वीरेन्द्र 
145 ,सभ्यताको 
145 ,प्राप्ति 
145 ,गतिविधि 
145 ,सिनेमा 
145 ,विपरीत 
145 ,फूलको 
145 ,धरोहर 
145 ,ग्वेद 
145 ,कथामा 
145 ,शेयर 
145 ,टोली 
145 ,एकिक 
145 ,आईएल 
145 ,दमन 
145 ,भय 
145 ,अस 
144 ,प्रतिवेदन 
144 ,कम्पनीको 
144 ,समकालीन 
144 ,गर्नुका 
144 ,कात्तिक 
144 ,सेनामा 
144 ,बिजुली 
144 ,गरिदिए 
144 ,गराएको 
144 ,अनुहार 
144 ,सम्बत 
144 ,महान् 
144 ,पट्टी 
144 ,नामका 
144 ,त्यसो 
144 ,आर्यन 
144 ,अलावा 
144 ,सायद 
144 ,बुवा 
144 ,बन्छ 
144 ,पीडा 
144 ,थोमस 
144 ,पतन 
144 ,झन् 
144 ,लै 
143 ,फ्रिक्वेन्सी 
143 ,प्राध्यापक 
143 ,सकारात्मक 
143 ,उपन्यासमा 
143 ,बिराटनगर 
143 ,बिहारका 
143 ,पिपलकोट 
143 ,गरिदिनु 
143 ,पब्लिक 
143 ,सोचको 
143 ,पुगेर 
143 ,नित्य 
143 ,इटहरी 
143 ,अवश्य 
143 ,साइट 
143 ,लागत 
143 ,भूषण 
143 ,छक्क 
143 ,गाडी 
143 ,कीरा 
143 ,औषधी 
143 ,होस 
143 ,खी 
142 ,धर्मावलम्बी 
142 ,भूमिकामा 
142 ,त्यहाँका 
142 ,हिमालको 
142 ,प्रतिमा 
142 ,पश्चात् 
142 ,गबहादुर 
142 ,उप्रेती 
142 ,पूस्तक 
142 ,पर्छन् 
142 ,त्युको 
142 ,तिमीले 
142 ,घाँटी 
142 ,काठको 
142 ,राति 
142 ,कठोर 
142 ,इस्ट 
142 ,रेड 
142 ,भोग 
142 ,भरत 
142 ,कोण 
142 ,हौ 
141 ,स्वतन्त्रताको 
141 ,वीरेन्द्रनगर 
141 ,बालबालिका 
141 ,प्रचलनमा 
141 ,प्रसन्न 
141 ,हात्ती 
141 ,सिपाही 
141 ,चाडलाई 
141 ,विहान 
141 ,मालिक 
141 ,पिण्ड 
141 ,तथापि 
141 ,रहनु 
141 ,गौरी 
141 ,अहमद 
141 ,सदर 
141 ,भजन 
141 ,ओभल 
140 ,अस्ट्रेलियाका 
140 ,आयुर्वेदिक 
140 ,निरन्तरता 
140 ,विस्तारै 
140 ,राजविराज 
140 ,मान्दछन् 
140 ,निर्देशा 
140 ,वर्षका 
140 ,ज्यादा 
140 ,भाइरस 
140 ,तीव्र 
140 ,कनकाई 
140 ,आस्था 
140 ,हमला 
140 ,सुपर 
140 ,रुची 
140 ,माइल 
140 ,भएता 
140 ,हको 
140 ,शका 
140 ,लेन 
140 ,घाम 
140 ,ओपन 
139 ,प्रतिस्थापन 
139 ,निर्वाचनको 
139 ,वर्तमानमा 
139 ,प्रान्तको 
139 ,महादेवको 
139 ,बताउँछन् 
139 ,पुस्तकको 
139 ,जगन्नाथ 
139 ,तीनवटा 
139 ,जनाउँछ 
139 ,केन्या 
139 ,बोर्ड 
139 ,द्वार 
139 ,कुँवर 
139 ,लगाई 
139 ,चाहे 
139 ,काका 
139 ,नाथ 
139 ,उता 
138 ,विश्वामित्र 
138 ,थाइल्याण्ड 
138 ,महिनापछि 
138 ,खम्बाहरु 
138 ,ष्ठभूमि 
138 ,रहेकाले 
138 ,धेरैलाई 
138 ,थालिएको 
138 ,हजुरको 
138 ,सेवाको 
138 ,राख्दा 
138 ,युवराज 
138 ,आलोचना 
138 ,सहारा 
138 ,विना 
138 ,मधेश 
138 ,भेला 
138 ,घिउ 
138 ,चौ 
137 ,सम्पदालाई 
137 ,राज्यनीति 
137 ,पशुपतिनाथ 
137 ,पढ्नुहोला 
137 ,मुख्यतया 
137 ,मार्टिन 
137 ,चाहिन्छ 
137 ,लिइएको 
137 ,यूरोप 
137 ,दीर्घ 
137 ,जम्मु 
137 ,पाठक 
137 ,खतरा 
137 ,केरल 
137 ,कष्ट 
137 ,मुल 
136 ,आगन्तुकहरुले 
136 ,महेन्द्रनगर 
136 ,प्रभावशाली 
136 ,रिपब्लिकन 
136 ,उम्मेदवार 
136 ,लेखहरूमा 
136 ,युरोपियन 
136 ,टेम्पलेट 
136 ,भियतनाम 
136 ,अघिल्लो 
136 ,माताको 
136 ,बन्दै 
136 ,तर्गत 
136 ,बढ्न 
136 ,बक्स 
136 ,तातो 
136 ,जवाफ 
136 ,परम 
136 ,तरल 
136 ,ख्य 
135 ,विद्यालयले 
135 ,आयरल्यान्ड 
135 ,सुरुवाती 
135 ,पुराणमा 
135 ,नराम्रो 
135 ,ग्रेसको 
135 ,उपरोक्त 
135 ,कुखुरा 
135 ,रोगमा 
135 ,अनन्त 
135 ,उनमा 
135 ,लेक 
135 ,पहल 
134 ,हर्षोल्लास 
134 ,अभिव्यक्ति 
134 ,सञ्चालनमा 
134 ,महाभारतको 
134 ,फिल्मफेयर 
134 ,निर्माणमा 
134 ,वैवाहिक 
134 ,वर्णित 
134 ,बिजेता 
134 ,बन्चरो 
134 ,तापमान 
134 ,जितेको 
134 ,एशियाई 
134 ,उपग्रह 
134 ,दौरान 
134 ,चल्ने 
134 ,गीतमा 
134 ,उत्सव 
134 ,आइफोन 
134 ,अदुवा 
134 ,मूलत 
134 ,बाकस 
134 ,दशरथ 
134 ,अर्ध 
134 ,ची 
133 ,प्रयोगकर्तालाई 
133 ,साम्राज्यको 
133 ,वार्तालापमा 
133 ,विद्यालयमा 
133 ,जङ्गबहादुर 
133 ,पठनपाठनको 
133 ,त्यतिबेला 
133 ,भोलिपल्ट 
133 ,पिताम्बर 
133 ,आविष्कार 
133 ,गरेकाले 
133 ,मोर्चा 
133 ,खोलाको 
133 ,अनलाइन 
133 ,अग्रिम 
133 ,हेनरी 
133 ,सुनको 
133 ,थाल्छ 
133 ,खालका 
133 ,किनकि 
133 ,चुरे 
133 ,नाश 
133 ,दिई 
133 ,तको 
132 ,प्रतिश्पर्धा 
132 ,भ्रष्टाचार 
132 ,प्रस्तावित 
132 ,हिन्दीबाट 
132 ,वास्तुकला 
132 ,रङ्गकर्मी 
132 ,हनुमानको 
132 ,शीर्षकमा 
132 ,प्रदेशमा 
132 ,परिभाषित 
132 ,गरिसकेका 
132 ,सारिएको 
132 ,सहयोगमा 
132 ,समितिमा 
132 ,मैदानमा 
132 ,मुसलमान 
132 ,भाषाहरु 
132 ,स्वस्थ 
132 ,स्वर्ग 
132 ,फेसबुक 
132 ,असोजको 
132 ,स्पेस 
132 ,रेलवे 
132 ,रहँदै 
132 ,बढ्दो 
132 ,त्याग 
132 ,दाँत 
132 ,खनिज 
132 ,कोदो 
132 ,खै 
131 ,प्रौद्योगिकी 
131 ,सरकारलाई 
131 ,पहुँचलाई 
131 ,आपूर्ति 
131 ,अनियमित 
131 ,हिमश्र 
131 ,सुरुमा 
131 ,मध्यको 
131 ,जिम्मा 
131 ,हाइकु 
131 ,सक्छु 
131 ,बढ्ने 
131 ,पढ्ने 
131 ,नमूना 
131 ,ठाकुर 
131 ,गाबिस 
131 ,गठनको 
131 ,साउथ 
131 ,मुनि 
131 ,पाएर 
131 ,ताजा 
131 ,आइत 
130 ,कार्यकर्ता 
130 ,कम्युनिस्ट 
130 ,विकिबुक्स 
130 ,लेखहरूलाई 
130 ,प्रणालीमा 
130 ,त्युस्थान 
130 ,त्यहाँबाट 
130 ,केन्द्रको 
130 ,भगवानको 
130 ,वैष्णव 
130 ,लेखामा 
130 ,भरिएको 
130 ,बनाउँछ 
130 ,प्रेमी 
130 ,गिरिजा 
130 ,जागरण 
130 ,गाउने 
130 ,क्रिस 
130 ,बैठक 
130 ,दीपक 
130 ,ठूटो 
130 ,खाएर 
130 ,छिन 
130 ,कथन 
130 ,तक 
130 ,उन 
129 ,मानिसहरूलाई 
129 ,प्रजातिको 
129 ,जुवातासमा 
129 ,उपन्यासको 
129 ,नियुक्ति 
129 ,उदाहरणको 
129 ,इमिरेट्स 
129 ,समीक्षा 
129 ,मरुभूमि 
129 ,बताइन्छ 
129 ,धुलिखेल 
129 ,अनुभूति 
129 ,वेबपेज 
129 ,राक्षस 
129 ,मेटाउन 
129 ,मार्सल 
129 ,नेल्सन 
129 ,आकारमा 
129 ,वाहेक 
129 ,भेन्स 
129 ,दिव्य 
129 ,स्तन 
129 ,रावण 
129 ,बिही 
129 ,पदको 
129 ,नारा 
129 ,जुका 
129 ,चर्च 
129 ,कमला 
129 ,गरौ 
129 ,गका 
129 ,गु 
128 ,विश्वविद्यालयबाट 
128 ,व्यक्तिहरूको 
128 ,कुरुक्षेत्र 
128 ,ब्रह्माण्ड 
128 ,विज्ञानको 
128 ,रूपान्तरण 
128 ,निर्देशित 
128 ,पर्यटकिय 
128 ,भैरहेको 
128 ,ब्ल्याक 
128 ,नाटकहरू 
128 ,अवधारणा 
128 ,बिरामी 
128 ,जीवनका 
128 ,छोराको 
128 ,सिमित 
128 ,समक्ष 
128 ,शावली 
128 ,बनेपा 
128 ,लुइस 
128 ,रोचक 
128 ,मापन 
128 ,भोलि 
128 ,बोली 
128 ,थिईन 
128 ,गिनी 
128 ,साह 
128 ,फुल 
128 ,पेय 
128 ,नाग 
128 ,तीय 
128 ,भव 
128 ,थी 
128 ,अप 
127 ,सिक्किमको 
127 ,शालिग्राम 
127 ,परिवर्तित 
127 ,सम्पुर्ण 
127 ,भारद्वाज 
127 ,त्रियुगा 
127 ,जवाहरलाल 
127 ,समपूर्ण 
127 ,विचारमा 
127 ,मतदानको 
127 ,दरबारमा 
127 ,कम्तिमा 
127 ,दुरीमा 
127 ,चिन्ता 
127 ,गीतहरू 
127 ,कानपुर 
127 ,शिकाई 
127 ,निदान 
127 ,छात्र 
127 ,कर्जा 
127 ,हिउँ 
127 ,रुसी 
127 ,बाँध 
127 ,पेरु 
127 ,टाइम 
127 ,जेठा 
127 ,चिनी 
127 ,घाउ 
127 ,वध 
126 ,विकिपिडियनहरूको 
126 ,गर्नुहुन्छ 
126 ,क्रान्तिको 
126 ,प्राधिकरण 
126 ,सिमानामा 
126 ,श्रद्धा 
126 ,राखिएका 
126 ,चुनावमा 
126 ,समुहले 
126 ,मल्लले 
126 ,बायर्न 
126 ,पहुँच 
126 ,कालका 
126 ,हजुर 
126 ,तटमा 
126 ,यमन 
126 ,भीम 
126 ,भरी 
126 ,बसी 
125 ,राष्ट्रहरू 
125 ,स्वामित्व 
125 ,यिनीहरूको 
125 ,औषधोपचार 
125 ,अनुसारको 
125 ,सदस्यको 
125 ,वीरगञ्ज 
125 ,लगाइएको 
125 ,पुरुषको 
125 ,गुजराती 
125 ,ककासियन 
125 ,पोस्टर 
125 ,निवारण 
125 ,तिनका 
125 ,षिले 
125 ,राना 
125 ,दिदी 
125 ,त्रि 
125 ,अर्ब 
125 ,भान 
125 ,बेल 
125 ,परी 
125 ,ठिस 
125 ,छाप 
124 ,अन्तरराष्ट्रिय 
124 ,अधिराज्यको 
124 ,समाचारहरू 
124 ,दार्जीलिङ 
124 ,मनकामना 
124 ,हेटौडा 
124 ,मानवीय 
124 ,तन्त्र 
124 ,सक्छौ 
124 ,बिष्ट 
124 ,कथाको 
124 ,रचित 
124 ,गरिए 
124 ,पाउ 
124 ,दही 
124 ,खेत 
124 ,टन 
123 ,ब्याट्सम्यान 
123 ,नेदरल्याण्ड 
123 ,जिम्बाब्वे 
123 ,प्रशिद्ध 
123 ,पञ्चाङ्ग 
123 ,त्यहाँको 
123 ,सुन्तला 
123 ,सरकारका 
123 ,विदेशमा 
123 ,परिचालन 
123 ,त्यसबाट 
123 ,तोकिएको 
123 ,समेटेर 
123 ,समानता 
123 ,राजाका 
123 ,यात्री 
123 ,प्रष्ट 
123 ,दुर्लभ 
123 ,अभावमा 
123 ,सुचना 
123 ,वाक्य 
123 ,बनारस 
123 ,दशकमा 
123 ,काटेर 
123 ,एप्पल 
123 ,मानक 
123 ,भालु 
123 ,फलाम 
123 ,चाहि 
123 ,खासै 
122 ,प्रवेशद्वार 
122 ,नेपालगञ्ज 
122 ,धारणाहरू 
122 ,उनीहरुको 
122 ,समायोजन 
122 ,भैसकेको 
122 ,भगवतीको 
122 ,दायित्व 
122 ,विगतका 
122 ,मिलेको 
122 ,मिडिया 
122 ,मिटरको 
122 ,हुनको 
122 ,पारित 
122 ,थालनी 
122 ,सर्व 
122 ,बाधा 
122 ,मास 
122 ,केप 
122 ,यश 
121 ,शास्त्रमा 
121 ,केन्द्रमा 
121 ,अभिनेताको 
121 ,देवताहरू 
121 ,साथसाथै 
121 ,शब्दकोश 
121 ,फ्याक्स 
121 ,निस्कने 
121 ,दर्शनको 
121 ,स्थलको 
121 ,माथिको 
121 ,बुद्धि 
121 ,बिरालो 
121 ,प्रमूख 
121 ,पर्दछन 
121 ,धनञ्जय 
121 ,थालियो 
121 ,टोकियो 
121 ,चट्टान 
121 ,खेल्दै 
121 ,हरुमा 
121 ,स्टीन 
121 ,विकाश 
121 ,लेनिन 
121 ,कालीन 
121 ,बसाई 
121 ,बजेट 
121 ,घाँस 
121 ,केटी 
121 ,होम 
121 ,महा 
121 ,बिस 
121 ,दिर 
121 ,चोट 
121 ,गला 
121 ,डच 
120 ,प्रक्रियामा 
120 ,दार्जीलिङ्ग 
120 ,वर्षहरूको 
120 ,यातायातको 
120 ,प्रशिक्षक 
120 ,द्वन्द्व 
120 ,सङ्घर्ष 
120 ,रहेकोले 
120 ,बाग्लुङ 
120 ,बनाईएको 
120 ,पारिजात 
120 ,दलहरूको 
120 ,उज्यालो 
120 ,विरुवा 
120 ,ल्याएर 
120 ,लेख्दा 
120 ,योद्धा 
120 ,ब्रायन 
120 ,त्रुटि 
120 ,जमीनमा 
120 ,खोजेको 
120 ,दिइयो 
120 ,गाईको 
120 ,आर्ट 
120 ,मुग 
120 ,तेज 
120 ,गिक 
120 ,किम 
119 ,स्वायत्त 
119 ,अनावश्यक 
119 ,वस्तुको 
119 ,प्रयत्न 
119 ,देखाउने 
119 ,क्रिसमस 
119 ,साइन्स 
119 ,लागेमा 
119 ,टिमहरू 
119 ,चौतारा 
119 ,गोत्री 
119 ,सरदार 
119 ,प्राण 
119 ,पिसाब 
119 ,आदिका 
119 ,तहको 
119 ,झारख 
119 ,रूस 
119 ,ताप 
119 ,जाल 
119 ,नो 
119 ,कल 
118 ,म्यानचेस्टर 
118 ,लेनिनवादी 
118 ,पत्रिकामा 
118 ,दिनहरूमा 
118 ,जर्मनीका 
118 ,खुर्सानी 
118 ,खानेकुरा 
118 ,सहयोगको 
118 ,दिनुहुन 
118 ,गोविन्द 
118 ,उत्तिकै 
118 ,सकेनन् 
118 ,मुर्ति 
118 ,पाएपछि 
118 ,दिनलाई 
118 ,तिवारी 
118 ,चैनपुर 
118 ,चल्दैछ 
118 ,गर्दैन 
118 ,कोशिका 
118 ,सवारी 
118 ,यहूदी 
118 ,मार्क 
118 ,भीष्म 
118 ,पपुवा 
118 ,गालको 
118 ,कालको 
118 ,उडिसा 
118 ,सुमन 
118 ,शहरी 
118 ,भव्य 
118 ,द्रा 
118 ,दोषी 
118 ,डाटा 
118 ,जाना 
118 ,गौरव 
118 ,क्र 
118 ,मई 
117 ,इण्डोनेशिया 
117 ,पाकिस्तानी 
117 ,सगरमाथाको 
117 ,जनजातिहरू 
117 ,हुनुहोस् 
117 ,बङ्गालका 
117 ,गान्धीको 
117 ,सुनकोशी 
117 ,ष्टिकोण 
117 ,रचनाहरू 
117 ,प्रशारण 
117 ,दर्शनीय 
117 ,सप्ताह 
117 ,जर्जेट 
117 ,तपाइँ 
117 ,टेनिस 
117 ,केदार 
117 ,पढाई 
117 ,गेरी 
117 ,उसका 
117 ,हाई 
117 ,चोक 
117 ,असल 
117 ,ये 
116 ,विश्वविद्यालयको 
116 ,आश्चर्यहरू 
116 ,विद्यापीठ 
116 ,लामिछाने 
116 ,लिच्छवि 
116 ,न्यूनतम 
116 ,निकोबार 
116 ,जिन्दगी 
116 ,चित्रमा 
116 ,आफैँलाई 
116 ,अक्सिजन 
116 ,ष्टिको 
116 ,वशिष्ठ 
116 ,सशक्त 
116 ,रिमाल 
116 ,बन्दछ 
116 ,गापुर 
116 ,शिशु 
116 ,थ्री 
116 ,गुगल 
116 ,कुशल 
116 ,सिख 
116 ,सदा 
116 ,भोक 
116 ,कमा 
116 ,आप 
115 ,बेल्जियम 
115 ,चित्रहरू 
115 ,उल्लेख्य 
115 ,उदाहरणका 
115 ,सुरूवात 
115 ,शाब्दिक 
115 ,हस्पति 
115 ,सामयिक 
115 ,दाहिने 
115 ,गुराँस 
115 ,कडिहरु 
115 ,अविजित 
115 ,अर्याल 
115 ,बोल्न 
115 ,बर्मा 
115 ,फरवरी 
115 ,रूसी 
115 ,मिलन 
115 ,कोठा 
115 ,किरा 
115 ,हित 
115 ,बडी 
115 ,त्त 
115 ,चाल 
115 ,गान 
115 ,कडि 
114 ,सैद्धान्तिक 
114 ,भाषाहरूको 
114 ,त्रैमासिक 
114 ,नेपालीको 
114 ,क्रिस्टी 
114 ,किनारामा 
114 ,ब्रिटेन 
114 ,बहुदलीय 
114 ,हजुरले 
114 ,सेनाका 
114 ,सुगौली 
114 ,सम्मका 
114 ,भारतले 
114 ,नगरकोट 
114 ,देखाउन 
114 ,आँखाको 
114 ,बनावट 
114 ,चौडाई 
114 ,चित्त 
114 ,हेटौ 
114 ,सकिन 
114 ,लिगा 
114 ,भइन् 
114 ,देवल 
114 ,छैठौ 
114 ,ख्यक 
114 ,आपसी 
114 ,भोज 
114 ,ओटा 
113 ,नेपालीहरुको 
113 ,कञ्चनजङ्घा 
113 ,व्यवसायिक 
113 ,प्रतिलिपि 
113 ,किङ्ग्सका 
113 ,आर्मेनिया 
113 ,अरूद्वारा 
113 ,अनुरोधहरू 
113 ,सामान्यत 
113 ,यात्रामा 
113 ,साथीहरू 
113 ,श्रीनगर 
113 ,रहिआएको 
113 ,तारानाथ 
113 ,घेरिएको 
113 ,गर्भवती 
113 ,उपचारको 
113 ,स्वच्छ 
113 ,समूहको 
113 ,जोर्डन 
113 ,हातले 
113 ,सक्छन 
113 ,राहुल 
113 ,बेस्ट 
113 ,पातलो 
113 ,उद्गम 
113 ,आजैको 
113 ,महास 
113 ,ब्लू 
113 ,टोपी 
113 ,गौरा 
113 ,गामा 
113 ,एक्स 
113 ,जेन 
113 ,चि 
112 ,प्रतियोगिताले 
112 ,सहभागीहरू 
112 ,न्यायाधीश 
112 ,समारोहमा 
112 ,दिनुहोस् 
112 ,अभियानमा 
112 ,सकेसम्म 
112 ,लाग्दैन 
112 ,महारानी 
112 ,हेर्नु 
112 ,हटाइने 
112 ,वस्त्र 
112 ,लगाउनु 
112 ,मेडीकल 
112 ,महावीर 
112 ,पहाडको 
112 ,नसकेको 
112 ,चिन्तन 
112 ,कान्छा 
112 ,भारती 
112 ,नैतिक 
112 ,ध्वनि 
112 ,जरूरी 
112 ,ग्रेज 
112 ,ग्रीक 
112 ,हालै 
112 ,सिमा 
112 ,षिका 
112 ,रहित 
112 ,पूरै 
112 ,गोला 
112 ,गहरू 
112 ,शिर 
112 ,दशौ 
112 ,डाग 
112 ,डन 
112 ,गौ 
111 ,अन्तर्राष्ट्रीय 
111 ,अष्ट्रेलियाका 
111 ,अस्ट्रेलियन 
111 ,सल्लाहकार 
111 ,परराष्ट्र 
111 ,हरिद्वार 
111 ,मानचित्र 
111 ,प्राइभेट 
111 ,जनमुक्ति 
111 ,अत्याधिक 
111 ,सुचीलाई 
111 ,मिनेटमा 
111 ,भित्रको 
111 ,भाषालाई 
111 ,बङ्गाली 
111 ,पूर्वको 
111 ,किङ्ग्स 
111 ,एसियामा 
111 ,जनाएको 
111 ,कट्टेल 
111 ,आयोगको 
111 ,बत्ती 
111 ,जेलमा 
111 ,कार्ल 
111 ,आफैले 
111 ,लगेर 
111 ,धुलो 
111 ,कसरि 
111 ,साग 
111 ,कफी 
110 ,प्रमाणपत्र 
110 ,आयरल्याण्ड 
110 ,अस्तित्वमा 
110 ,वातावरणमा 
110 ,महाभारतका 
110 ,फिलिपिन्स 
110 ,दूरसञ्चार 
110 ,विशेषगरी 
110 ,भूतपूर्व 
110 ,बर्डलाईफ 
110 ,निकायहरू 
110 ,चिसापानी 
110 ,अनुच्छेद 
110 ,पोखरीको 
110 ,परामर्श 
110 ,चार्ल्स 
110 ,अरुणाचल 
110 ,समुहगत 
110 ,डिजाइन 
110 ,ग्रहको 
110 ,उत्पति 
110 ,आकाशमा 
110 ,समयका 
110 ,श्राप 
110 ,युगको 
110 ,भाषिक 
110 ,पाईने 
110 ,डेभिड 
110 ,जातको 
110 ,मसला 
110 ,बिदा 
110 ,फलको 
110 ,दमाई 
110 ,पुष 
109 ,राष्ट्रपतिहरू 
109 ,राजतन्त्र 
109 ,विशेषतया 
109 ,रवीन्द्र 
109 ,देशहरूको 
109 ,सम्बद्ध 
109 ,रायमाझी 
109 ,म्युनिख 
109 ,मुलुकको 
109 ,मिल्दैन 
109 ,दिपावली 
109 ,अवस्थीत 
109 ,मालिका 
109 ,नाच्ने 
109 ,क्रमित 
109 ,श्रवण 
109 ,मुखमा 
109 ,महिमा 
109 ,ठाउमा 
109 ,टिमको 
109 ,गनडाग 
109 ,उपहार 
109 ,वेदा 
109 ,रियो 
109 ,नारद 
109 ,नरसि 
109 ,ज्ञा 
109 ,आहार 
109 ,यम 
108 ,राजनितिज्ञहरू 
108 ,डेमोक्र्याटिक 
108 ,सुरक्षाको 
108 ,भेनेजुएला 
108 ,छोड्दैछौँ 
108 ,कम्प्यूटर 
108 ,विष्णुले 
108 ,भागहरूमा 
108 ,प्रप्ताव 
108 ,पदार्थको 
108 ,खानेपानी 
108 ,सूक्ष्म 
108 ,साइप्रस 
108 ,सकिँदैछ 
108 ,महत्वको 
108 ,बताइएको 
108 ,पस्कनको 
108 ,व्यस्त 
108 ,मधुमेह 
108 ,भागलाई 
108 ,फूलहरू 
108 ,देख्दा 
108 ,जनताका 
108 ,गौरबमय 
108 ,अग्रणी 
108 ,साधना 
108 ,रहँदा 
108 ,ट्रफी 
108 ,होता 
108 ,लुगा 
108 ,दिगो 
108 ,जाबी 
108 ,ईसाई 
108 ,सरह 
108 ,सयौ 
108 ,वचन 
108 ,रेट 
108 ,मील 
108 ,मार 
108 ,बिल 
108 ,चिन 
108 ,ते 
107 ,वर्षहरूलाई 
107 ,क्रियाकलाप 
107 ,शासनकालमा 
107 ,प्रतिबन्ध 
107 ,नक्षत्रको 
107 ,लिनक्समा 
107 ,प्रवर्तक 
107 ,मेटाउने 
107 ,मार्गमा 
107 ,प्रसङ्ग 
107 ,तिनीहरू 
107 ,इटालियन 
107 ,अर्काको 
107 ,शब्दमा 
107 ,शनिबार 
107 ,नायिका 
107 ,जातिले 
107 ,विहार 
107 ,मार्न 
107 ,प्रभु 
107 ,प्याज 
107 ,निहित 
107 ,डब्लु 
107 ,जित्न 
107 ,कार्ड 
107 ,कर्ता 
107 ,उपदेश 
107 ,आयोजन 
107 ,साँझ 
107 ,समथर 
107 ,रहको 
107 ,मलाइ 
107 ,भुवन 
107 ,पोषण 
107 ,दुरी 
107 ,दलाई 
107 ,तोरी 
107 ,छठको 
107 ,गलमा 
107 ,कोमल 
107 ,कसले 
107 ,अकबर 
107 ,वान 
107 ,भोट 
107 ,फुट 
107 ,ञ 
106 ,सदरमुकामबाट 
106 ,बालबालिकाको 
106 ,जनजातीहरू 
106 ,उत्पादनको 
106 ,कम्पनीले 
106 ,सालसम्म 
106 ,नाभिकीय 
106 ,त्यसपछी 
106 ,कालिदास 
106 ,काउन्टी 
106 ,अनुवादक 
106 ,सिन्धु 
106 ,समारोह 
106 ,विधामा 
106 ,रोजगार 
106 ,तराईका 
106 ,डिजिटल 
106 ,आस्विन 
106 ,श्वास 
106 ,निषेध 
106 ,नर्वे 
106 ,देखिन 
106 ,अनौठो 
