word=विकिपीडिया,f=195122
word=प,f=137100
word=छ,f=99274
word=र,f=97790
word=तपाई,f=81268
word=ष्ठ,f=80221
word=श्रेणी,f=77901
word=नेपाली,f=77680
word=लागि,f=74679
word=स,f=74234
word=को,f=73468
word=सम्पादन,f=69419
word=मा,f=69055
word=पनि,f=68054
word=यो,f=54275
word=हो,f=53911
word=हेर्नुहोस्,f=52500
word=नयाँ,f=50080
word=केही,f=49855
word=लेख,f=48982
word=आफ्नो,f=46330
word=चौतारी,f=45457
word=विकिपीडियामा,f=44899
word=अथवा,f=44491
word=सहायता,f=44189
word=प्रयोगस्थल,f=44139
word=प्रयोगकर्ता,f=43956
word=वार्ता,f=43692
word=नाम,f=41222
word=स्वागत,f=39526
word=कुनै,f=38982
word=ष्ठमा,f=37947
word=वार्तालाप,f=36757
word=गर्न,f=35699
word=परिचय,f=34289
word=होला,f=34026
word=गर्ने,f=33783
word=प्रश्नहरू,f=33761
word=तथा,f=33245
word=भने,f=33004
word=प्रश्न,f=32918
word=स्वशिक्षा,f=32716
word=सबै,f=30034
word=अन्य,f=29892
word=एउटा,f=28441
word=नमस्ते,f=28106
word=जिल्ला,f=27657
word=नेपाल,f=27611
word=एक,f=27502
word=कुरा,f=27257
word=भएका,f=26680
word=क,f=26016
word=छन्,f=25081
word=आदि,f=24922
word=ढाँचा,f=23331
word=हामी,f=23089
word=वा,f=22786
word=प्राय,f=22614
word=गर्नुहोला,f=22321
word=रहेको,f=22113
word=लेख्न,f=22079
word=सुझाव,f=22055
word=राख्नु,f=21736
word=समस्याको,f=21707
word=सोधिने,f=21622
word=विकास,f=21528
word=नै,f=21059
word=प्रयोग,f=21006
word=सन्दर्भ,f=20354
word=ले,f=20346
word=प्रमुख,f=20321
word=त,f=20069
word=भिडियो,f=19554
word=युटिसी,f=19388
word=चित्र,f=19320
word=तर,f=18631
word=भाषा,f=18401
word=यस,f=18400
word=लाई,f=17960
word=लेखहरू,f=17083
word=भएको,f=16707
word=जुन,f=16272
word=पछि,f=15969
word=थियो,f=15527
word=भन्दा,f=15238
word=गरेर,f=15128
word=यहाँ,f=15110
word=विभिन्न,f=14612
word=छैन,f=14593
word=सम्म,f=14398
word=यदि,f=14370
word=मुख्य,f=14312
word=हुन्छ,f=14247
word=सक्नुहुन्छ,f=14110
word=म,f=13971
word=नेपालको,f=13960
word=यसले,f=13942
word=यसलाई,f=13893
word=मेरो,f=13842
word=हुनेछ,f=13702
word=मिति,f=13368
word=मलाई,f=13253
word=हरू,f=13249
word=धन्यवाद,f=13045
word=हुन्छन्,f=12959
word=सरोज,f=12838
word=अधिकार,f=12588
word=गरि,f=12564
word=तपाईँको,f=12553
word=जी,f=12498
word=सहयोग,f=12432
word=आवश्यक,f=12361
word=पहिला,f=12359
word=अहिले,f=12331
word=सामान्य,f=12312
word=जसमा,f=12151
word=लेखिएको,f=12074
word=विश्वास,f=12073
word=तर्फबाट,f=12048
word=पया,f=11799
word=सम्बन्धी,f=11786
word=समस्या,f=11666
word=विश्वका,f=11608
word=विषयसूचि,f=11583
word=नेपालका,f=11580
word=विषयमा,f=11574
word=गाउँ,f=11567
word=हुँदैन,f=11520
word=स्वत,f=11492
word=भएमा,f=11479
word=कसैले,f=11463
word=नव,f=11450
word=यहाँका,f=11431
word=परेको,f=11426
word=हार्दिक,f=11418
word=योगदानको,f=11395
word=वर्ष,f=11374
word=मिलेर,f=11363
word=लेखमा,f=11356
word=सम्पर्क,f=11329
word=आवश्यकता,f=11280
word=खुला,f=11278
word=लिङ्क,f=11244
word=समुदायको,f=11236
word=समस्त,f=11225
word=दिन्छ,f=11190
word=यहाँलाई,f=11179
word=आगन्तुक,f=11179
word=सहि,f=11179
word=दूतावास,f=11127
word=बनेर,f=11109
word=सबैको,f=11104
word=चारवटा,f=11078
word=समिति,f=11072
word=विकिपीडियन,f=11068
word=हामीलाई,f=11062
word=विकिपीडियालाई,f=11053
word=लेख्नु,f=11052
word=क्षेत्र,f=11051
word=दिनको,f=11041
word=समाधान,f=11038
word=परे,f=11023
word=धनी,f=11018
word=व्यक्तिलाई,f=11000
word=तपाईँलाई,f=10986
word=द्वारा,f=10979
word=स्वीक,f=10974
word=वक्र,f=10966
word=चाहिएमा,f=10958
word=बढाउन,f=10958
word=रमाईलो,f=10957
word=परेमा,f=10947
word=लेखिदिन्छ,f=10936
word=विज्ञापन,f=10913
word=थप्न,f=10898
word=ग्रहित,f=10884
word=विकिपीडियाले,f=10874
word=बताउने,f=10869
word=मान्नु,f=10855
word=विषयका,f=10854
word=आत्मकथा,f=10849
word=विश्वकोष,f=10848
word=विकिको,f=10840
word=प्रवन्धक,f=10838
word=दुईवटा,f=10838
word=पढ्नुहोस्,f=10837
word=अप्ठ्यारो,f=10836
word=गुनासो,f=10833
word=थिचेर,f=10831
word=सोध्नु,f=10817
word=सन्,f=10817
word=जत्तिकै,f=10809
word=बनाउनुहोला,f=10804
word=आउनुहोस्,f=10804
word=दुतावास,f=10801
word=हरूसँग,f=10793
word=ष्टको,f=10791
word=बनाऔ,f=10786
word=कुमार,f=10753
word=अञ्चल,f=10677
word=दिइरहनु,f=10612
word=परिवर्तन,f=10594
word=का,f=10356
word=ढकाल,f=10008
word=लेखहरु,f=9920
word=सहायताका,f=9646
word=ग,f=9634
word=रूपमा,f=9586
word=थिए,f=9509
word=प्रश्नहरु,f=9480
word=भारत,f=9430
word=समय,f=8995
word=राष्ट्रिय,f=8746
word=ई,f=8539
word=सामग्रीहरू,f=8449
word=भन्ने,f=8388
word=वि,f=7920
word=ह,f=7836
word=यसको,f=7819
word=जन्म,f=7698
word=पू,f=7652
word=जिल्लाका,f=7634
word=नोभेम्बर,f=7427
word=जोशी,f=7416
word=पत्रिका,f=7316
word=धेरै,f=7206
word=रोबोट,f=7101
word=सूची,f=7042
word=गर्दै,f=7026
word=सि,f=7016
word=विश्व,f=6999
word=प्रयोगको,f=6896
word=आनन्द,f=6890
word=गरी,f=6772
word=प्रसाद,f=6760
word=राम,f=6756
word=पौडेल,f=6690
word=बिप्लब,f=6677
word=गरेको,f=6521
word=देखि,f=6519
word=अ,f=6499
word=दिन,f=6422
word=मे,f=6345
word=अनुसार,f=6320
word=हुन्,f=6320
word=द,f=6272
word=जानकारीहरू,f=6201
word=हुने,f=6169
word=नगरपालिका,f=6157
word=चलचित्र,f=6064
word=जानकारीहरूका,f=6027
word=गर्नुहोस,f=6013
word=गरिएको,f=6006
word=पर्ने,f=5994
word=ठुटो,f=5975
word=सम्पदा,f=5970
word=स्क,f=5950
word=हिज्जे,f=5792
word=गरे,f=5578
word=अप्रिल,f=5554
word=हुन,f=5543
word=देश,f=5507
word=वत्,f=5461
word=कि,f=5395
word=गरेका,f=5374
word=बाहिरी,f=5364
word=गाविसहरू,f=5352
word=अवस्थित,f=5277
word=ख्या,f=5219
word=गरिन्छ,f=5197
word=गर्नु,f=5104
word=राज्य,f=5103
word=बाट,f=5008
word=के,f=4971
word=भारतीय,f=4965
word=उनले,f=4933
word=मार्च,f=4926
word=भयो,f=4917
word=हटक्याट,f=4866
word=जस्तै,f=4801
word=जानकारीहरु,f=4737
word=भनिन्छ,f=4729
word=ति,f=4633
word=जानकारीहरुका,f=4581
word=काम,f=4458
word=त्यु,f=4396
word=विश्वविद्यालय,f=4333
word=नेपालमा,f=4312
word=जनगणना,f=4307
word=पहिलो,f=4304
word=गाविस,f=4297
word=मिलाउँदै,f=4268
word=न,f=4231
word=उनको,f=4228
word=जनस,f=4208
word=अभ्यास,f=4201
word=विवरण,f=4188
word=उनी,f=4186
word=मन्दिर,f=4136
word=धर्म,f=4103
word=अक्टोबर,f=4090
word=तपाईको,f=4088
word=गणेश,f=4086
word=बाह्य,f=4024
word=युक्त,f=4013
word=मात्र,f=4010
word=रमेश,f=4002
word=सिक्नको,f=3999
word=सेप्टेम्बर,f=3952
word=श,f=3951
word=कार्य,f=3919
word=यी,f=3894
word=व,f=3873
word=काठमाडौ,f=3852
word=बोहरा,f=3830
word=पुरस्कार,f=3819
word=सामग्री,f=3711
word=जिल्लाको,f=3654
word=खाताको,f=3632
word=स्वचालित,f=3614
word=तिक,f=3609
word=सकिन्छ,f=3599
word=एव,f=3594
word=कारण,f=3592
word=भए,f=3590
word=जनवरी,f=3575
word=प्राप्त,f=3565
word=जीवनी,f=3564
word=त्यो,f=3541
word=पाइने,f=3540
word=सा,f=3539
word=कडीहरू,f=3525
word=भाग,f=3520
word=जुलाई,f=3515
word=रहेका,f=3508
word=प्रकाशन,f=3478
word=महिला,f=3467
word=अगस्त,f=3448
word=सन्देश,f=3424
word=साथ,f=3405
word=प्रकार,f=3392
word=गा,f=3352
word=विकिथन,f=3349
word=जो,f=3342
word=क्रिकेट,f=3336
word=इतिहास,f=3317
word=प्रमाणिक,f=3313
word=विशेष,f=3265
word=बनाइएका,f=3232
word=प्राचीन,f=3209
word=थप्दै,f=3127
word=सुधारिएका,f=3123
word=थप,f=3101
word=साहित्य,f=3099
word=सँग,f=3087
word=हिन्दू,f=3069
word=विधान,f=3067
word=अङ्ग्रेजी,f=3063
word=निर्माण,f=3045
word=ब,f=3045
word=साथै,f=3034
word=सदस्य,f=3016
word=राजा,f=3001
word=जिल्लाहरू,f=2997
word=स्थान,f=2996
word=अर्को,f=2996
word=तपाईलाई,f=2981
word=सारियो,f=2964
word=योगदान,f=2950
word=स्थापना,f=2933
word=पूर्व,f=2932
word=वटा,f=2932
word=मन,f=2913
word=गर्दा,f=2910
word=क्याम्पस,f=2907
word=अर्थ,f=2891
word=उपन्यास,f=2878
word=प्रदान,f=2874
word=उत्तर,f=2870
word=डिसेम्बर,f=2864
word=बोट,f=2854
word=ठूलो,f=2827
word=फेब्रुअरी,f=2818
word=मध्य,f=2818
word=राम्रो,f=2811
word=दुई,f=2807
word=दक्षिण,f=2800
word=क्षेत्रमा,f=2778
word=सम्बन्धि,f=2709
word=लगइन,f=2697
word=नदी,f=2693
word=रुपमा,f=2689
word=लिङ्कहरू,f=2666
word=पाइन्छ,f=2663
word=सञ्चार,f=2643
word=गर्दछ,f=2643
word=बै,f=2611
word=फुटबल,f=2568
word=अब,f=2567
word=आज,f=2554
word=अझ,f=2554
word=गीत,f=2553
word=अभिनेत्री,f=2550
word=जीवित,f=2546
word=शिक्षा,f=2540
word=कम,f=2500
word=त्रिभुवन,f=2470
word=सबैभन्दा,f=2462
word=पाठ,f=2440
word=यसका,f=2439
word=गर्छ,f=2436
word=खाता,f=2426
word=भारतका,f=2419
word=श्री,f=2415
word=क्षेत्रहरूको,f=2406
word=घोषणा,f=2382
word=हाल,f=2370
word=स्थल,f=2363
word=गौतम,f=2358
word=समेत,f=2348
word=बढी,f=2333
word=पश्चिमाञ्चल,f=2330
word=प्रसिद्ध,f=2316
word=अमेरिका,f=2313
word=छन,f=2313
word=आधारमा,f=2304
word=स्रोत,f=2298
word=जीवन,f=2285
word=जानकारी,f=2281
word=विज्ञान,f=2275
word=अनुप्रेषण,f=2270
word=प्रकाशित,f=2267
word=जना,f=2263
word=शक,f=2255
word=मानिन्छ,f=2254
word=प्रकारको,f=2242
word=राष्ट्र,f=2239
word=त्यस,f=2231
word=पार्टी,f=2227
word=औ,f=2216
word=अनुरोध,f=2211
word=क्षेत्रको,f=2205
word=ष्ठलाई,f=2204
word=भएर,f=2196
word=विकिपिडिया,f=2191
word=हाम्रो,f=2189
word=पर्व,f=2163
word=जानकारीको,f=2162
word=या,f=2159
word=हटाउँदै,f=2155
word=धार्मिक,f=2147
word=बारेमा,f=2146
word=पश्चिम,f=2139
word=कुरामा,f=2136
word=सरकार,f=2127
word=लसकुस,f=2125
word=घर,f=2118
word=उच्च,f=2090
word=जोडियो,f=2084
word=ष्ण,f=2084
word=अफ,f=2069
word=निर्वाचन,f=2060
word=कसरी,f=2060
word=मैले,f=2054
word=उपलब्ध,f=2033
word=वनस्पति,f=2022
word=प्रवेश,f=2017
word=क्षेत्रहरू,f=2016
word=चरा,f=2012
word=स्थानमा,f=2009
word=सालमा,f=2008
word=सेवा,f=1992
word=बनाउन,f=1990
word=गाँउ,f=1988
word=पुरुष,f=1983
word=षि,f=1982
word=सामाजिक,f=1981
word=गर्नेछ,f=1981
word=भनेर,f=1945
word=अनि,f=1943
word=ज,f=1941
word=पत्रिकाको,f=1940
word=देवराज,f=1940
word=विक्रम,f=1939
word=अमेरिकी,f=1938
word=भारतको,f=1919
word=ती,f=1919
word=घटनाक्रम,f=1918
word=समूह,f=1915
word=स्वागतम्,f=1908
word=साझा,f=1902
word=गते,f=1900
word=बि,f=1897
word=भनेको,f=1891
word=गएको,f=1886
word=सम्बन्धित,f=1885
word=अन्तर्राष्ट्रिय,f=1878
word=समयमा,f=1863
word=परेन,f=1862
word=यस्तो,f=1854
word=पर्दछ,f=1850
word=पी,f=1849
word=क्याम्पसहरू,f=1845
word=कलेज,f=1843
word=विकिमीडियाको,f=1827
word=तपाईहरू,f=1826
word=यसमा,f=1822
word=खातालाई,f=1821
word=घ,f=1821
word=खाताले,f=1818
word=प्रदेश,f=1814
word=सप्तर्षि,f=1808
word=समर्थन,f=1801
word=जाति,f=1796
word=आएको,f=1796
word=छु,f=1795
word=सभा,f=1787
word=त्यसको,f=1783
word=कथा,f=1778
word=लिखित,f=1775
word=ए,f=1774
word=विद्यालय,f=1764
word=उपन्यासहरू,f=1761
word=तीन,f=1760
word=है,f=1753
word=पूजा,f=1746
word=उक्त,f=1741
word=भवानी,f=1739
word=सक्छ,f=1737
word=हेर्नुहोस,f=1727
word=शीर्षक,f=1718
word=विकी,f=1717
word=इ,f=1717
word=इतिहासमा,f=1715
word=बसोबास,f=1710
word=ग्रह,f=1689
word=यसै,f=1688
word=शाह,f=1684
word=ड,f=1684
word=आर,f=1682
word=प्रकाश,f=1679
word=उनलाई,f=1676
word=सामाग्रीहरू,f=1667
word=वर्ग,f=1666
word=पुस्तक,f=1664
word=मध्यमाञ्चल,f=1663
word=महिना,f=1661
word=अमेरिकन,f=1653
word=हरु,f=1649
word=गर्नुहोस्,f=1647
word=प्रथम,f=1641
word=केन्द्रीय,f=1637
word=पहिले,f=1635
word=पर्छ,f=1633
word=लागी,f=1628
word=खेल,f=1621
word=पटक,f=1619
word=दुवै,f=1611
word=देखिन्छ,f=1609
word=सानो,f=1600
word=चार,f=1597
word=ठाउ,f=1595
word=दिने,f=1591
word=ओभर,f=1591
word=नगरपालिकाहरू,f=1589
word=रेडियो,f=1584
word=समितिहरू,f=1581
word=महत्वपूर्ण,f=1577
word=मदन,f=1575
word=की,f=1575
word=केन्द्र,f=1573
word=जिल्लामा,f=1564
word=कार्यक्रम,f=1562
word=गर्नको,f=1558
word=डा,f=1558
word=साल,f=1555
word=एउटै,f=1549
word=सर्लाही,f=1543
word=जस्तो,f=1542
word=ईसा,f=1538
word=नमस्कार,f=1526
word=अध्ययन,f=1518
word=अतिरिक्त,f=1516
word=जसको,f=1505
word=पानी,f=1500
word=गर्दछन्,f=1499
word=फूल,f=1493
word=अन्तर्गत,f=1486
word=गराउने,f=1479
word=परियोजना,f=1477
word=घटनाहरू,f=1477
word=सगरमाथा,f=1468
word=त्यसैले,f=1468
word=अस्पताल,f=1467
word=मानिस,f=1460
word=वत,f=1459
word=भाषाको,f=1455
word=श्रेष्ठ,f=1453
word=विश्वविद्यालयहरू,f=1450
word=प्राक,f=1436
word=दोस्रो,f=1435
word=गणतन्त्र,f=1433
word=छलफल,f=1428
word=ऐतिहासिक,f=1427
word=जगलेख,f=1427
word=लामो,f=1424
word=सुरू,f=1423
word=जस्ता,f=1414
word=हिन्दी,f=1413
word=बागमती,f=1413
word=आ,f=1413
word=मानव,f=1411
word=भारतमा,f=1409
word=रोग,f=1409
word=से,f=1409
word=स्वरूप,f=1408
word=बट,f=1408
word=तह,f=1406
word=विभाग,f=1404
word=व्यवस्था,f=1400
word=नामको,f=1396
word=कविता,f=1395
word=हालसम्म,f=1391
word=प्रत्येक,f=1390
word=स्थित,f=1388
word=प्रति,f=1388
word=लेखक,f=1388
word=उनका,f=1388
word=राजनैतिक,f=1386
word=गरियो,f=1385
word=अनुमति,f=1384
word=उल्लेख,f=1383
word=मीडियाविकि,f=1381
word=ताल,f=1381
word=सुधार,f=1379
word=विश्वकप,f=1377
word=यानाच्वँगु,f=1373
word=पुनर्निदेश,f=1373
word=मिलय्,f=1373
word=आर्थिक,f=1370
word=हामीले,f=1369
word=स्थानीय,f=1366
word=साट्दै,f=1363
word=सो,f=1363
word=शहर,f=1362
word=जनकपुर,f=1361
word=जसले,f=1361
word=हुँदै,f=1360
word=भगवान,f=1360
word=किताब,f=1360
word=कै,f=1354
word=हुनु,f=1353
word=अश्लिल,f=1352
word=तपाईले,f=1349
word=व्यक्तिको,f=1341
word=ख,f=1341
word=रूप,f=1340
word=निम्न,f=1339
word=एसिया,f=1332
word=सम्पूर्ण,f=1330
word=श्रेणलाई,f=1329
word=लाइ,f=1325
word=थापा,f=1323
word=राजधानी,f=1322
word=राजनीतिक,f=1319
word=उत्पादन,f=1319
word=हजार,f=1319
word=यसरी,f=1319
word=बेला,f=1308
word=सूत्र,f=1306
word=तिहरू,f=1303
word=नामक,f=1301
word=माध्यमिक,f=1296
word=युद्ध,f=1295
word=उपन्यासकार,f=1294
word=हुनुहुन्छ,f=1294
word=यदी,f=1290
word=माथि,f=1285
word=राम्ररी,f=1279
word=पुस्तकालय,f=1277
word=गठन,f=1277
word=राजेश,f=1276
word=कम्पनी,f=1275
word=आफ्ना,f=1273
word=ठिक,f=1273
word=जब,f=1272
word=पर्यटकीय,f=1271
word=अधिकारी,f=1268
word=बनेको,f=1262
word=लि,f=1262
word=छौ,f=1262
word=ज्ञान,f=1256
word=रिडाइरेक्टहरू,f=1254
word=राष्ट्रपति,f=1253
word=भाषामा,f=1253
word=रचना,f=1251
word=हटाइयो,f=1250
word=ठाउँमा,f=1247
word=लिमिटेड,f=1246
word=त्यसपछि,f=1246
word=शब्द,f=1246
word=टिम,f=1245
word=हाम्रा,f=1244
word=सक्नु,f=1241
word=वर्तमान,f=1239
word=गण्डकी,f=1237
word=कार्यक्षेत्र,f=1236
word=अधिक,f=1234
word=श्रेणीमा,f=1231
word=युनेस्को,f=1231
word=स्थलहरू,f=1231
word=जनावर,f=1231
word=सम्वन्धित,f=1223
word=असर,f=1222
word=खेलाडी,f=1219
word=अञ्चलको,f=1216
word=मध्ये,f=1212
word=बेनुपराज,f=1208
word=स्थापित,f=1204
word=उपकरण,f=1200
word=पूर्ण,f=1197
word=योजना,f=1193
word=एकल,f=1192
word=चीन,f=1191
word=पुरानो,f=1185
word=जनाको,f=1185
word=झापा,f=1181
word=सय,f=1179
word=च,f=1177
word=शुभकामना,f=1173
word=लिएको,f=1173
word=मानिसहरू,f=1166
word=चराहरू,f=1163
word=निकै,f=1162
word=कर,f=1161
word=जसलाई,f=1158
word=ठाउँहरू,f=1156
word=भएकोले,f=1154
word=होइन,f=1153
word=पुन,f=1151
word=सहर,f=1149
word=उत्क,f=1148
word=विकिमीडिया,f=1145
word=विवाह,f=1141
word=आयोग,f=1141
word=तिथि,f=1140
word=सञ्चालन,f=1138
word=दैलेख,f=1136
word=बैतडी,f=1134
word=बनाउने,f=1130
word=सूचना,f=1130
word=आफुलाई,f=1129
word=नीति,f=1129
word=अञ्चलहरू,f=1127
word=भई,f=1126
word=भित्र,f=1121
word=सफल,f=1117
word=यहाँको,f=1110
word=कोशी,f=1108
word=भविष्यमा,f=1105
word=हुँदा,f=1098
word=समाज,f=1097
word=इलाम,f=1097
word=नक्शामा,f=1095
word=माध्यमहरू,f=1094
word=तयार,f=1094
word=स्वास्थ्य,f=1093
word=ष्ट,f=1092
word=क्रममा,f=1089
word=प्रान्त,f=1083
word=मूल,f=1083
word=कुल,f=1083
word=कायम,f=1081
word=सी,f=1081
word=क्यालेण्डर,f=1080
word=काल,f=1078
word=पाल्पा,f=1077
word=ट्याग,f=1077
word=किन,f=1074
word=ठाउँ,f=1073
word=थाहा,f=1070
word=अधिका,f=1057
word=सक्रिय,f=1056
word=छोरा,f=1054
word=मगर,f=1054
word=भागको,f=1053
word=पूर्वी,f=1049
word=अवस्थामा,f=1047
word=प्रकाशक,f=1047
word=परिवर्तनको,f=1046
word=यही,f=1045
word=हहरू,f=1043
word=गरिनेछ,f=1040
word=अभिनेत्रीहरू,f=1039
word=लगभग,f=1039
word=देवी,f=1039
word=बजार,f=1036
word=सञ्चारग,f=1035
word=शर्मा,f=1032
word=पाँच,f=1032
word=प्रस्तुत,f=1029
word=ललितपुर,f=1028
word=मनपर्ने,f=1027
word=गणना,f=1026
word=श्रेय,f=1024
word=गरिने,f=1023
word=फेरि,f=1022
word=स्याङ्जा,f=1021
word=स्पष्टता,f=1021
word=प्रधानमन्त्री,f=1020
word=कोइराला,f=1020
word=चितवन,f=1020
word=सेना,f=1019
word=यस्ता,f=1017
word=अध्यक्ष,f=1014
word=शक्ति,f=1013
word=जगत,f=1009
word=शुरु,f=1008
word=क्लब,f=1008
word=व्यक्तित्व,f=1007
word=क्रस,f=1006
word=तपाइको,f=1003
word=वर्षको,f=1002
word=प्रचलित,f=1000
word=क्षमा,f=1000
word=गएर,f=1000
word=मी,f=1000
word=नेपालीमा,f=999
word=अगस्ट,f=998
word=जनाले,f=995
word=लिएर,f=995
word=मन्त्रालय,f=990
word=हुनाले,f=990
word=दिए,f=989
word=दिल्ली,f=988
word=आउने,f=986
word=फारम,f=984
word=कहरू,f=984
word=गोत्र,f=983
word=अरु,f=983
word=लुम्बिनी,f=980
word=सदरमुकाम,f=977
word=आधुनिक,f=976
word=शासन,f=974
word=सम्मान,f=973
word=दल,f=973
word=गरिएकोछ,f=969
word=कारणले,f=968
word=नारायणी,f=967
word=करिब,f=967
word=सम्पादनको,f=965
word=स्था,f=963
word=कार्यालय,f=962
word=प्रतियोगिता,f=960
word=राज्यको,f=960
word=जाने,f=960
word=अथक,f=959
word=त्यही,f=957
word=सरकारी,f=954
word=भूगोल,f=954
word=सुविधाहरू,f=951
word=अन्तिम,f=951
word=खान,f=951
word=नागरिक,f=950
word=मदत,f=950
word=पासवर्ड,f=949
word=प्रतिशत,f=947
word=प्रक,f=945
word=तर्फ,f=945
word=हुनै,f=944
word=प्रविधि,f=943
word=भागमा,f=943
word=सभासद,f=939
word=व्यवसायहरू,f=938
word=मत,f=938
word=खण्ड,f=937
word=जान्छ,f=936
word=और,f=934
word=सूचनाहरू,f=932
word=पूर्वका,f=931
word=दिइनेछ,f=931
word=पहिलाको,f=930
word=निधन,f=930
word=प्रयासको,f=929
word=पुराण,f=929
word=जन्तु,f=928
word=नगर,f=928
word=दुर्भाग्यवश,f=927
word=क्राइस्ट,f=927
word=उपकरणको,f=927
word=कलियुग,f=927
word=पर्यटन,f=926
word=अश्लील,f=926
word=पहाडी,f=925
word=ढुक्क,f=925
word=समाचार,f=922
word=परिवर्तनले,f=921
word=जिसस,f=921
word=जहाँ,f=921
word=सप्तरी,f=920
word=सुविधायुक्त,f=919
word=प्रार्थी,f=919
word=बजारमा,f=919
word=अवस्था,f=919
word=आजको,f=919
word=ग्रेजी,f=918
word=प्रयोगकर्ताहरूका,f=917
word=तपाईहरूलाई,f=916
word=डेभलपर,f=916
word=एम,f=916
word=विकिहरूमा,f=915
word=राख्नेछ,f=915
word=निकुञ्ज,f=915
word=उत्पन्न,f=915
word=खाताहरूको,f=914
word=टीमले,f=913
word=जुध्न,f=913
word=खातासँग,f=911
word=असुविधाको,f=910
word=विकीहरू,f=910
word=गरिदिनेछौ,f=909
word=ल्याउदैछ,f=909
word=उपमहानगरपालिका,f=908
word=जन्मदेखि,f=908
word=केहि,f=908
word=भ,f=908
word=सहित,f=907
word=गर्छन्,f=906
word=भौतिक,f=901
word=तस्वीर,f=900
word=रोज्न,f=900
word=काठमाडौँ,f=898
word=मान्यता,f=898
word=प्रणाली,f=898
word=फाइनलाइजेसन,f=897
word=दिनु,f=896
word=उ,f=893
word=विकिपीडियाको,f=892
word=पर्वत,f=892
word=हिमाल,f=890
word=आधिकारिक,f=886
word=शान्ति,f=886
word=भएकाले,f=886
word=मेन्टिनेन्स,f=885
word=मिटर,f=885
word=सुरु,f=884
word=दिवस,f=884
word=क्षेत्रफल,f=883
word=लाग्ने,f=880
word=त्यहाँ,f=880
word=आमा,f=880
word=काव्य,f=879
word=राणा,f=879
word=निर्वाचित,f=878
word=विचार,f=877
word=जारी,f=877
word=राज,f=877
word=आधार,f=876
word=उपत्यका,f=875
word=पूरा,f=875
word=गर्नुभएको,f=873
word=त्यस्तै,f=868
word=सिर,f=867
word=राख्ने,f=863
word=यात्रा,f=863
word=त्यसलाई,f=862
word=दर्शन,f=862
word=राजनीति,f=861
word=आधारित,f=861
word=डी,f=860
word=सम्बन्ध,f=859
word=तथ्याङ्क,f=857
word=महाभारत,f=857
word=परिवार,f=855
word=विकि,f=852
word=नामले,f=850
word=चलन,f=850
word=तत्व,f=847
word=गर्दछु,f=846
word=अक्षर,f=846
word=कम्युनिष्ट,f=844
word=जीव,f=844
word=सहरहरू,f=842
word=प्रधान,f=842
word=व्यक्तिगत,f=839
word=सामाग्री,f=838
word=सम्पन्न,f=838
word=आशा,f=837
word=अर्थात्,f=835
word=आएका,f=835
word=भएपछि,f=833
word=शास्त्र,f=832
word=बनाएको,f=832
word=उपयोग,f=831
word=पोखरा,f=827
word=आफ्नै,f=827
word=सक्ने,f=826
word=व्यक्ति,f=825
word=हि,f=823
word=नि,f=823
word=व्यक्त,f=822
word=सात,f=822
word=नेपालीहरू,f=821
word=साना,f=821
word=उत्तरी,f=820
word=पोख्रेल,f=817
word=बाहिर,f=817
word=सालको,f=811
word=हरेक,f=811
word=कलाकार,f=809
word=फरक,f=809
word=राई,f=807
word=पुराना,f=805
word=स्वतन्त्र,f=804
word=वडा,f=804
word=बाल,f=804
word=लागेको,f=803
word=बहादुर,f=802
word=तिर,f=800
word=विषय,f=798
word=द्धि,f=798
word=हिन्दु,f=797
word=श्य,f=797
word=खाना,f=795
word=लाख,f=794
word=दैनिक,f=792
word=चिन्ह,f=792
word=मेची,f=792
word=वन,f=788
word=क्षिप्त,f=787
word=काभ्रेपलाञ्चोक,f=786
word=बिजय,f=786
word=सङ्ख्या,f=784
word=आरम्भ,f=784
word=होल्डर,f=782
word=प्रयास,f=782
word=घरमा,f=781
word=रातो,f=779
word=बाहिरका,f=778
word=वेद,f=778
word=लगायत,f=776
word=नाटक,f=776
word=समालोचना,f=775
word=ल्याएको,f=775
word=नेत,f=773
word=भूमिका,f=772
word=नक्सामा,f=771
word=मद्दत,f=771
word=नहुने,f=771
word=सम्बन्धन,f=770
word=उद्योग,f=770
word=रक्षण,f=770
word=ध्यान,f=768
word=शिव,f=768
word=ल,f=768
word=आयोजना,f=767
word=लेखको,f=766
word=अघि,f=766
word=चर्चित,f=765
word=ठुलो,f=765
word=सन,f=765
word=इमेल,f=763
word=दु,f=763
word=गुल्मी,f=762
word=बीच,f=762
word=अवार्ड,f=761
word=बौद्ध,f=761
word=फिल्म,f=761
word=देशको,f=759
word=फिफा,f=759
word=गए,f=759
word=सूत्रहरू,f=757
word=माओवादी,f=754
word=वैज्ञानिक,f=750
word=वर्णन,f=750
word=उहाँ,f=750
word=धनकुटा,f=749
word=पाकिस्तान,f=747
word=अलग,f=747
word=अन्तराष्ट्रिय,f=746
word=देवता,f=744
word=थाले,f=744
word=लिन,f=744
word=प्रबन्धक,f=743
word=परम्परा,f=743
word=मतदान,f=743
word=जल,f=742
word=केवल,f=741
word=अनेक,f=740
word=विश्वमा,f=737
word=गाविसमा,f=737
word=कला,f=737
word=पर,f=736
word=डेटाथन,f=735
word=नोबेल,f=733
word=जम्मा,f=733
word=बनाइएको,f=732
word=सार्वजनिक,f=728
word=बहुमुखी,f=728
word=निरन्तर,f=728
word=हेर्ने,f=728
word=उत्सवहरू,f=724
word=मेला,f=722
word=थिइन्,f=720
word=तेस्रो,f=718
word=निम्ति,f=717
word=चलचित्रहरू,f=716
word=अभिनेता,f=716
word=भनी,f=716
word=कम्प्युटर,f=715
word=प्रारम्भिक,f=714
word=महाकाली,f=714
word=तल,f=714
word=जोन,f=713
word=प्रत्यक्ष,f=712
word=पत्र,f=712
word=गोल,f=712
word=ट,f=711
word=राख्न,f=710
word=भट्ट,f=710
word=दिइएको,f=709
word=श्र,f=709
word=हेर्नुहोला,f=707
word=तिनको,f=707
word=त्यसै,f=706
word=साधारण,f=705
word=एप्रील,f=704
word=दोलखा,f=703
word=भक्तपुर,f=702
word=युवा,f=702
word=कर्णाली,f=699
word=फल,f=699
word=थर,f=697
word=साहित्यकार,f=696
word=स्वय,f=696
word=कवि,f=696
word=एन,f=693
word=जनता,f=692
word=प्रभाव,f=691
word=पदार्थ,f=691
word=गोरखा,f=691
word=आचार्य,f=690
word=मोरङ,f=690
word=गाविसको,f=689
word=कालो,f=689
word=एस,f=688
word=पूर्वाञ्चल,f=687
word=खोला,f=685
word=दाङ,f=685
word=धनुषा,f=684
word=मि,f=681
word=सेती,f=680
word=निवेदन,f=679
word=अछाम,f=679
word=नियम,f=678
word=जनसङ्ख्या,f=677
word=निम्तो,f=677
word=तिथिको,f=676
word=कास्की,f=676
word=खोटाङ,f=675
word=अरबी,f=673
word=तथ्या,f=672
word=विस,f=672
word=माघ,f=671
word=लिङ्ग,f=670
word=गुरुङ,f=670
word=सुन्दर,f=669
word=दिएको,f=669
word=स्थिति,f=667
word=सुदूर,f=667
word=फिलिप,f=667
word=जन,f=667
word=उदयपुर,f=666
word=सडक,f=666
word=श्रील,f=665
word=आय,f=665
word=बुद्ध,f=664
word=अति,f=664
word=अस्ट्रेलिया,f=662
word=सुरक्षा,f=660
word=अत्यन्त,f=660
word=पठाउने,f=658
word=सैनिक,f=658
word=आई,f=658
word=ट्विङ्कल,f=657
word=विभाजन,f=657
word=उपचार,f=657
word=मिस,f=657
word=आइसिसी,f=655
word=ध,f=655
word=धारा,f=654
word=कोड,f=654
word=राखिएको,f=653
word=थिएन,f=652
word=छोरी,f=652
word=कपिलवस्तु,f=651
word=बनाएर,f=651
word=सुनसरी,f=650
word=सहभागी,f=650
word=अगाडि,f=648
word=पश्चिमी,f=647
word=विविध,f=647
word=आदिमा,f=647
word=अर्थात,f=646
word=उसको,f=646
word=साहित्यिक,f=645
word=महत्व,f=645
word=दुइ,f=644
word=कहिले,f=643
word=सम्बन्धमा,f=642
word=सुर्खेत,f=642
word=नेता,f=642
word=बी,f=641
word=लगायतका,f=638
word=मध्येको,f=638
word=डोटी,f=637
word=भौगोलिक,f=636
word=ज्यू,f=636
word=व्यवस्थापन,f=635
word=प्रकारका,f=634
word=सभामा,f=634
word=जापान,f=632
word=उचित,f=632
word=जति,f=632
word=ठीक,f=631
word=उहाँको,f=630
word=नारायण,f=629
word=पश्चिममा,f=628
word=प्रहरी,f=628
word=गोर्खा,f=628
word=हिमालय,f=627
word=रहने,f=627
word=खाने,f=627
word=एफएम,f=626
word=राप्ती,f=625
word=बारा,f=625
word=मात,f=625
word=गलत,f=624
word=निर्देशक,f=623
word=लोकसभा,f=623
word=बाटो,f=623
word=नुवाकोट,f=622
word=फुल्ने,f=620
word=गर्‍यो,f=620
word=बारे,f=619
word=असोज,f=619
word=नभएको,f=618
word=लिपि,f=617
word=थ्वी,f=617
word=विद्युत,f=616
word=मन्त्री,f=615
word=अरब,f=614
word=जन्मेको,f=613
word=मल्ल,f=613
word=विश्वविद्यालयसँग,f=612
word=निर्णय,f=612
word=अवधिमा,f=612
word=घोषित,f=612
word=टेलिभिजन,f=611
word=भोजपुर,f=611
word=जात्रा,f=611
word=सिन्धुपाल्चोक,f=610
word=पूर्वमा,f=609
word=विष्णु,f=609
word=क्षमता,f=609
word=गायक,f=609
word=चलचित्रका,f=608
word=सामुदायिक,f=604
word=महिनामा,f=604
word=समानुपातिक,f=603
word=किलोमिटर,f=603
word=जर्मनी,f=603
word=लाग्छ,f=603
word=दलहरू,f=603
word=शुद्ध,f=602
word=अवतार,f=602
word=कार्तिक,f=600
word=तनहुँ,f=600
word=ब्रिटिश,f=599
word=निबन्ध,f=599
word=गरिएका,f=599
word=ग्राम,f=599
word=आन्दोलन,f=598
word=भइरहेका,f=597
word=विमानस्थल,f=595
word=उद्देश्य,f=595
word=छनौट,f=595
word=प्राविधिक,f=594
word=ग्रेस,f=594
word=ऊ,f=594
word=परम्परागत,f=593
word=विद्यार्थी,f=592
word=पिता,f=592
word=थुप्रै,f=591
word=कैलाली,f=590
word=समान,f=590
word=पा,f=590
word=मकवानपुर,f=589
word=राजनीतिज्ञहरू,f=587
word=मानेर,f=587
word=लिए,f=587
word=सामूहिक,f=586
word=राग,f=586
word=ताप्लेजुङ,f=585
word=अभिनय,f=585
word=स्थापक,f=584
word=परियोजनामा,f=583
word=लगाउने,f=583
word=व्रत,f=583
word=महेन्द्र,f=582
word=देउडा,f=582
word=गल,f=582
word=मान्छे,f=581
word=गर्नका,f=580
word=रहन्छ,f=580
word=स्थानिय,f=578
word=ष्ठको,f=578
word=वैदिक,f=578
word=हात,f=578
word=उत्तरमा,f=577
word=विजेता,f=577
word=समाजमा,f=576
word=चर्चा,f=576
word=उपर्युक्त,f=575
word=जोडिएको,f=574
word=मात्रै,f=574
word=पाउने,f=574
word=लिने,f=574
word=पुत्र,f=573
word=कानून,f=573
word=गैर,f=573
word=प्रदर्शित,f=572
word=तेह्रथुम,f=572
word=मन्दिरमा,f=571
word=सरकारले,f=571
word=ठूला,f=571
word=किन्ड्रेक,f=570
word=भट्टराई,f=569
word=जेनवरी,f=569
word=सिराहा,f=568
word=शुभ,f=568
word=नवलपरासी,f=567
word=समुह,f=567
word=बल,f=567
word=अफ्रिका,f=564
word=शुक्ल,f=564
word=बीचमा,f=564
word=अग्लो,f=564
word=शाही,f=564
word=विजय,f=564
word=वैशाख,f=563
word=मन्दिरको,f=561
word=बिभिन्न,f=561
word=भरतपुर,f=560
word=पवित्र,f=560
word=रन,f=560
word=हस्ताक्षर,f=559
word=बस्ने,f=559
word=परिषद,f=559
word=आवेदन,f=559
word=अझै,f=559
word=विशाल,f=558
word=भेरी,f=558
word=बर्ष,f=558
word=पुरा,f=558
word=लेख्ने,f=556
word=लोक,f=555
word=विश्वसम्पदाथन,f=554
word=मापदण्ड,f=554
word=रूपले,f=554
word=आकार,f=554
word=गै,f=554
word=सिन्धुली,f=552
word=जे,f=551
word=अनुसन्धान,f=550
word=स्कार,f=550
word=मुक्त,f=549
word=बाहेक,f=549
word=गर्यो,f=549
word=रहे,f=549
word=अनुवाद,f=548
word=घिमिरे,f=547
word=यिनको,f=547
word=मानिसहरूस,f=546
word=विजयी,f=546
word=देशमा,f=546
word=हे,f=546
word=उपयुक्त,f=545
word=सेतो,f=545
word=नाच,f=545
word=उप,f=545
word=विश्वको,f=543
word=रौतहट,f=543
word=स्कोरकार्ड,f=542
word=दक्षिणमा,f=542
word=गरेकी,f=542
word=सही,f=541
word=छलफलहरूमा,f=540
word=भू,f=540
word=लेखलाई,f=539
word=विस्तार,f=538
word=तब,f=538
word=त्यसमा,f=537
word=ने,f=536
word=महोत्तरी,f=535
word=भन्न,f=535
word=सुरक्षित,f=534
word=पर्सा,f=534
word=अगाडी,f=534
word=ओखलढुङ्गा,f=533
word=स्थानका,f=532
word=निकाल्न,f=532
word=नामबाट,f=532
word=दिएका,f=532
word=तरिका,f=532
word=तत्कालीन,f=531
word=म्याक्सिम,f=530
word=विकसित,f=530
word=अल,f=530
word=प्रारम्भ,f=529
word=समितिको,f=529
word=शुरू,f=529
word=बैशाख,f=528
word=पक्ष,f=528
word=तिको,f=527
word=चाहन्छु,f=526
word=हिमाली,f=526
word=पुगेको,f=526
word=देवनागरी,f=525
word=क्षेत्रीय,f=524
word=वेबसाइट,f=524
word=रामेछाप,f=524
word=रहन,f=524
word=अभिनेताहरू,f=523
word=गराउनु,f=523
word=राजनीतिमा,f=521
word=उदाहरण,f=521
word=तारा,f=521
word=जान,f=520
word=हेर्दा,f=519
word=भनिएको,f=519
word=उसले,f=519
word=धादिङ,f=518
word=त्य,f=518
word=मार्ग,f=517
word=बलिउड,f=517
word=मात्रामा,f=516
word=बङ्गाल,f=515
word=यिनी,f=515
word=एफ,f=515
word=हेर्न,f=514
word=ट्वान्टी,f=513
word=पोखरी,f=513
word=सर,f=513
word=प्रभावित,f=512
word=स्तर,f=512
word=डिक,f=512
word=वेबसाईट,f=511
word=गरेपछि,f=510
word=वर्ल्ड,f=509
word=जन्मको,f=509
word=माया,f=509
word=प्रदेशका,f=508
word=समुदाय,f=508
word=लेखन,f=508
word=यति,f=508
word=लामा,f=506
word=करोड,f=506
word=दा,f=506
word=जा,f=506
word=उहाँले,f=505
word=कुन,f=505
word=आएर,f=504
word=आक्रमण,f=503
word=श्रीक,f=503
word=धन,f=503
word=अस्पतालहरू,f=502
word=आफूलाई,f=502
word=उनि,f=502
word=सन्तान,f=501
word=खेलकुद,f=501
word=कति,f=501
word=शैक्षिक,f=500
word=कार्यमा,f=500
word=लिग,f=500
word=यि,f=500
word=फोटोग्राफर,f=499
word=राखेर,f=499
word=नम्बर,f=499
word=बन्न,f=498
word=पाँचथर,f=497
word=कालमा,f=497
word=लग्न,f=497
word=स्पष्ट,f=496
word=आँकडा,f=496
word=हुदै,f=496
word=भवन,f=496
word=वनस्पतिहरू,f=494
word=खेलाडीहरू,f=494
word=लमजुङ,f=493
word=बनेका,f=493
word=ष्टि,f=493
word=कतै,f=493
word=चिनिन्छ,f=492
word=दिनमा,f=492
word=नामाकरण,f=491
word=अनुमान,f=491
word=स्वतन्त्रता,f=490
word=उच्चारण,f=490
word=लोगो,f=490
word=विरुद्ध,f=489
word=सूर्य,f=489
word=प्रेम,f=489
word=नेवार,f=489
word=टेस्ट,f=489
word=वीर,f=489
word=राजमार्ग,f=488
word=लिनक्स,f=487
word=भएकोमा,f=487
word=प्रा,f=486
word=हैन,f=486
word=पोर्टल,f=485
word=देखी,f=485
word=नया,f=485
word=नगरपालिकाको,f=484
word=एसियाली,f=484
word=मै,f=484
word=सकिने,f=482
word=शरीर,f=482
word=ग्रन्थ,f=481
word=नदीको,f=481
word=नाममा,f=480
word=गयो,f=480
word=ला,f=480
word=आठ,f=480
word=अधिकारको,f=479
word=निश्चित,f=479
word=स्थाको,f=479
word=आँखा,f=479
word=नियन्त्रण,f=478
word=ब्राह्मण,f=478
word=फ्रान्स,f=478
word=एभ्स,f=478
word=सार,f=478
word=मानिसको,f=477
word=प्राणी,f=477
word=पछी,f=477
word=मनोनित,f=476
word=जनताको,f=476
word=गर्छन,f=476
word=गुरु,f=476
word=अर्थतन्त्र,f=474
word=किसिमको,f=474
word=जनक,f=474
word=बाल्यकाल,f=473
word=रामायण,f=473
word=श्रोत,f=473
word=दै,f=473
word=गर्दछन,f=472
word=देखेर,f=472
word=यादव,f=472
word=मोडल,f=472
word=अत,f=472
word=सद्भाव,f=471
word=जीवनको,f=471
word=उमेरमा,f=471
word=पुँजी,f=471
word=देख्न,f=471
word=दिएर,f=471
word=चन्द्र,f=470
word=महान,f=470
word=रे,f=470
word=प्रशासनिक,f=469
word=गर्नुपर्छ,f=469
word=शब्दको,f=469
word=लाग्यो,f=469
word=ष्ठहरू,f=468
word=हुन्थ्यो,f=467
word=दक्षिणी,f=467
word=पाटन,f=467
word=बा,f=467
word=महाराष्ट्र,f=466
word=ढ,f=466
word=सिक्किम,f=464
word=यातायात,f=464
word=ईसाको,f=464
word=घटित,f=464
word=सरकारको,f=463
word=इन,f=463
word=प्रक्रिया,f=462
word=काठमाण्डौ,f=462
word=अर्घाखाँची,f=461
word=सकेको,f=461
word=मण्डल,f=461
word=भगवती,f=460
word=कडीहरु,f=459
word=बाँकी,f=459
word=नेकपा,f=459
word=प्रजातान्त्रिक,f=458
word=सरस्वती,f=457
word=भाषाका,f=457
word=उपनिषद,f=457
word=परिवारको,f=456
word=जनावरहरू,f=456
word=शुरुवात,f=456
word=जातिको,f=456
word=त्यति,f=456
word=ईसाका,f=456
word=दर्शाउँदछ,f=455
word=अधिराज्य,f=454
word=डिग्री,f=454
word=वर्षलाई,f=453
word=बिहान,f=453
word=प्रिय,f=453
word=मसीह,f=453
word=खेती,f=452
word=समन्वय,f=451
word=सफ्टवेयर,f=450
word=पछिदेखि,f=450
word=दरबार,f=450
word=गको,f=450
word=गई,f=450
word=पद्धतिका,f=449
word=प्रशासन,f=449
word=भगवान्,f=449
word=स्वर,f=449
word=आउँछ,f=449
word=ओ,f=449
word=सिद्धान्त,f=448
word=लघुकथा,f=447
word=क्षेत्रलाई,f=445
word=तिलाई,f=445
word=अन्तरका,f=444
word=दरवार,f=444
word=सामान्यतया,f=443
word=जूलियन,f=443
word=सहायक,f=443
word=जन्मलाई,f=442
word=मूर्ति,f=442
word=धान,f=442
word=क्षेत्रका,f=441
word=कार्यरत,f=441
word=अधार,f=441
word=वातावरण,f=440
word=सम्मको,f=440
word=वाला,f=440
word=यौन,f=440
word=चाड,f=440
word=आधा,f=440
word=एसियाका,f=439
word=मात्रा,f=439
word=प्रजनन,f=439
word=योग्य,f=439
word=निर्माता,f=438
word=बन्द,f=438
word=स्टेडियम,f=437
word=पाए,f=437
word=पञ्चाग,f=436
word=आदिको,f=436
word=पद,f=436
word=ऐन,f=436
word=लोकप्रिय,f=435
word=हरूको,f=435
word=हरियो,f=435
word=तामाङ,f=435
word=गरेमा,f=435
word=शाखा,f=435
word=विधि,f=435
word=विकिपिडियामा,f=434
word=राष्ट्रीय,f=434
word=उपनिषद्,f=434
word=नुक्त,f=434
word=विधानसभा,f=433
word=प्रस्ताव,f=433
word=व्यापार,f=433
word=यस्तै,f=433
word=सबभन्दा,f=432
word=रुकुम,f=432
word=म्याच,f=431
word=अपलोड,f=431
word=महर्षि,f=430
word=एशिया,f=430
word=आवाज,f=430
word=गो,f=430
word=मुख्यालय,f=429
word=गलादेश,f=429
word=सारा,f=429
word=एल,f=429
word=कोरिया,f=428
word=एकादशी,f=428
word=रसायन,f=428
word=एकदिवसीय,f=427
word=गान्धी,f=427
word=विरोध,f=427
word=इन्टरनेट,f=426
word=होस्,f=426
word=टाढा,f=426
word=गलमय,f=426
word=आयो,f=426
word=आइ,f=426
word=काठमाडौँमा,f=425
word=प्रदर्शन,f=425
word=तत्कालिन,f=425
word=सल्यान,f=425
word=हलिउड,f=425
word=साथमा,f=425
word=उसलाई,f=425
word=पात,f=425
word=एन्ड,f=424
word=दर,f=424
word=प्रतिनिधित्व,f=423
word=स्कूल,f=423
word=जर्मन,f=423
word=क्रमश,f=423
word=दर्भ,f=423
word=तिमी,f=423
word=अरू,f=423
word=निर्वाचनमा,f=422
word=घटनाहरु,f=422
word=देखिने,f=422
word=तिम्रो,f=422
word=जुम्ला,f=422
word=भिन्न,f=422
word=गुफा,f=422
word=पछिल्लो,f=421
word=अधारित,f=421
word=भै,f=421
word=प्रतिष्ठान,f=420
word=पानीको,f=420
word=दर्ता,f=420
word=निजी,f=420
word=धौलागिरी,f=418
word=सदीय,f=416
word=दलको,f=416
word=तु,f=416
word=लभ्स,f=415
word=उत्पत्ति,f=414
word=चैत्र,f=414
word=रानी,f=414
word=बनाए,f=414
word=पहाड,f=414
word=पार,f=414
word=पौराणिक,f=413
word=योग,f=413
word=कतिपय,f=412
word=कार्यक्रममा,f=411
word=भन्नाले,f=411
word=अपेक्षा,f=411
word=खेलमा,f=411
word=आए,f=411
word=हटाउन,f=410
word=सत्य,f=410
word=गरिन,f=410
word=भाइ,f=409
word=स्वरूपण,f=408
word=निर्मित,f=408
word=पहिचान,f=408
word=खाली,f=408
word=क्रम,f=408
word=रिडाइरेक्ट,f=407
word=नियमित,f=407
word=पाउन,f=407
word=धरान,f=407
word=था,f=407
word=मध्यमाञ्चलका,f=406
word=स्तनधारी,f=406
word=प्रख्यात,f=406
word=कर्मचारी,f=406
word=अभियान,f=406
word=स्म,f=406
word=माता,f=405
word=सम,f=405
word=दुबै,f=404
word=ब्राजिल,f=403
word=सक्छन्,f=403
word=सेन्ट,f=403
word=न्यू,f=403
word=क्षेत्री,f=402
word=रह्यो,f=402
word=टि,f=402
word=य,f=401
word=पार्टीको,f=400
word=भन्दछन्,f=400
word=कथानक,f=400
word=अवसर,f=400
word=विश्वविद्यालयहरूको,f=399
word=गाउँमा,f=399
word=समावेश,f=398
word=भाषाहरू,f=397
word=समाप्त,f=397
word=छैनन्,f=397
word=राय,f=397
word=राखेको,f=396
word=नागरी,f=396
word=परिवारमा,f=395
word=पश्चात,f=394
word=खुल्ला,f=394
word=इतिहासका,f=393
word=माछा,f=393
word=त्यस्तो,f=392
word=मुम्बई,f=392
word=गुणहरू,f=392
word=घटना,f=392
word=हक,f=392
word=कान्तिपुर,f=391
word=दार्चुला,f=391
word=देखिएको,f=391
word=तिब्बत,f=391
word=लागू,f=391
word=कोष,f=391
word=विश्लेषण,f=390
word=नेपालले,f=390
word=रक्षा,f=390
word=तल्लो,f=390
word=विशेषता,f=389
word=वितरण,f=389
word=बिहार,f=389
word=क्रान्ति,f=388
word=बेलायती,f=388
word=बर्दिया,f=388
word=पर्दछन्,f=388
word=खाद्य,f=388
word=सम्पादक,f=387
word=‍‍‍‍‍,f=387
word=समयको,f=387
word=व्यास,f=387
word=बालक,f=387
word=त्व,f=387
word=स्थानहरू,f=386
word=प्रसारण,f=386
word=तरिकाले,f=386
word=सुविधा,f=386
word=मासिक,f=386
word=तराई,f=386
word=प्रचलन,f=385
word=थाल्यो,f=385
word=रहेछ,f=385
word=साहित्यमा,f=384
word=हत्या,f=384
word=यसबाट,f=384
word=ईमेल,f=384
word=चा,f=384
word=रोल्पा,f=383
word=मनाउने,f=383
word=वस्तु,f=383
word=पल्ट,f=383
word=चन्द,f=383
word=बढि,f=383
word=चौथो,f=382
word=ठेगाना,f=381
word=दलित,f=381
word=बने,f=381
word=आदी,f=381
word=क्ति,f=380
word=दी,f=380
word=अम,f=380
word=लक्ष्मी,f=379
word=महादेव,f=379
word=परिचित,f=379
word=स्करण,f=379
word=भ्रमण,f=379
word=सोही,f=379
word=बझाङ,f=379
word=चिकित्सा,f=378
word=उनीहरू,f=378
word=फेरी,f=378
word=सर्वाधिक,f=377
word=उचाई,f=377
word=आफै,f=377
word=बन्यो,f=376
word=गराउन,f=376
word=एमाले,f=376
word=चालन,f=376
word=प्रकाशका,f=375
word=किनभने,f=375
word=मौलिक,f=375
word=लघुकथाहरू,f=374
word=कलाकारहरू,f=374
word=श्रावण,f=374
word=शरीरमा,f=374
word=भित्री,f=374
word=उमेर,f=374
word=एकै,f=374
word=विकिमिडिया,f=373
word=प्राथमिक,f=373
word=पाइन्छन्,f=373
word=वार्षिक,f=373
word=मानिएको,f=373
word=विकिपीडियाका,f=372
word=मन्दिरहरू,f=372
word=मार्फत,f=372
word=पत्नी,f=372
word=चुनाव,f=372
word=साधन,f=372
word=बिना,f=372
word=अमेरिकाका,f=371
word=विदेशी,f=370
word=पुग्न,f=370
word=चौधरी,f=370
word=सीमा,f=370
word=आयोजक,f=369
word=भएन,f=369
word=अष्ट्रेलिया,f=368
word=सहकारी,f=368
word=बाजा,f=368
word=हासिल,f=367
word=एकीक,f=367
word=केत,f=367
word=टी,f=367
word=शेर्पा,f=366
word=भन्दै,f=365
word=जेष्ठ,f=365
word=भूमि,f=365
word=तेल,f=365
word=शी,f=365
word=समाजवादी,f=364
word=पात्र,f=364
word=घको,f=364
word=ढु,f=364
word=लोकतान्त्रिक,f=363
word=प्युठान,f=363
word=जाजरकोट,f=363
word=पाइएको,f=363
word=विमान,f=363
word=अभिव,f=363
word=प्राचिन,f=362
word=शिक्षण,f=362
word=बसेको,f=362
word=अनुभव,f=362
word=आफू,f=362
word=माथिल्लो,f=361
word=किमी,f=361
word=कलेण्डरमा,f=360
word=त्ति,f=360
word=बेलायत,f=359
word=परिणाम,f=359
word=विस्त,f=359
word=आदर्श,f=359
word=खास,f=359
word=औँ,f=359
word=महिनाको,f=358
word=शहरहरू,f=358
word=लगाएर,f=358
word=चरण,f=358
word=फैलिएको,f=357
word=यद्यपि,f=357
word=फिट,f=357
word=बनाई,f=356
word=पुगे,f=356
word=विकासको,f=355
word=मान्ने,f=355
word=साथी,f=354
word=मिलाएर,f=353
word=रेखा,f=353
word=गीतकार,f=352
word=दुलाल,f=352
word=फोन,f=352
word=देव,f=352
word=राज्यमा,f=351
word=यिनले,f=351
word=ग्रहण,f=351
word=देखा,f=351
word=गया,f=351
word=कलन,f=351
word=म्याग्दी,f=350
word=सालदेखि,f=350
word=पत्रकार,f=350
word=दोश्रो,f=350
word=छोटो,f=350
word=रूख,f=350
word=भनि,f=350
word=युग,f=349
word=नही,f=349
word=सद,f=349
word=सर्वोच्च,f=348
word=सम्भावना,f=348
word=जीवनमा,f=348
word=भाद्र,f=348
word=कप,f=348
word=रूपन्देही,f=347
word=फाइनान्स,f=347
word=भण्डारी,f=347
word=पोखरेल,f=347
word=महत्त्वपूर्ण,f=346
word=सर्वप्रथम,f=346
word=राजाले,f=346
word=बनाउनु,f=346
word=राखी,f=346
word=मेरा,f=346
word=रगत,f=346
word=राख्नुहोला,f=345
word=दोहोरो,f=345
word=हालको,f=345
word=क्लिक,f=345
word=भोजन,f=345
word=रस,f=345
word=वर्षहरुको,f=344
word=प्रव,f=344
word=ण,f=344
word=मनोरञ्जन,f=343
word=जापानी,f=343
word=सजिलो,f=343
word=औसत,f=343
word=निर्मल,f=342
word=अन्डर,f=342
word=एण्ड,f=342
word=विद्यालयहरू,f=341
word=साप्ताहिक,f=341
word=देवकोटा,f=341
word=अलङ्कार,f=341
word=मुक्ति,f=341
word=गर्थे,f=341
word=गोर्की,f=340
word=सुनुवार,f=338
word=शारीरिक,f=338
word=मानसिक,f=338
word=पाण्डे,f=338
word=सागर,f=338
word=कोही,f=338
word=दश,f=338
word=प्रजाति,f=337
word=स्नातक,f=337
word=राजाको,f=337
word=वयस्क,f=337
word=युरोप,f=337
word=बिकास,f=337
word=राशि,f=337
word=जस,f=337
word=माध्यमबाट,f=336
word=धर्मको,f=336
word=सम्वत,f=336
word=जितेर,f=336
word=पेशा,f=336
word=गर,f=336
word=जिम्मेवारी,f=335
word=स्वीकार,f=335
word=भन्छन्,f=335
word=सैन्य,f=335
word=वर्षहरुलाई,f=334
word=चलचित्रमा,f=334
word=हुनुपर्छ,f=334
word=उल्लेखित,f=334
word=युकेश,f=334
word=असार,f=334
word=हार,f=334
word=पौष,f=334
word=जेठ,f=334
word=गाल,f=334
word=ली,f=334
word=दे,f=334
word=स्त्री,f=333
word=सामेल,f=333
word=बाँके,f=333
word=दान,f=333
word=नौ,f=333
word=विशिष्ट,f=332
word=ङ्खला,f=332
word=शोधन,f=332
word=गायन,f=332
word=मनाइन्छ,f=331
word=बराबर,f=331
word=जिला,f=331
word=सोलुखुम्बु,f=330
word=साहित्यको,f=330
word=साम्राज्य,f=330
word=सिमाना,f=330
word=वर्षमा,f=330
word=खेल्ने,f=330
word=सुची,f=330
word=जय,f=330
word=सहयोगी,f=329
word=पुग्यो,f=329
word=उपाधि,f=329
word=आगामी,f=329
word=थोरै,f=329
word=डट,f=329
word=व्याख्या,f=328
word=सुरुवात,f=328
word=लेखेको,f=328
word=अन्त्य,f=328
word=वर्षा,f=328
word=माटो,f=328
word=छिन्,f=328
word=जून,f=328
word=गाई,f=328
word=दि,f=328
word=थ्वीनारायण,f=327
word=पर्याप्त,f=327
word=गर्नाले,f=327
word=प्रधानमन्त्रीहरू,f=326
word=सुधारहरू,f=326
word=स्वामी,f=326
word=द्धिको,f=326
word=डे,f=326
word=सेनाको,f=325
word=आग्रह,f=325
word=अवधि,f=325
word=कार,f=325
word=आदिवासी,f=324
word=बेलामा,f=324
word=सङ्घ,f=324
word=बाबु,f=324
word=कहाँ,f=324
word=गर्नुपर्ने,f=323
word=देशहरू,f=323
word=हातमा,f=323
word=बुटवल,f=323
word=पार्क,f=323
word=शैली,f=323
word=वास्तवमा,f=321
word=उनीहरूको,f=321
word=परिषद्,f=321
word=तिनलाई,f=321
word=रोगको,f=321
word=परेका,f=321
word=बसेर,f=321
word=छन्द,f=321
word=हाड,f=321
word=सधै,f=321
word=आन्तरिक,f=320
word=पानीमा,f=320
word=देवीको,f=320
word=जनबादी,f=320
word=राजव,f=320
word=सित,f=320
word=गर्नुभयो,f=319
word=जन्मेका,f=319
word=कहिल्यै,f=319
word=स्नान,f=319
word=हिजो,f=319
word=खबर,f=319
word=आम,f=319
word=पत्ता,f=318
word=पुल,f=318
word=खोज,f=318
word=पूर्णिमा,f=317
word=श्राद्ध,f=317
word=पाईन्छ,f=317
word=कप्तान,f=317
word=सिटी,f=317
word=ता,f=317
word=गण,f=317
word=व्यापक,f=316
word=अर्जुन,f=316
word=कक्षा,f=316
word=थारु,f=316
word=कञ्चनपुर,f=315
word=किसिमका,f=315
word=सक्दैन,f=315
word=प्रचार,f=315
word=दियो,f=315
word=तमिलनाडु,f=314
word=रेकर्ड,f=314
word=लक्षण,f=314
word=भएपनि,f=314
word=पाएका,f=314
word=धामी,f=314
word=झरना,f=314
word=वास्तविक,f=313
word=शरीरको,f=313
word=टस,f=313
word=सर्वश्रेष्ठ,f=312
word=नभएर,f=312
word=रही,f=312
word=यहा,f=312
word=गजल,f=312
word=उल्लेखनीय,f=311
word=ब्राउजर,f=311
word=मिनेट,f=311
word=किरात,f=311
word=रत्न,f=311
word=जबकि,f=311
word=दूध,f=311
word=अलि,f=311
word=विकिमा,f=310
word=बागलुङ,f=310
word=जग्गा,f=310
word=घरेलु,f=310
word=बस्न,f=310
word=गुण,f=310
word=प्रविधिको,f=308
word=राजस्थान,f=308
word=कार्की,f=308
word=जाँदा,f=308
word=खला,f=308
word=अन्नपूर्ण,f=307
word=भइरहेको,f=307
word=सेवन,f=307
word=समाजको,f=306
word=आफूले,f=306
word=वर्ण,f=306
word=फोटो,f=306
word=सिर्जना,f=305
word=समुद्र,f=305
word=बनाएका,f=305
word=भावना,f=305
word=एकपटक,f=305
word=डि,f=305
word=जि,f=305
word=अङ्ग्रेजीमा,f=304
word=मुलुकमा,f=304
word=दायाँ,f=304
word=हुनुहुन्थ्यो,f=303
word=विराटनगर,f=303
word=अनलाईन,f=303
word=खड्का,f=303
word=ज्यु,f=303
word=गति,f=303
word=समयसम्म,f=302
word=ष्टिले,f=302
word=बाजुरा,f=302
word=पर्नेछ,f=302
word=पक्षमा,f=302
word=गर्दथे,f=302
word=रहेर,f=302
word=कन,f=302
word=युद्धमा,f=301
word=सबैलाई,f=301
word=डिक्सन,f=301
word=मुगल,f=301
word=गायकहरू,f=300
word=कर्नाटक,f=300
word=देशका,f=300
word=गूगल,f=300
word=दशै,f=300
word=वी,f=300
word=बन्ने,f=299
word=हुँ,f=299
word=रात,f=299
word=माओवादीको,f=298
word=आयुर्वेद,f=298
word=पराजुली,f=298
word=गुजरात,f=298
word=अवसरमा,f=298
word=कस्तो,f=298
word=नजीक,f=298
word=मह,f=298
word=अमेरिकाको,f=297
word=ओलम्पिक,f=297
word=रेग्मी,f=297
word=प्रमाण,f=297
word=च्यानल,f=297
word=कुमारी,f=297
word=आदरणीय,f=297
word=वहाँ,f=297
word=माग,f=297
word=आउन,f=297
word=बार्सिलोना,f=296
word=हरूलाई,f=296
word=स्कुल,f=296
word=पार्न,f=296
word=न्याय,f=296
word=घण्टा,f=296
word=मासु,f=296
word=जसो,f=296
word=विक्रमी,f=295
word=स्थायी,f=295
word=सीमित,f=295
word=सचिव,f=295
word=धारणा,f=294
word=चीनको,f=294
word=साउन,f=294
word=भदौ,f=294
word=कमी,f=294
word=जिल्लाहरु,f=293
word=समुदायले,f=293
word=निमित्त,f=293
word=अगाथा,f=293
word=प्रब,f=293
word=पि,f=293
word=दुइपल्ट,f=292
word=गुणस्तर,f=292
word=हनुमान,f=292
word=तरकारी,f=292
word=सुनेर,f=292
word=उपत्यकाको,f=291
word=प्रज्ञा,f=291
word=शामिल,f=291
word=युगमा,f=291
word=मैदान,f=291
word=भगत,f=291
word=रा,f=291
word=विधानसभामा,f=290
word=सम्मानित,f=290
word=तालिका,f=290
word=क्रिया,f=290
word=मीटर,f=290
word=रुप,f=290
word=बम,f=290
word=प्रतियोगिताको,f=289
word=सहभागिता,f=289
word=मुस्लिम,f=289
word=जेम्स,f=289
word=त्यसैगरी,f=288
word=व्याकरण,f=288
word=कश्मीर,f=288
word=किसान,f=288
word=आमाको,f=288
word=भनाई,f=288
word=प्रसिद्धि,f=287
word=ज्ञानबाकस,f=287
word=प्रगति,f=287
word=द्धारा,f=287
word=त्यसका,f=287
word=जातीय,f=287
word=क्ष,f=287
word=इङ्गल्याण्ड,f=286
word=गरिन्थ्यो,f=286
word=मन्त्र,f=286
word=दुर्गा,f=286
word=आन्ध्र,f=286
word=भनेका,f=286
word=फागुन,f=286
word=उपाय,f=286
word=फ,f=286
word=मध्यपश्चिमाञ्चल,f=285
word=अफगानिस्तान,f=285
word=राष्ट्रको,f=285
word=भइसकेको,f=285
word=साँचा,f=285
word=भनिने,f=285
word=चालु,f=285
word=बस,f=285
word=बुझिन्छ,f=284
word=ख्यामा,f=284
word=सबैले,f=284
word=हटाई,f=284
word=तथ्य,f=284
word=ऊर्जा,f=283
word=यज्ञ,f=283
word=एवम्,f=283
word=मुख,f=283
word=टु,f=283
word=खस,f=283
word=महिलाहरू,f=282
word=हुनसक्छ,f=282
word=टेलिफोन,f=282
word=औपचारिक,f=282
word=पालन,f=282
word=कर्म,f=282
word=मान,f=282
word=घीय,f=282
word=रुपन्देही,f=281
word=मुस्ताङ,f=281
word=शिर्षक,f=281
word=दिइन्छ,f=281
word=शासक,f=281
word=एकता,f=281
word=आक,f=281
word=राजस्व,f=280
word=बमोजिम,f=280
word=हवाई,f=280
word=किया,f=280
word=आषाढ,f=280
word=सरल,f=280
word=पनी,f=280
word=हु,f=280
word=सन्दर्भमा,f=279
word=अत्यधिक,f=279
word=परमाणु,f=279
word=नदीहरू,f=279
word=अभिलेख,f=279
word=पारेर,f=279
word=जसबाट,f=279
word=नभई,f=279
word=गी,f=279
word=प्रकाशनका,f=278
word=मुद्रा,f=278
word=गायिका,f=278
word=सक्दछ,f=278
word=द्वीप,f=278
word=दाहाल,f=278
word=इलाका,f=278
word=इटाली,f=278
word=भाले,f=278
word=चेक,f=278
word=फर,f=278
word=वन्यजन्तु,f=277
word=जलविद्युत,f=277
word=वर्गीकरण,f=277
word=मुख्यत,f=277
word=फिर्ता,f=277
word=पाएको,f=277
word=महेश,f=277
word=डलर,f=277
word=विकिपरियोजना,f=276
word=श्रीमती,f=276
word=राम्रा,f=276
word=कुकुर,f=276
word=भाई,f=276
word=कूल,f=276
word=लेखेका,f=275
word=पदमा,f=275
word=स्त,f=275
word=रु,f=275
word=समर्थनको,f=274
word=रासायनिक,f=274
word=सम्मेलन,f=274
word=तिब्बती,f=274
word=उन्मुख,f=274
word=होली,f=274
word=लागे,f=274
word=लण्डन,f=273
word=लक्ष्मीप्रसाद,f=272
word=कविताहरू,f=272
word=उनीहरूले,f=272
word=वुलेटिन,f=272
word=मित्र,f=272
word=घरको,f=272
word=लघु,f=272
word=कदर,f=272
word=उत्पादक,f=271
word=वेस्ट,f=271
word=रनले,f=271
word=नामा,f=271
word=सके,f=271
word=पदक,f=271
word=हावापानी,f=270
word=उपाध्याय,f=270
word=हुनुभयो,f=270
word=प्रेरित,f=270
word=मिश्र,f=270
word=प्रकट,f=270
word=चम्चा,f=270
word=रुचि,f=270
word=कु,f=270
word=गरिरहेका,f=269
word=सशस्त्र,f=269
word=लिम्बु,f=269
word=तिमा,f=269
word=कपडा,f=269
word=कडा,f=269
word=दस,f=269
word=महिलाको,f=268
word=फाल्गुण,f=268
word=कमन्समा,f=268
word=तर्राष्ट्रीय,f=267
word=जानकारीका,f=267
word=टिप्पणी,f=267
word=सुब्बा,f=267
word=उपनाम,f=267
word=उत्तम,f=267
word=राजेन्द्र,f=266
word=धवलागिरी,f=266
word=लेखिएका,f=266
word=महात्मा,f=266
word=प्रशासक,f=266
word=एघारौ,f=266
word=घर्ष,f=266
word=नम,f=266
word=प्रतिक्रिया,f=265
word=सम्पत्ति,f=265
word=हुदैन,f=265
word=सम्भव,f=265
word=डाँडा,f=265
word=अमर,f=265
word=स्रोतहरू,f=264
word=अत्यन्तै,f=264
word=हिसाबले,f=264
word=सल्लाह,f=264
word=लिइन्छ,f=264
word=नक्सा,f=264
word=पैसा,f=264
word=बनी,f=264
word=वित्तीय,f=263
word=कोलकाता,f=263
word=हुन्छन,f=263
word=विलियम,f=263
word=जनताले,f=263
word=भन्नु,f=263
word=बसेका,f=263
word=त्यहि,f=263
word=टाउको,f=263
word=मौसम,f=263
word=चिसो,f=263
word=शको,f=263
word=व्यापारिक,f=262
word=डडेलधुरा,f=262
word=वैधानिक,f=262
word=ज्योतिष,f=262
word=जान्छन्,f=262
word=कुराको,f=262
word=विवाद,f=262
word=यसैले,f=262
word=तारिक,f=262
word=तसर्थ,f=262
word=ग्रहालय,f=261
word=काममा,f=261
word=पित,f=261
word=ज्याक,f=260
word=गणित,f=260
word=खनाल,f=260
word=रुख,f=260
word=मकै,f=260
word=बार्नस्टार,f=259
word=हुनुपर्ने,f=259
word=कुराहरू,f=259
word=बस्ती,f=259
word=नजीकै,f=259
word=रोमन,f=259
word=शनि,f=259
word=मनोरञ्जनात्मक,f=258
word=नियुक्त,f=258
word=पुग्ने,f=258
word=त्यसले,f=258
word=ज्वरो,f=258
word=सीता,f=258
word=नष्ट,f=258
word=इराक,f=258
word=प्रतिनिधि,f=257
word=शताब्दी,f=257
word=विकासका,f=257
word=नक्षत्र,f=257
word=माध्यम,f=257
word=ख्याको,f=257
word=सुख,f=257
word=भी,f=257
word=प्रजातन्त्र,f=256
word=शास्त्रीय,f=256
word=दिनुहोला,f=256
word=गरिरहेको,f=256
word=अस्तित्व,f=256
word=भनाइ,f=256
word=पढ्न,f=256
word=नजिक,f=256
word=जमीन,f=256
word=खर्च,f=256
word=रथ,f=256
word=यु,f=256
word=अहिलेसम्म,f=255
word=अवस्थिति,f=255
word=त्यस्ता,f=255
word=खासगरी,f=255
word=लगानी,f=255
word=मूल्य,f=255
word=मध्यम,f=255
word=थिएँ,f=255
word=सोभियत,f=254
word=सूचीमा,f=254
word=उपयोगी,f=254
word=शिखर,f=254
word=सुन,f=254
word=त्वमा,f=253
word=चिया,f=253
word=औषधि,f=253
word=रकम,f=253
word=जेल,f=253
word=सु,f=253
word=क्यालिफोर्निया,f=252
word=राज्यहरू,f=252
word=विभाजित,f=252
word=पोथ्रा,f=252
word=प्रश,f=252
word=जोड,f=252
word=सम्पादनहरू,f=251
word=हटाउने,f=251
word=स्टेफन,f=251
word=शहरको,f=251
word=एल्बम,f=251
word=पर्न,f=251
word=काठ,f=251
word=देउराली,f=250
word=विगतमा,f=250
word=साँखर,f=250
word=बिजयी,f=250
word=तीर्थ,f=250
word=बाली,f=250
word=पशु,f=250
word=स्थानहरूमा,f=249
word=बढाउनुका,f=249
word=अनिवार्य,f=249
word=ग्रामीण,f=249
word=बस्नेत,f=249
word=ज्योति,f=249
word=लगाउन,f=249
word=इस,f=249
word=पात्रहरू,f=248
word=निर्धारण,f=248
word=अनुवादित,f=248
word=तालहरू,f=248
word=सकेन,f=248
word=अन्त,f=248
word=बलि,f=248
word=द्वितीय,f=247
word=लाग्दछ,f=247
word=दुल्लु,f=247
word=तत्त्व,f=247
word=प्रेस,f=247
word=बराल,f=247
word=पेज,f=247
word=बर,f=247
word=सम्पादनथन,f=246
word=परीक्षण,f=246
word=लगातार,f=246
word=लक्ष्य,f=246
word=बसोवास,f=246
word=टेरियर,f=246
word=शहीद,f=246
word=भएकी,f=246
word=पन्त,f=246
word=गुठी,f=246
word=जित,f=246
word=जाब,f=246
word=अमेरिकामा,f=245
word=निर्देशन,f=245
word=मैथिली,f=245
word=मुद्दा,f=245
word=छुट्टै,f=245
word=पुजा,f=245
word=जसका,f=245
word=नभए,f=245
word=मिलाउदै,f=244
word=प्रशस्त,f=244
word=लेखनाथ,f=244
word=मोबाइल,f=244
word=खण्डमा,f=244
word=भक्ति,f=244
word=मनाङ,f=244
word=धारण,f=244
word=त्र,f=244
word=यू,f=244
word=शुभकामनाले,f=243
word=शक्तिशाली,f=243
word=प्रमाणित,f=243
word=राज्यका,f=243
word=गाउँको,f=243
word=कल्पना,f=243
word=शुक्र,f=243
word=थारू,f=243
word=गोली,f=243
word=पु,f=243
word=उपत्यकामा,f=242
word=औद्योगिक,f=242
word=पार्ने,f=242
word=स्पेन,f=242
word=शहरमा,f=242
word=बच्चा,f=242
word=पद्म,f=242
word=सफा,f=242
word=शिक्षाको,f=241
word=सदस्यता,f=241
word=वाणिज्य,f=241
word=हेक्टर,f=241
word=सम्ममा,f=241
word=यन्त्र,f=241
word=प्रतीक,f=241
word=बढ्दै,f=241
word=मेरी,f=241
word=एफसी,f=241
word=आगो,f=241
word=मेटाउनु,f=240
word=तापक्रम,f=240
word=सभ्यता,f=240
word=लागेका,f=240
word=डोल्पा,f=240
word=तापनि,f=240
word=यसो,f=240
word=इन्जिनियरिङ,f=239
word=व्यावसायिक,f=239
word=व्यक्तिले,f=239
word=आन्दोलनमा,f=239
word=लेखहरूको,f=239
word=पूर्वीय,f=239
word=मैनाली,f=239
word=थालेको,f=239
word=एप्रिल,f=239
word=छोडेर,f=239
word=हाते,f=239
word=आर्य,f=239
word=अर्थतन्त्रहरू,f=238
word=क्यान्सर,f=238
word=उपस्थिति,f=238
word=अन्तरिम,f=238
word=परिणत,f=238
word=जैविक,f=238
word=खालको,f=238
word=विधा,f=238
word=लेखा,f=238
word=विश्वेश्वरप्रसाद,f=237
word=मानिसहरूको,f=237
word=पुस्तकहरू,f=237
word=कार्यकारी,f=237
word=यिनीहरू,f=237
word=लम्बाई,f=237
word=पुष्टि,f=237
word=नगरको,f=237
word=मोहन,f=237
word=सहज,f=237
word=विकिपिडियालाई,f=236
word=जनआन्दोलन,f=236
word=अफ्रिकाका,f=236
word=प्रयोगमा,f=236
word=कार्यलाई,f=236
word=विकेटले,f=236
word=महत्त्व,f=236
word=आकारको,f=236
word=इच्छा,f=236
word=सँगै,f=236
word=तमिल,f=236
word=क्षी,f=236
word=बे,f=236
word=न्,f=236
word=प्रतियोगितामा,f=235
word=सदस्यहरू,f=235
word=मनाइने,f=235
word=जनजाति,f=235
word=मिल्छ,f=235
word=डर,f=235
word=प्रयोगकर्ताहरू,f=234
word=लिङ्कहरु,f=234
word=शाश्वत,f=234
word=पुगेका,f=234
word=खुट्टा,f=234
word=बहिनी,f=234
word=काली,f=234
word=भइ,f=234
word=क्रान्तिकारी,f=233
word=वायु,f=233
word=कथास,f=233
word=झै,f=233
word=प्रणालीको,f=232
word=रसायनिक,f=232
word=मेडिकल,f=232
word=थ्वीको,f=232
word=तुल्सी,f=232
word=कालिका,f=232
word=शमशेर,f=232
word=गरिन्,f=232
word=भैरव,f=232
word=करीब,f=232
word=बजे,f=232
word=थे,f=232
word=ब्यक्तिहरू,f=231
word=हैदराबाद,f=231
word=युरोपेली,f=231
word=रमाइलो,f=231
word=बोलिने,f=231
word=गर्नमा,f=231
word=सफलता,f=231
word=गोपाल,f=231
word=टापू,f=231
word=मठ,f=231
word=व्यक्तित्वहरू,f=230
word=रक्षित,f=230
word=पाँचौ,f=230
word=दुइटै,f=230
word=जोडेर,f=230
word=अपराध,f=230
word=मनमा,f=230
word=विकिपिडियाको,f=229
word=स्थानको,f=229
word=परीक्षा,f=229
word=गर्दछौ,f=229
word=हाइफा,f=229
word=भूभाग,f=229
word=आवेदनहरू,f=228
word=व्यवहार,f=228
word=बनाउनको,f=228
word=हरूले,f=228
word=होटल,f=228
word=जात,f=228
word=अनुप्रेषणलाई,f=227
word=राष्ट्रियता,f=227
word=फ्रान्सेली,f=227
word=शताब्दीमा,f=227
word=देखिन्छन्,f=227
word=प्रदेशको,f=227
word=गोदावरी,f=227
word=उपस्थित,f=227
word=दुइवटा,f=227
word=लिएका,f=227
word=निको,f=227
word=जर्ज,f=227
word=आकाश,f=227
word=यहि,f=227
word=कित,f=227
word=सक्रियताको,f=226
word=क्रिकेटमा,f=226
word=बाह्यलि,f=226
word=पुरालेख,f=226
word=ज्ञानको,f=226
word=ष्ठहरु,f=226
word=विकल्प,f=226
word=सारमा,f=226
word=शिकार,f=226
word=बायाँ,f=226
word=गर्छु,f=226
word=घाट,f=226
word=वर्गिकरण,f=225
word=एतिहासिक,f=225
word=मिश्रित,f=225
word=महाकवि,f=225
word=अभिनित,f=225
word=कमजोर,f=225
word=छिटो,f=225
word=थाह,f=225
word=तमा,f=225
word=लो,f=225
word=परिसम्पत्ति,f=224
word=प्रभावकारी,f=224
word=साक्षरता,f=224
word=खुवासभा,f=224
word=किनारमा,f=224
word=सम्राट,f=224
word=लिम्बू,f=224
word=बेलुका,f=224
word=आयोजित,f=224
word=सिरहा,f=224
word=धाम,f=224
word=वर,f=224
word=अधिकारहरुको,f=223
word=ड्यनिएल्ले,f=223
word=समुदायमा,f=223
word=पार्टीका,f=223
word=विषयहरू,f=223
word=तुलनामा,f=223
word=गर्दछौँ,f=223
word=शिक्षक,f=223
word=किराँत,f=223
word=उदेश्य,f=223
word=माथी,f=223
word=गिरी,f=223
word=गएका,f=223
word=अर्थतन्त्रहरूस,f=222
word=इन्टरनेसनल,f=222
word=राख्दछौँ,f=222
word=क्यानाडा,f=222
word=पराजित,f=222
word=निर्भर,f=222
word=तेश्रो,f=222
word=जातिका,f=222
word=माघे,f=222
word=गे,f=222
word=टक्र्याउन,f=221
word=काँग्रेस,f=221
word=मानिने,f=221
word=बोकेको,f=221
word=सिद्ध,f=221
word=ष्ठता,f=221
word=नदीमा,f=221
word=टर्की,f=221
word=गली,f=221
word=न्युजिल्यान्ड,f=220
word=वर्षसम्म,f=220
word=भइसकेका,f=220
word=पर्वहरू,f=220
word=शिकारी,f=220
word=पुरै,f=220
word=राजनीतिज्ञ,f=219
word=जीवनशैली,f=219
word=कुनैपनि,f=219
word=मिल्ने,f=219
word=स्टार,f=219
word=सन्धि,f=219
word=नेशनल,f=219
word=टापु,f=219
word=गुरू,f=219
word=कठिन,f=219
word=माझ,f=219
word=महानगरपालिका,f=218
word=पुरातात्विक,f=218
word=शक्तिपीठ,f=218
word=स्थाहरू,f=218
word=महासागर,f=218
word=दुख्ने,f=218
word=कब्जा,f=218
word=बुढा,f=218
word=सेन,f=218
word=सङ्खुवासभा,f=217
word=गोरखापत्र,f=217
word=प्रतिभा,f=217
word=जानिन्छ,f=217
word=चाडपर्व,f=217
word=ठाउँको,f=217
word=फाइदा,f=217
word=नवराज,f=217
word=लिनु,f=217
word=बैक,f=217
word=प्र,f=217
word=तिन,f=217
word=राजकुमार,f=216
word=युनाइटेड,f=216
word=विकासमा,f=216
word=जनवादी,f=216
word=चिनिने,f=216
word=गम्भीर,f=216
word=बुझ्न,f=216
word=ईश्वर,f=216
word=हुनत,f=216
word=श्रम,f=216
word=टावर,f=216
word=जनरल,f=216
word=खैरो,f=216
word=अन्तरिक्ष,f=215
word=वाराणसी,f=215
word=इत्यादि,f=215
word=बित्ने,f=215
word=छिमेकी,f=215
word=अवलोकन,f=215
word=हालेर,f=215
word=रसुवा,f=215
word=म्यान,f=215
word=मसँग,f=215
word=दिशा,f=215
word=केसी,f=215
word=परिक्रमा,f=214
word=महासचिव,f=214
word=दिनसम्म,f=214
word=परिकार,f=214
word=हजारौ,f=214
word=शुल्क,f=214
word=मकर,f=214
word=गमा,f=214
word=प्रशान्त,f=213
word=आधिकारीक,f=213
word=वर्गको,f=213
word=पाण्डव,f=213
word=इस्लाम,f=213
word=गहिरो,f=213
word=यता,f=213
word=आफु,f=213
word=साहित्यकारहरू,f=212
word=कार्यक्रमहरू,f=212
word=अर्जेन्टिना,f=212
word=उद्देश्यले,f=212
word=शहरहरुको,f=212
word=प्रश्नको,f=212
word=परन्तु,f=212
word=अन्तमा,f=212
word=बलियो,f=212
word=पक्कै,f=212
word=अदालत,f=212
word=अक्षा,f=212
word=फ्रा,f=212
word=नाता,f=212
word=तिका,f=212
word=उनकी,f=212
word=सामाग्रीरू,f=211
word=फैलाउन,f=211
word=सहमति,f=211
word=सजिलै,f=211
word=बढेको,f=211
word=गाली,f=211
word=पेट,f=211
word=हल,f=211
word=सब,f=211
word=सञ्चालित,f=210
word=मानिसले,f=210
word=मह्कुमा,f=210
word=हतियार,f=210
word=यसैगरी,f=210
word=कसैलाई,f=210
word=फारसी,f=210
word=झण्डा,f=210
word=पटना,f=210
word=रामचरितमानस,f=209
word=विश्वकर्मा,f=209
word=मानिन्छन्,f=209
word=त्यसबेला,f=209
word=सिफारिस,f=209
word=सम्झौता,f=209
word=पर्यटक,f=209
word=तपस्या,f=209
word=पछाडी,f=209
word=ष्य,f=209
word=शिक,f=209
word=पास,f=209
word=एयर,f=209
word=कार्यक्रमको,f=208
word=प्राथमिकता,f=208
word=उत्तराखण्ड,f=208
word=भानुभक्त,f=208
word=व्यवसाय,f=208
word=विद्या,f=208
word=तुलसी,f=208
word=कानुन,f=208
word=नगरी,f=208
word=कल्प,f=208
word=उहाँका,f=207
word=स्मरण,f=207
word=किनकी,f=207
word=रक्त,f=207
word=प्रस,f=207
word=चक्र,f=207
word=जैन,f=207
word=केन्द्रित,f=206
word=देशहरूमा,f=206
word=परिभाषा,f=206
word=देवताको,f=206
word=नसक्ने,f=206
word=पुग्छ,f=206
word=निकाय,f=206
word=यिनै,f=206
word=अन्न,f=206
word=वेब,f=206
word=हुम्ला,f=205
word=बर्षको,f=205
word=इजरायल,f=205
word=बाहुन,f=205
word=निवास,f=205
word=घनत्व,f=205
word=लिया,f=205
word=तलका,f=205
word=आदेश,f=205
word=अङ्ग,f=205
word=वाट,f=205
word=खडा,f=205
word=एच,f=205
word=बताउनुहुन्छ,f=204
word=जन्मिएका,f=204
word=भिटामिन,f=204
word=स्तरीय,f=204
word=स्तरमा,f=204
word=डिभिजन,f=204
word=किल्ला,f=204
word=सहरमा,f=204
word=वसन्त,f=204
word=मनोरम,f=204
word=भर्ना,f=204
word=कामना,f=204
word=जानु,f=204
word=खुसी,f=204
word=किरण,f=204
word=बुध,f=204
word=झा,f=204
word=ज्ञानेन्द्र,f=203
word=कार्यहरू,f=203
word=एकादशीको,f=203
word=सुवेदी,f=203
word=पिताको,f=203
word=सारको,f=203
word=फाइनल,f=203
word=खेल्न,f=203
word=पोथी,f=203
word=अशोक,f=203
word=वाद,f=203
word=बाघ,f=203
word=द्र,f=203
word=द्ध,f=203
word=गित,f=203
word=आकर्षण,f=202
word=साउदी,f=202
word=ग्रेट,f=202
word=सह,f=202
word=राष्ट्रस,f=201
word=जडीबुटी,f=201
word=सतहबाट,f=201
word=प्रहार,f=201
word=चित्रण,f=201
word=मोडेल,f=201
word=भेगमा,f=201
word=तिहार,f=201
word=चाँडै,f=201
word=भारी,f=201
word=दार्शनिक,f=200
word=महाराज,f=200
word=सारका,f=200
word=पर्यो,f=200
word=गीति,f=200
word=गहना,f=200
word=कामी,f=200
word=स्व,f=200
word=सतह,f=200
word=कान,f=200
word=कडी,f=200
word=किलोमीटर,f=199
word=युद्धको,f=199
word=पञ्चायत,f=199
word=सिड्नी,f=199
word=बोल्ने,f=199
word=लेखेर,f=199
word=ज्यान,f=199
word=एकदमै,f=199
word=आपसमा,f=199
word=सपना,f=199
word=गरौँ,f=199
word=अवधी,f=199
word=विक,f=199
word=मानिसहरूले,f=198
word=गर्नुपर्दछ,f=198
word=इलाहाबाद,f=198
word=कुरालाई,f=198
word=हुँदैछ,f=198
word=पद्धति,f=198
word=रियल,f=198
word=ब्लग,f=198
word=फाइल,f=198
word=हाे,f=198
word=पेश,f=198
word=नुन,f=198
word=उपत्यकाका,f=197
word=हुनुभएको,f=197
word=जाँच्दै,f=197
word=बनाइने,f=197
word=सक्षम,f=197
word=नतिजा,f=197
word=अन्तर,f=197
word=भक्त,f=197
word=पति,f=197
word=दुध,f=197
word=आयु,f=197
word=पो,f=197
word=खा,f=197
word=सुनिश्चित,f=196
word=स्मारक,f=196
word=बिक्रम,f=196
word=सातौ,f=196
word=राखे,f=196
word=दाजु,f=196
word=लाल,f=196
word=भाव,f=196
word=क्रिस्टीका,f=195
word=साहित्यका,f=195
word=ल्याटिन,f=195
word=कालीकोट,f=195
word=एकमात्र,f=195
word=कथाहरू,f=195
word=आकर्षक,f=195
word=मुगु,f=195
word=बाबा,f=195
word=टीम,f=195
word=गत,f=195
word=गरिदिनुहुन,f=194
word=नेटवर्क,f=194
word=इण्डिया,f=194
word=हिमाचल,f=194
word=वर्गमा,f=194
word=पशुपति,f=194
word=कल्याण,f=194
word=रमणीय,f=194
word=आफुले,f=194
word=पैदा,f=194
word=टाइप,f=194
word=जरा,f=194
word=ओम,f=194
word=यूनाइटेड,f=193
word=क्याथरिन,f=193
word=श्रीराम,f=193
word=भूकम्प,f=193
word=वेल्स,f=193
word=आरक्ष,f=193
word=अर्का,f=193
word=हङकङ,f=193
word=योजक,f=193
word=जसरी,f=193
word=बसे,f=193
word=घका,f=193
word=भर,f=193
word=सुदूरपश्चिमाञ्चल,f=192
word=स्नातकोत्तर,f=192
word=लेखापरीक्षण,f=192
word=समितिहरूस,f=192
word=सेनाले,f=192
word=ओगटेको,f=192
word=ष्णले,f=192
word=पर्दा,f=192
word=धनगढी,f=192
word=लखनऊ,f=192
word=परेछ,f=192
word=निकट,f=192
word=नारी,f=192
word=त्री,f=192
word=अखिल,f=192
word=दशक,f=192
word=कमल,f=192
word=कदम,f=192
word=गम,f=192
word=पूर्वमन्त्री,f=191
word=माइक्रोसफ्ट,f=191
word=तिमीलाई,f=191
word=भुमिका,f=191
word=पर्‍यो,f=191
word=औचित्य,f=191
word=हमाल,f=191
word=लागु,f=191
word=योगी,f=191
word=धूलो,f=191
word=तौल,f=191
word=गोर्खाली,f=190
word=धन्यबाद,f=190
word=जनतालाई,f=190
word=इन्डिया,f=190
word=स्तम्भ,f=190
word=मारिया,f=190
word=पर्दैन,f=190
word=दिशामा,f=190
word=लाग्न,f=190
word=पुर्व,f=190
word=घाइते,f=190
word=आश्रम,f=190
word=मौका,f=190
word=माडी,f=190
word=विधानसभाको,f=189
word=प्रशिक्षण,f=189
word=कालिकोट,f=189
word=खेलेको,f=189
word=सर्प,f=189
word=आयात,f=189
word=ना,f=189
word=ग्रहहरू,f=188
word=यिनलाई,f=188
word=भीमसेन,f=188
word=पञ्जाब,f=188
word=उचाइमा,f=188
word=शारदा,f=188
word=महसुस,f=188
word=हाउस,f=188
word=गराए,f=188
word=बार,f=188
word=रक,f=188
word=भो,f=188
word=दो,f=188
word=बिस्तारै,f=187
word=रूपबाट,f=187
word=पण्डित,f=187
word=चाहिँ,f=187
word=खेलको,f=187
word=अनवरत,f=187
word=खोजी,f=187
word=टोल,f=187
word=मु,f=187
word=ष्णप्रसाद,f=186
word=सुरुङ्गा,f=186
word=विद्यमान,f=186
word=यसप्रकार,f=186
word=नेपाललाई,f=186
word=सुन्दरी,f=186
word=भूमिगत,f=186
word=कार्बन,f=186
word=शाक्य,f=186
word=पालना,f=186
word=बिहे,f=186
word=थपिए,f=186
word=उडान,f=186
word=भात,f=186
word=तय,f=186
word=यजुर्वेद,f=185
word=मनमुटाव,f=185
word=स्पेनी,f=185
word=ज्यादै,f=185
word=समिती,f=185
word=सभाको,f=185
word=सत्ता,f=185
word=झन्डै,f=185
word=टेलर,f=185
word=जाता,f=185
word=किलो,f=185
word=काजी,f=185
word=करने,f=185
word=व्यवस्थित,f=184
word=पेरियोडिक,f=184
word=धेरैजसो,f=184
word=गाविसका,f=184
word=व्रतको,f=184
word=वार्ड,f=184
word=बिचमा,f=184
word=रबिन,f=184
word=जाती,f=184
word=छाला,f=184
word=मनु,f=184
word=भेट,f=184
word=धित,f=184
word=धी,f=184
word=थ,f=184
word=पत्रकारिता,f=183
word=आउँछन्,f=183
word=अध्याय,f=183
word=सामान,f=183
word=सहरको,f=183
word=यसपछि,f=183
word=पहिरन,f=183
word=सोम,f=183
word=लाभ,f=183
word=गले,f=183
word=लभ,f=183
word=मार्क्सवादी,f=182
word=स्थितिमा,f=182
word=मानिसलाई,f=182
word=विधानमा,f=182
word=बाबुराम,f=182
word=कर्तव्य,f=182
word=जयन्ती,f=182
word=आश्विन,f=182
word=बोकेर,f=182
word=बीचको,f=182
word=नभएका,f=182
word=चेतना,f=182
word=किशोर,f=182
word=हटाइ,f=182
word=माला,f=182
word=नीलो,f=182
word=तिनै,f=182
word=घोडा,f=182
word=गीता,f=182
word=बगै,f=182
word=ही,f=182
word=इन्टरनेशनल,f=181
word=दिनकोलागि,f=181
word=इतिहासको,f=181
word=सम्बोधन,f=181
word=विन्डोज,f=181
word=बुद्धको,f=181
word=वाह्य,f=181
word=मराठी,f=181
word=जरुरी,f=181
word=अनेकौ,f=181
word=कोट,f=181
word=हत,f=181
word=ष,f=181
word=जन्मस्थान,f=180
word=पहिलोपटक,f=180
word=सफलताको,f=180
word=अधिकतम,f=180
word=भुटान,f=180
word=पारी,f=180
word=दिया,f=180
word=आसाम,f=180
word=रुस,f=180
word=दैन,f=180
word=बन,f=180
word=व्यक्तिहरू,f=179
word=प्रजातिका,f=179
word=अवार्डहरू,f=179
word=बसन्तपुर,f=179
word=विधानको,f=179
word=सङ्घीय,f=179
word=विषयको,f=179
word=मनोनयन,f=179
word=बाक्लो,f=179
word=पछाडि,f=179
word=कामको,f=179
word=दय,f=179
word=केन्द्रिय,f=178
word=उपाध्यक्ष,f=178
word=अन्तरविकी,f=178
word=पार्टीले,f=178
word=वर्षपछि,f=178
word=राखिन्छ,f=178
word=जुनसुकै,f=178
word=वर्षीय,f=178
word=चरित्र,f=178
word=कानूनी,f=178
word=भूटान,f=178
word=पाइला,f=178
word=आगरा,f=178
word=लिई,f=178
word=शा,f=178
word=मल,f=178
word=झ,f=178
word=अर्थशास्त्र,f=177
word=गोर्कीका,f=177
word=ल्याउने,f=177
word=राज्यले,f=177
word=पार्वती,f=177
word=अहिलेको,f=177
word=सङ्गठन,f=177
word=धर्ममा,f=177
word=धर्मका,f=177
word=तेलुगु,f=177
word=उठाउने,f=177
word=ष्णको,f=177
word=विजया,f=177
word=माइकल,f=177
word=प्रवर,f=177
word=खारेज,f=177
word=एकजना,f=177
word=रङ्ग,f=177
word=डेटा,f=177
word=अन,f=177
word=विश्वव्यापी,f=176
word=चलचित्रको,f=176
word=समुद्री,f=176
word=शक्तिको,f=176
word=फ्रेन्च,f=176
word=गाउँहरू,f=176
word=अफ्रीका,f=176
word=पक्षको,f=176
word=उचाईमा,f=176
word=शासित,f=176
word=जोखिम,f=176
word=चलेको,f=176
word=निलो,f=176
word=जाँच,f=176
word=करिव,f=176
word=एकदम,f=176
word=असफल,f=176
word=रेल,f=176
word=ध्र,f=176
word=चैत,f=176
word=कलम,f=176
word=विकिप्रयोगकर्ता,f=175
word=शताब्दीको,f=175
word=समुदायका,f=175
word=विकितथ्य,f=175
word=लक्ष्मण,f=175
word=यूरोपीय,f=175
word=समूहमा,f=175
word=हुलाक,f=175
word=पेरिस,f=175
word=पताका,f=175
word=चरणमा,f=175
word=निम्नलिखित,f=174
word=आध्यात्मिक,f=174
word=निर्धारित,f=174
word=सम्मिलित,f=174
word=हरियाणा,f=174
word=दिन्छन्,f=174
word=तपाइँको,f=174
word=आकर्षित,f=174
word=सेन्टर,f=174
word=लगाएको,f=174
word=पर्वको,f=174
word=चेन्नई,f=174
word=हल्का,f=174
word=दशमलव,f=174
word=छोरो,f=174
word=कही,f=174
word=उदय,f=174
word=आलु,f=174
word=इङ्गल्यान्ड,f=173
word=सन्दर्भहरू,f=173
word=सर्वोत्क,f=173
word=प्रयुक्त,f=173
word=सोध्ने,f=173
word=शब्दले,f=173
word=नेवारी,f=173
word=नामकरण,f=173
word=गुम्बा,f=173
word=इन्द्र,f=173
word=विकेट,f=173
word=मान्न,f=173
word=पछिको,f=173
word=क्षति,f=173
word=आफ्नी,f=173
word=आत्मा,f=173
word=अग्नि,f=173
word=पैदल,f=173
word=नायक,f=173
word=जटिल,f=173
word=माई,f=173
word=निर,f=173
word=अली,f=173
word=विजेताहरू,f=172
word=एनिमर्फ्स,f=172
word=विविधता,f=172
word=मोहम्मद,f=172
word=हिस्सा,f=172
word=वरिपरि,f=172
word=ठाँउमा,f=172
word=सनातन,f=172
word=श्लोक,f=172
word=चलाउन,f=172
word=गर्मी,f=172
word=निगम,f=172
word=दशमी,f=172
word=प्रयोगकर्ताको,f=171
word=कार्यान्वयन,f=171
word=अन्त्यमा,f=171
word=भोजपुरी,f=171
word=रामपुर,f=171
word=बढाउने,f=171
word=शान्त,f=171
word=परिसर,f=171
word=गल्ती,f=171
word=गतिमा,f=171
word=अन्तत,f=171
word=गठित,f=171
word=पहे,f=171
word=गाउ,f=171
word=खल,f=171
word=सुदूरपश्चिम,f=170
word=लक्षणहरू,f=170
word=महाकाव्य,f=170
word=चिनियाँ,f=170
word=मिथिला,f=170
word=प्रताप,f=170
word=थिएनन्,f=170
word=हुन्न,f=170
word=हरुको,f=170
word=मुफ्त,f=170
word=गीतको,f=170
word=उर्जा,f=170
word=दक्ष,f=170
word=खाडी,f=170
word=कपूर,f=170
word=इन्च,f=170
word=मेल,f=170
word=लस,f=170
word=आत,f=170
word=ङ,f=170
word=नगरपालिकामा,f=169
word=सचिवालय,f=169
word=पाथीभरा,f=169
word=स्वर्ण,f=169
word=स्तरको,f=169
word=विरोधी,f=169
word=जित्ने,f=169
word=स्वाद,f=169
word=विष्ट,f=169
word=सहमत,f=169
word=बधाई,f=169
word=हरि,f=169
word=अहि,f=169
word=सक,f=169
word=क्षेत्रहरूमा,f=168
word=राख्नुहोस्,f=168
word=डडेल्धुरा,f=168
word=नागरिकता,f=168
word=ब्याटिङ,f=168
word=कलात्मक,f=168
word=अन्तरगत,f=168
word=गरीँदै,f=168
word=अर्थमा,f=168
word=तालको,f=168
word=जम्मू,f=168
word=चालित,f=168
word=क्रमण,f=168
word=राती,f=168
word=धातु,f=168
word=गरीब,f=168
word=क्रा,f=168
word=बरु,f=168
word=पाप,f=168
word=आउट,f=168
word=भिक्टोरिया,f=167
word=डेभलपमेण्ट,f=167
word=प्रार्थना,f=167
word=प्रकारले,f=167
word=पहिरनहरू,f=167
word=क्यानडा,f=167
word=कार्यको,f=167
word=बढाउनु,f=167
word=पर्वमा,f=167
word=विदेश,f=167
word=दिनेछ,f=167
word=ज्ञात,f=167
word=कन्या,f=167
word=उर्दू,f=167
word=मरिच,f=167
word=बुबा,f=167
word=अभाव,f=167
word=पुस,f=167
word=कको,f=167
word=भनिन्थ्यो,f=166
word=मनुष्य,f=166
word=पुस्ता,f=166
word=एकीकरण,f=166
word=सकेका,f=166
word=वित्त,f=166
word=मदिरा,f=166
word=ब्याज,f=166
word=तालिम,f=166
word=चालक,f=166
word=काङ्ग्रेस,f=165
word=मेक्सिको,f=165
word=पोर्चुगल,f=165
word=देशान्तर,f=165
word=निर्वाह,f=165
word=स्थाले,f=165
word=तत्काल,f=165
word=बाह्र,f=165
word=पुण्य,f=165
word=नेहरू,f=165
word=तैयार,f=165
word=झण्डै,f=165
word=जानकी,f=165
word=कन्नड,f=165
word=आबद्ध,f=165
word=आउनु,f=165
word=महल,f=165
word=अन्तर्गतको,f=164
word=एलेमेन्ट,f=164
word=हप्ताको,f=164
word=विद्रोह,f=164
word=पूजाआजा,f=164
word=कम्युटर,f=164
word=थालेका,f=164
word=गराएका,f=164
word=कन्काई,f=164
word=शाहको,f=164
word=यिनका,f=164
word=मजदुर,f=164
word=नजिकै,f=164
word=षिको,f=164
word=छैन्,f=164
word=गहुँ,f=164
word=चयन,f=164
word=ऐ,f=164
word=आन्दोलनको,f=163
word=वर्णमाला,f=163
word=मान्छेको,f=163
word=मानिसहरु,f=163
word=उपमहानगर,f=163
word=बिरुद्ध,f=163
word=नियमहरू,f=163
word=आधारभूत,f=163
word=सभासद्,f=163
word=वरिष्ठ,f=163
word=ल्याउन,f=163
word=भण्डार,f=163
word=बताएका,f=163
word=पारेको,f=163
word=यस्को,f=163
word=मुलुक,f=163
word=पुरूष,f=163
word=ग्यास,f=163
word=डिया,f=163
word=चीनी,f=163
word=लोप,f=163
word=सिम्प्सनस्,f=162
word=पारिवारिक,f=162
word=समर्पित,f=162
word=मानन्धर,f=162
word=हालैका,f=162
word=समुहको,f=162
word=मिलियन,f=162
word=भविष्य,f=162
word=प्रसार,f=162
word=पूर्वज,f=162
word=त्यहा,f=162
word=तयारी,f=162
word=छेउमा,f=162
word=आउँदा,f=162
word=खराब,f=162
word=बिच,f=162
word=हुनुपर्दछ,f=161
word=राख्नुहोस,f=161
word=महासन्धि,f=161
word=चन्द्रमा,f=161
word=घरपालुवा,f=161
word=शब्दहरू,f=161
word=मलेसिया,f=161
word=ख्यालाई,f=161
word=लेखिका,f=161
word=राखेका,f=161
word=बग्ने,f=161
word=पीडित,f=161
word=कसैको,f=161
word=इराकी,f=161
word=पायो,f=161
word=टीका,f=161
word=जहा,f=161
word=हर,f=161
word=यह,f=161
word=फिल्मोग्राफी,f=160
word=नेपालीहरूको,f=160
word=दार्जिलिङ,f=160
word=पञ्चायती,f=160
word=स्वीडेन,f=160
word=शैलीमा,f=160
word=निवासी,f=160
word=थ्वीमा,f=160
word=चलाउने,f=160
word=शिवको,f=160
word=कारका,f=160
word=एक्लै,f=160
word=अग्ला,f=160
word=फेला,f=160
word=पावन,f=160
word=न्यु,f=160
word=रोक,f=160
word=बाद,f=160
word=सौन्दर्य,f=159
word=प्रिमियर,f=159
word=न्यौपाने,f=159
word=हुन्थे,f=159
word=बिताउन,f=159
word=पञ्चमी,f=159
word=पक्राउ,f=159
word=दूरीमा,f=159
word=रुपले,f=159
word=रिजाल,f=159
word=हिता,f=159
word=विगत,f=159
word=लेखे,f=159
word=दलले,f=159
word=चामल,f=159
word=अङ्क,f=159
word=नोट,f=159
word=पप,f=159
word=डल,f=159
word=क्षेत्रबाट,f=158
word=साधारणतया,f=158
word=समस्याहरू,f=158
word=ग्रेजीमा,f=158
word=टेलीफोन,f=158
word=एजेण्डा,f=158
word=पेशागत,f=158
word=जलवायु,f=158
word=स्वयम,f=158
word=शङ्कर,f=158
word=लेखका,f=158
word=बिशेष,f=158
word=ढोका,f=158
word=कपाल,f=158
word=हाँ,f=158
word=सीर,f=158
word=मुख्यमन्त्री,f=157
word=अस्पतालमा,f=157
word=विक्सनरी,f=157
word=मेगाहर्ज,f=157
word=परिवारका,f=157
word=नरेन्द्र,f=157
word=रिपोर्ट,f=157
word=बनाइन्छ,f=157
word=नेपालकै,f=157
word=मिसाएर,f=157
word=बिक्री,f=157
word=प्रवाह,f=157
word=स्टिल,f=157
word=सामना,f=157
word=थिइन,f=157
word=गढी,f=157
word=दह,f=157
word=चल,f=157
word=‍,f=157
word=म्याड्रिड,f=156
word=देवकोटाका,f=156
word=विश्वकै,f=156
word=ब्रह्मा,f=156
word=तपाईँले,f=156
word=सहितको,f=156
word=मिल्दछ,f=156
word=टुक्रा,f=156
word=काभ्रे,f=156
word=स्टेट,f=156
word=बाध्य,f=156
word=फलफूल,f=156
word=पोष्ट,f=156
word=नमुना,f=156
word=औषधीय,f=156
word=हुदा,f=156
word=सन्त,f=156
word=दाना,f=156
word=उनकै,f=156
word=अरुण,f=156
word=सोच,f=156
word=याे,f=156
word=घले,f=156
word=पाकिस्तानको,f=155
word=सोध्नुहोला,f=155
word=सिद्धार्थ,f=155
word=शास्त्री,f=155
word=विष्णुको,f=155
word=नमस्कार्,f=155
word=तरिकाहरु,f=155
word=जनकपुरको,f=155
word=सूर्यको,f=155
word=सङ्ग्रह,f=155
word=मण्डेला,f=155
word=सिस्टम,f=155
word=सभापति,f=155
word=मस्जिद,f=155
word=बाटोमा,f=155
word=फिस्टो,f=155
word=यमुना,f=155
word=बनायो,f=155
word=पोस्ट,f=155
word=हावा,f=155
word=हाँस,f=155
word=काशी,f=155
word=आरोप,f=155
word=आठौ,f=155
word=वेवसाइट,f=154
word=परशुराम,f=154
word=जातीयता,f=154
word=जसमध्ये,f=154
word=कुराहरु,f=154
word=अध्यापन,f=154
word=विशेषत,f=154
word=रोज्यो,f=154
word=भारतिय,f=154
word=बनाइयो,f=154
word=तानसेन,f=154
word=हेरेर,f=154
word=हरूमा,f=154
word=समग्र,f=154
word=पाउनु,f=154
word=तालीम,f=154
word=रोटी,f=154
word=देखे,f=154
word=खुशी,f=154
word=अभिब,f=154
word=दाल,f=154
word=चाई,f=154
word=विश्वयुद्ध,f=153
word=धर्मग्रन्थ,f=153
word=लोकतन्त्र,f=153
word=स्टेशन,f=153
word=साँस्क,f=153
word=रोजेको,f=153
word=राखियो,f=153
word=युनियन,f=153
word=ब्रह्म,f=153
word=शाहले,f=153
word=कुवैत,f=153
word=काण्ड,f=153
word=हेतु,f=153
word=लियो,f=153
word=ठुला,f=153
word=चारै,f=153
word=अनुस,f=153
word=दास,f=153
word=मध्यवर्ती,f=152
word=पाश्चात्य,f=152
word=उनीहरूलाई,f=152
word=राजालाई,f=152
word=तपाइँले,f=152
word=ग्रेसका,f=152
word=समाजका,f=152
word=नगर्ने,f=152
word=हिन्द,f=152
word=सुन्न,f=152
word=सट्टा,f=152
word=कुरो,f=152
word=कर्ण,f=152
word=इरान,f=152
word=व्य,f=152
word=लखन,f=152
word=रवि,f=152
word=बास,f=152
word=हा,f=152
word=समितिले,f=151
word=समितिका,f=151
word=स्वरुप,f=151
word=शासनको,f=151
word=राजकीय,f=151
word=प्रकोप,f=151
word=अनुरूप,f=151
word=हप्ता,f=151
word=सार्क,f=151
word=ठकुरी,f=151
word=जयपुर,f=151
word=अपभ्र,f=151
word=मुटु,f=151
word=काला,f=151
word=आव,f=151
word=प्रजातिहरू,f=150
word=निर्माणको,f=150
word=रहन्छन्,f=150
word=यहाँबाट,f=150
word=स्थागत,f=150
word=पालामा,f=150
word=शीर्ष,f=150
word=चिह्न,f=150
word=गुप्त,f=150
word=सिसप,f=150
word=मनको,f=150
word=गराई,f=150
word=औजार,f=150
word=शतक,f=150
word=लग,f=150
word=प्रयोगकर्ताले,f=149
word=ष्टिकोणले,f=149
word=कोलम्बिया,f=149
word=प्रमण्डल,f=149
word=डेनमार्क,f=149
word=विद्वान,f=149
word=लगाएका,f=149
word=प्रतिक,f=149
word=एकिकरण,f=149
word=लागेर,f=149
word=रक्सी,f=149
word=बसन्त,f=149
word=माधव,f=149
word=तर्क,f=149
word=चिली,f=149
word=वे,f=149
word=रमाउनुहुनेछ,f=148
word=मान्नुहुनेछ,f=148
word=नेपालीभाषी,f=148
word=फलस्वरूप,f=148
word=महिलाले,f=148
word=बाजाहरू,f=148
word=जर्जिया,f=148
word=हरुलाई,f=148
word=स्काउट,f=148
word=बिरुवा,f=148
word=पर्खाल,f=148
word=त्यसरी,f=148
word=जोड्ने,f=148
word=गाह्रो,f=148
word=खिलाडी,f=148
word=इन्डिज,f=148
word=आयोगले,f=148
word=अज्ञात,f=148
word=स्थिर,f=148
word=रक्षक,f=148
word=प्रथा,f=148
word=पातको,f=148
word=अग्रप,f=148
word=लडाई,f=148
word=जोडी,f=148
word=गाढा,f=148
word=गाको,f=148
word=सान,f=148
word=ठोस,f=148
word=खाम,f=148
word=ठ,f=148
word=पूर्वाञ्चलका,f=147
word=दुर्घटना,f=147
word=सापकोटा,f=147
word=समयदेखि,f=147
word=गोरखपुर,f=147
word=अफ्रिकी,f=147
word=सेवामा,f=147
word=सम्शेर,f=147
word=यथार्थ,f=147
word=डाक्टर,f=147
word=टाइम्स,f=147
word=आराधना,f=147
word=मधेसी,f=147
word=मकालु,f=147
word=भन्यो,f=147
word=तुलना,f=147
word=तपाईँ,f=147
word=कुण्ड,f=147
word=आरोहण,f=147
word=लगाए,f=147
word=रामक,f=147
word=बताए,f=147
word=गये,f=147
word=कहा,f=147
word=एकड,f=147
word=ओर,f=147
word=्,f=147
word=स्थलहरूको,f=146
word=वर्षहरूमा,f=146
word=समुन्द्र,f=146
word=चलिरहेको,f=146
word=राजाहरू,f=146
word=मलेशिया,f=146
word=गणराज्य,f=146
word=सम्झना,f=146
word=तस्विर,f=146
word=विराट,f=146
word=मध्यप,f=146
word=दर्जा,f=146
word=गढवाल,f=146
word=आज्ञा,f=146
word=वनमा,f=146
word=पुरी,f=146
word=सवै,f=146
word=याद,f=146
word=काे,f=146
word=तो,f=146
word=च्याम्पियनसिप,f=145
word=बनाउनुहोस्,f=145
word=वीरेन्द्र,f=145
word=सभ्यताको,f=145
word=प्राप्ति,f=145
word=गतिविधि,f=145
word=सिनेमा,f=145
word=विपरीत,f=145
word=फूलको,f=145
word=धरोहर,f=145
word=ग्वेद,f=145
word=कथामा,f=145
word=शेयर,f=145
word=टोली,f=145
word=एकिक,f=145
word=आईएल,f=145
word=दमन,f=145
word=भय,f=145
word=अस,f=145
word=प्रतिवेदन,f=144
word=कम्पनीको,f=144
word=समकालीन,f=144
word=गर्नुका,f=144
word=कात्तिक,f=144
word=सेनामा,f=144
word=बिजुली,f=144
word=गरिदिए,f=144
word=गराएको,f=144
word=अनुहार,f=144
word=सम्बत,f=144
word=महान्,f=144
word=पट्टी,f=144
word=नामका,f=144
word=त्यसो,f=144
word=आर्यन,f=144
word=अलावा,f=144
word=सायद,f=144
word=बुवा,f=144
word=बन्छ,f=144
word=पीडा,f=144
word=थोमस,f=144
word=पतन,f=144
word=झन्,f=144
word=लै,f=144
word=फ्रिक्वेन्सी,f=143
word=प्राध्यापक,f=143
word=सकारात्मक,f=143
word=उपन्यासमा,f=143
word=बिराटनगर,f=143
word=बिहारका,f=143
word=पिपलकोट,f=143
word=गरिदिनु,f=143
word=पब्लिक,f=143
word=सोचको,f=143
word=पुगेर,f=143
word=नित्य,f=143
word=इटहरी,f=143
word=अवश्य,f=143
word=साइट,f=143
word=लागत,f=143
word=भूषण,f=143
word=छक्क,f=143
word=गाडी,f=143
word=कीरा,f=143
word=औषधी,f=143
word=होस,f=143
word=खी,f=143
word=धर्मावलम्बी,f=142
word=भूमिकामा,f=142
word=त्यहाँका,f=142
word=हिमालको,f=142
word=प्रतिमा,f=142
word=पश्चात्,f=142
word=गबहादुर,f=142
word=उप्रेती,f=142
word=पूस्तक,f=142
word=पर्छन्,f=142
word=त्युको,f=142
word=तिमीले,f=142
word=घाँटी,f=142
word=काठको,f=142
word=राति,f=142
word=कठोर,f=142
word=इस्ट,f=142
word=रेड,f=142
word=भोग,f=142
word=भरत,f=142
word=कोण,f=142
word=हौ,f=142
word=स्वतन्त्रताको,f=141
word=वीरेन्द्रनगर,f=141
word=बालबालिका,f=141
word=प्रचलनमा,f=141
word=प्रसन्न,f=141
word=हात्ती,f=141
word=सिपाही,f=141
word=चाडलाई,f=141
word=विहान,f=141
word=मालिक,f=141
word=पिण्ड,f=141
word=तथापि,f=141
word=रहनु,f=141
word=गौरी,f=141
word=अहमद,f=141
word=सदर,f=141
word=भजन,f=141
word=ओभल,f=141
word=अस्ट्रेलियाका,f=140
word=आयुर्वेदिक,f=140
word=निरन्तरता,f=140
word=विस्तारै,f=140
word=राजविराज,f=140
word=मान्दछन्,f=140
word=निर्देशा,f=140
word=वर्षका,f=140
word=ज्यादा,f=140
word=भाइरस,f=140
word=तीव्र,f=140
word=कनकाई,f=140
word=आस्था,f=140
word=हमला,f=140
word=सुपर,f=140
word=रुची,f=140
word=माइल,f=140
word=भएता,f=140
word=हको,f=140
word=शका,f=140
word=लेन,f=140
word=घाम,f=140
word=ओपन,f=140
word=प्रतिस्थापन,f=139
word=निर्वाचनको,f=139
word=वर्तमानमा,f=139
word=प्रान्तको,f=139
word=महादेवको,f=139
word=बताउँछन्,f=139
word=पुस्तकको,f=139
word=जगन्नाथ,f=139
word=तीनवटा,f=139
word=जनाउँछ,f=139
word=केन्या,f=139
word=बोर्ड,f=139
word=द्वार,f=139
word=कुँवर,f=139
word=लगाई,f=139
word=चाहे,f=139
word=काका,f=139
word=नाथ,f=139
word=उता,f=139
word=विश्वामित्र,f=138
word=थाइल्याण्ड,f=138
word=महिनापछि,f=138
word=खम्बाहरु,f=138
word=ष्ठभूमि,f=138
word=रहेकाले,f=138
word=धेरैलाई,f=138
word=थालिएको,f=138
word=हजुरको,f=138
word=सेवाको,f=138
word=राख्दा,f=138
word=युवराज,f=138
word=आलोचना,f=138
word=सहारा,f=138
word=विना,f=138
word=मधेश,f=138
word=भेला,f=138
word=घिउ,f=138
word=चौ,f=138
word=सम्पदालाई,f=137
word=राज्यनीति,f=137
word=पशुपतिनाथ,f=137
word=पढ्नुहोला,f=137
word=मुख्यतया,f=137
word=मार्टिन,f=137
word=चाहिन्छ,f=137
word=लिइएको,f=137
word=यूरोप,f=137
word=दीर्घ,f=137
word=जम्मु,f=137
word=पाठक,f=137
word=खतरा,f=137
word=केरल,f=137
word=कष्ट,f=137
word=मुल,f=137
word=आगन्तुकहरुले,f=136
word=महेन्द्रनगर,f=136
word=प्रभावशाली,f=136
word=रिपब्लिकन,f=136
word=उम्मेदवार,f=136
word=लेखहरूमा,f=136
word=युरोपियन,f=136
word=टेम्पलेट,f=136
word=भियतनाम,f=136
word=अघिल्लो,f=136
word=माताको,f=136
word=बन्दै,f=136
word=तर्गत,f=136
word=बढ्न,f=136
word=बक्स,f=136
word=तातो,f=136
word=जवाफ,f=136
word=परम,f=136
word=तरल,f=136
word=ख्य,f=136
word=विद्यालयले,f=135
word=आयरल्यान्ड,f=135
word=सुरुवाती,f=135
word=पुराणमा,f=135
word=नराम्रो,f=135
word=ग्रेसको,f=135
word=उपरोक्त,f=135
word=कुखुरा,f=135
word=रोगमा,f=135
word=अनन्त,f=135
word=उनमा,f=135
word=लेक,f=135
word=पहल,f=135
word=हर्षोल्लास,f=134
word=अभिव्यक्ति,f=134
word=सञ्चालनमा,f=134
word=महाभारतको,f=134
word=फिल्मफेयर,f=134
word=निर्माणमा,f=134
word=वैवाहिक,f=134
word=वर्णित,f=134
word=बिजेता,f=134
word=बन्चरो,f=134
word=तापमान,f=134
word=जितेको,f=134
word=एशियाई,f=134
word=उपग्रह,f=134
word=दौरान,f=134
word=चल्ने,f=134
word=गीतमा,f=134
word=उत्सव,f=134
word=आइफोन,f=134
word=अदुवा,f=134
word=मूलत,f=134
word=बाकस,f=134
word=दशरथ,f=134
word=अर्ध,f=134
word=ची,f=134
word=प्रयोगकर्तालाई,f=133
word=साम्राज्यको,f=133
word=वार्तालापमा,f=133
word=विद्यालयमा,f=133
word=जङ्गबहादुर,f=133
word=पठनपाठनको,f=133
word=त्यतिबेला,f=133
word=भोलिपल्ट,f=133
word=पिताम्बर,f=133
word=आविष्कार,f=133
word=गरेकाले,f=133
word=मोर्चा,f=133
word=खोलाको,f=133
word=अनलाइन,f=133
word=अग्रिम,f=133
word=हेनरी,f=133
word=सुनको,f=133
word=थाल्छ,f=133
word=खालका,f=133
word=किनकि,f=133
word=चुरे,f=133
word=नाश,f=133
word=दिई,f=133
word=तको,f=133
word=प्रतिश्पर्धा,f=132
word=भ्रष्टाचार,f=132
word=प्रस्तावित,f=132
word=हिन्दीबाट,f=132
word=वास्तुकला,f=132
word=रङ्गकर्मी,f=132
word=हनुमानको,f=132
word=शीर्षकमा,f=132
word=प्रदेशमा,f=132
word=परिभाषित,f=132
word=गरिसकेका,f=132
word=सारिएको,f=132
word=सहयोगमा,f=132
word=समितिमा,f=132
word=मैदानमा,f=132
word=मुसलमान,f=132
word=भाषाहरु,f=132
word=स्वस्थ,f=132
word=स्वर्ग,f=132
word=फेसबुक,f=132
word=असोजको,f=132
word=स्पेस,f=132
word=रेलवे,f=132
word=रहँदै,f=132
word=बढ्दो,f=132
word=त्याग,f=132
word=दाँत,f=132
word=खनिज,f=132
word=कोदो,f=132
word=खै,f=132
word=प्रौद्योगिकी,f=131
word=सरकारलाई,f=131
word=पहुँचलाई,f=131
word=आपूर्ति,f=131
word=अनियमित,f=131
word=हिमश्र,f=131
word=सुरुमा,f=131
word=मध्यको,f=131
word=जिम्मा,f=131
word=हाइकु,f=131
word=सक्छु,f=131
word=बढ्ने,f=131
word=पढ्ने,f=131
word=नमूना,f=131
word=ठाकुर,f=131
word=गाबिस,f=131
word=गठनको,f=131
word=साउथ,f=131
word=मुनि,f=131
word=पाएर,f=131
word=ताजा,f=131
word=आइत,f=131
word=कार्यकर्ता,f=130
word=कम्युनिस्ट,f=130
word=विकिबुक्स,f=130
word=लेखहरूलाई,f=130
word=प्रणालीमा,f=130
word=त्युस्थान,f=130
word=त्यहाँबाट,f=130
word=केन्द्रको,f=130
word=भगवानको,f=130
word=वैष्णव,f=130
word=लेखामा,f=130
word=भरिएको,f=130
word=बनाउँछ,f=130
word=प्रेमी,f=130
word=गिरिजा,f=130
word=जागरण,f=130
word=गाउने,f=130
word=क्रिस,f=130
word=बैठक,f=130
word=दीपक,f=130
word=ठूटो,f=130
word=खाएर,f=130
word=छिन,f=130
word=कथन,f=130
word=तक,f=130
word=उन,f=130
word=मानिसहरूलाई,f=129
word=प्रजातिको,f=129
word=जुवातासमा,f=129
word=उपन्यासको,f=129
word=नियुक्ति,f=129
word=उदाहरणको,f=129
word=इमिरेट्स,f=129
word=समीक्षा,f=129
word=मरुभूमि,f=129
word=बताइन्छ,f=129
word=धुलिखेल,f=129
word=अनुभूति,f=129
word=वेबपेज,f=129
word=राक्षस,f=129
word=मेटाउन,f=129
word=मार्सल,f=129
word=नेल्सन,f=129
word=आकारमा,f=129
word=वाहेक,f=129
word=भेन्स,f=129
word=दिव्य,f=129
word=स्तन,f=129
word=रावण,f=129
word=बिही,f=129
word=पदको,f=129
word=नारा,f=129
word=जुका,f=129
word=चर्च,f=129
word=कमला,f=129
word=गरौ,f=129
word=गका,f=129
word=गु,f=129
word=विश्वविद्यालयबाट,f=128
word=व्यक्तिहरूको,f=128
word=कुरुक्षेत्र,f=128
word=ब्रह्माण्ड,f=128
word=विज्ञानको,f=128
word=रूपान्तरण,f=128
word=निर्देशित,f=128
word=पर्यटकिय,f=128
word=भैरहेको,f=128
word=ब्ल्याक,f=128
word=नाटकहरू,f=128
word=अवधारणा,f=128
word=बिरामी,f=128
word=जीवनका,f=128
word=छोराको,f=128
word=सिमित,f=128
word=समक्ष,f=128
word=शावली,f=128
word=बनेपा,f=128
word=लुइस,f=128
word=रोचक,f=128
word=मापन,f=128
word=भोलि,f=128
word=बोली,f=128
word=थिईन,f=128
word=गिनी,f=128
word=साह,f=128
word=फुल,f=128
word=पेय,f=128
word=नाग,f=128
word=तीय,f=128
word=भव,f=128
word=थी,f=128
word=अप,f=128
word=सिक्किमको,f=127
word=शालिग्राम,f=127
word=परिवर्तित,f=127
word=सम्पुर्ण,f=127
word=भारद्वाज,f=127
word=त्रियुगा,f=127
word=जवाहरलाल,f=127
word=समपूर्ण,f=127
word=विचारमा,f=127
word=मतदानको,f=127
word=दरबारमा,f=127
word=कम्तिमा,f=127
word=दुरीमा,f=127
word=चिन्ता,f=127
word=गीतहरू,f=127
word=कानपुर,f=127
word=शिकाई,f=127
word=निदान,f=127
word=छात्र,f=127
word=कर्जा,f=127
word=हिउँ,f=127
word=रुसी,f=127
word=बाँध,f=127
word=पेरु,f=127
word=टाइम,f=127
word=जेठा,f=127
word=चिनी,f=127
word=घाउ,f=127
word=वध,f=127
word=विकिपिडियनहरूको,f=126
word=गर्नुहुन्छ,f=126
word=क्रान्तिको,f=126
word=प्राधिकरण,f=126
word=सिमानामा,f=126
word=श्रद्धा,f=126
word=राखिएका,f=126
word=चुनावमा,f=126
word=समुहले,f=126
word=मल्लले,f=126
word=बायर्न,f=126
word=पहुँच,f=126
word=कालका,f=126
word=हजुर,f=126
word=तटमा,f=126
word=यमन,f=126
word=भीम,f=126
word=भरी,f=126
word=बसी,f=126
word=राष्ट्रहरू,f=125
word=स्वामित्व,f=125
word=यिनीहरूको,f=125
word=औषधोपचार,f=125
word=अनुसारको,f=125
word=सदस्यको,f=125
word=वीरगञ्ज,f=125
word=लगाइएको,f=125
word=पुरुषको,f=125
word=गुजराती,f=125
word=ककासियन,f=125
word=पोस्टर,f=125
word=निवारण,f=125
word=तिनका,f=125
word=षिले,f=125
word=राना,f=125
word=दिदी,f=125
word=त्रि,f=125
word=अर्ब,f=125
word=भान,f=125
word=बेल,f=125
word=परी,f=125
word=ठिस,f=125
word=छाप,f=125
word=अन्तरराष्ट्रिय,f=124
word=अधिराज्यको,f=124
word=समाचारहरू,f=124
word=दार्जीलिङ,f=124
word=मनकामना,f=124
word=हेटौडा,f=124
word=मानवीय,f=124
word=तन्त्र,f=124
word=सक्छौ,f=124
word=बिष्ट,f=124
word=कथाको,f=124
word=रचित,f=124
word=गरिए,f=124
word=पाउ,f=124
word=दही,f=124
word=खेत,f=124
word=टन,f=124
word=ब्याट्सम्यान,f=123
word=नेदरल्याण्ड,f=123
word=जिम्बाब्वे,f=123
word=प्रशिद्ध,f=123
word=पञ्चाङ्ग,f=123
word=त्यहाँको,f=123
word=सुन्तला,f=123
word=सरकारका,f=123
word=विदेशमा,f=123
word=परिचालन,f=123
word=त्यसबाट,f=123
word=तोकिएको,f=123
word=समेटेर,f=123
word=समानता,f=123
word=राजाका,f=123
word=यात्री,f=123
word=प्रष्ट,f=123
word=दुर्लभ,f=123
word=अभावमा,f=123
word=सुचना,f=123
word=वाक्य,f=123
word=बनारस,f=123
word=दशकमा,f=123
word=काटेर,f=123
word=एप्पल,f=123
word=मानक,f=123
word=भालु,f=123
word=फलाम,f=123
word=चाहि,f=123
word=खासै,f=123
word=प्रवेशद्वार,f=122
word=नेपालगञ्ज,f=122
word=धारणाहरू,f=122
word=उनीहरुको,f=122
word=समायोजन,f=122
word=भैसकेको,f=122
word=भगवतीको,f=122
word=दायित्व,f=122
word=विगतका,f=122
word=मिलेको,f=122
word=मिडिया,f=122
word=मिटरको,f=122
word=हुनको,f=122
word=पारित,f=122
word=थालनी,f=122
word=सर्व,f=122
word=बाधा,f=122
word=मास,f=122
word=केप,f=122
word=यश,f=122
word=शास्त्रमा,f=121
word=केन्द्रमा,f=121
word=अभिनेताको,f=121
word=देवताहरू,f=121
word=साथसाथै,f=121
word=शब्दकोश,f=121
word=फ्याक्स,f=121
word=निस्कने,f=121
word=दर्शनको,f=121
word=स्थलको,f=121
word=माथिको,f=121
word=बुद्धि,f=121
word=बिरालो,f=121
word=प्रमूख,f=121
word=पर्दछन,f=121
word=धनञ्जय,f=121
word=थालियो,f=121
word=टोकियो,f=121
word=चट्टान,f=121
word=खेल्दै,f=121
word=हरुमा,f=121
word=स्टीन,f=121
word=विकाश,f=121
word=लेनिन,f=121
word=कालीन,f=121
word=बसाई,f=121
word=बजेट,f=121
word=घाँस,f=121
word=केटी,f=121
word=होम,f=121
word=महा,f=121
word=बिस,f=121
word=दिर,f=121
word=चोट,f=121
word=गला,f=121
word=डच,f=121
word=प्रक्रियामा,f=120
word=दार्जीलिङ्ग,f=120
word=वर्षहरूको,f=120
word=यातायातको,f=120
word=प्रशिक्षक,f=120
word=द्वन्द्व,f=120
word=सङ्घर्ष,f=120
word=रहेकोले,f=120
word=बाग्लुङ,f=120
word=बनाईएको,f=120
word=पारिजात,f=120
word=दलहरूको,f=120
word=उज्यालो,f=120
word=विरुवा,f=120
word=ल्याएर,f=120
word=लेख्दा,f=120
word=योद्धा,f=120
word=ब्रायन,f=120
word=त्रुटि,f=120
word=जमीनमा,f=120
word=खोजेको,f=120
word=दिइयो,f=120
word=गाईको,f=120
word=आर्ट,f=120
word=मुग,f=120
word=तेज,f=120
word=गिक,f=120
word=किम,f=120
word=स्वायत्त,f=119
word=अनावश्यक,f=119
word=वस्तुको,f=119
word=प्रयत्न,f=119
word=देखाउने,f=119
word=क्रिसमस,f=119
word=साइन्स,f=119
word=लागेमा,f=119
word=टिमहरू,f=119
word=चौतारा,f=119
word=गोत्री,f=119
word=सरदार,f=119
word=प्राण,f=119
word=पिसाब,f=119
word=आदिका,f=119
word=तहको,f=119
word=झारख,f=119
word=रूस,f=119
word=ताप,f=119
word=जाल,f=119
word=नो,f=119
word=कल,f=119
word=म्यानचेस्टर,f=118
word=लेनिनवादी,f=118
word=पत्रिकामा,f=118
word=दिनहरूमा,f=118
word=जर्मनीका,f=118
word=खुर्सानी,f=118
word=खानेकुरा,f=118
word=सहयोगको,f=118
word=दिनुहुन,f=118
word=गोविन्द,f=118
word=उत्तिकै,f=118
word=सकेनन्,f=118
word=मुर्ति,f=118
word=पाएपछि,f=118
word=दिनलाई,f=118
word=तिवारी,f=118
word=चैनपुर,f=118
word=चल्दैछ,f=118
word=गर्दैन,f=118
word=कोशिका,f=118
word=सवारी,f=118
word=यहूदी,f=118
word=मार्क,f=118
word=भीष्म,f=118
word=पपुवा,f=118
word=गालको,f=118
word=कालको,f=118
word=उडिसा,f=118
word=सुमन,f=118
word=शहरी,f=118
word=भव्य,f=118
word=द्रा,f=118
word=दोषी,f=118
word=डाटा,f=118
word=जाना,f=118
word=गौरव,f=118
word=क्र,f=118
word=मई,f=118
word=इण्डोनेशिया,f=117
word=पाकिस्तानी,f=117
word=सगरमाथाको,f=117
word=जनजातिहरू,f=117
word=हुनुहोस्,f=117
word=बङ्गालका,f=117
word=गान्धीको,f=117
word=सुनकोशी,f=117
word=ष्टिकोण,f=117
word=रचनाहरू,f=117
word=प्रशारण,f=117
word=दर्शनीय,f=117
word=सप्ताह,f=117
word=जर्जेट,f=117
word=तपाइँ,f=117
word=टेनिस,f=117
word=केदार,f=117
word=पढाई,f=117
word=गेरी,f=117
word=उसका,f=117
word=हाई,f=117
word=चोक,f=117
word=असल,f=117
word=ये,f=117
word=विश्वविद्यालयको,f=116
word=आश्चर्यहरू,f=116
word=विद्यापीठ,f=116
word=लामिछाने,f=116
word=लिच्छवि,f=116
word=न्यूनतम,f=116
word=निकोबार,f=116
word=जिन्दगी,f=116
word=चित्रमा,f=116
word=आफैँलाई,f=116
word=अक्सिजन,f=116
word=ष्टिको,f=116
word=वशिष्ठ,f=116
word=सशक्त,f=116
word=रिमाल,f=116
word=बन्दछ,f=116
word=गापुर,f=116
word=शिशु,f=116
word=थ्री,f=116
word=गुगल,f=116
word=कुशल,f=116
word=सिख,f=116
word=सदा,f=116
word=भोक,f=116
word=कमा,f=116
word=आप,f=116
word=बेल्जियम,f=115
word=चित्रहरू,f=115
word=उल्लेख्य,f=115
word=उदाहरणका,f=115
word=सुरूवात,f=115
word=शाब्दिक,f=115
word=हस्पति,f=115
word=सामयिक,f=115
word=दाहिने,f=115
word=गुराँस,f=115
word=कडिहरु,f=115
word=अविजित,f=115
word=अर्याल,f=115
word=बोल्न,f=115
word=बर्मा,f=115
word=फरवरी,f=115
word=रूसी,f=115
word=मिलन,f=115
word=कोठा,f=115
word=किरा,f=115
word=हित,f=115
word=बडी,f=115
word=त्त,f=115
word=चाल,f=115
word=गान,f=115
word=कडि,f=115
word=सैद्धान्तिक,f=114
word=भाषाहरूको,f=114
word=त्रैमासिक,f=114
word=नेपालीको,f=114
word=क्रिस्टी,f=114
word=किनारामा,f=114
word=ब्रिटेन,f=114
word=बहुदलीय,f=114
word=हजुरले,f=114
word=सेनाका,f=114
word=सुगौली,f=114
word=सम्मका,f=114
word=भारतले,f=114
word=नगरकोट,f=114
word=देखाउन,f=114
word=आँखाको,f=114
word=बनावट,f=114
word=चौडाई,f=114
word=चित्त,f=114
word=हेटौ,f=114
word=सकिन,f=114
word=लिगा,f=114
word=भइन्,f=114
word=देवल,f=114
word=छैठौ,f=114
word=ख्यक,f=114
word=आपसी,f=114
word=भोज,f=114
word=ओटा,f=114
word=नेपालीहरुको,f=113
word=कञ्चनजङ्घा,f=113
word=व्यवसायिक,f=113
word=प्रतिलिपि,f=113
word=किङ्ग्सका,f=113
word=आर्मेनिया,f=113
word=अरूद्वारा,f=113
word=अनुरोधहरू,f=113
word=सामान्यत,f=113
word=यात्रामा,f=113
word=साथीहरू,f=113
word=श्रीनगर,f=113
word=रहिआएको,f=113
word=तारानाथ,f=113
word=घेरिएको,f=113
word=गर्भवती,f=113
word=उपचारको,f=113
word=स्वच्छ,f=113
word=समूहको,f=113
word=जोर्डन,f=113
word=हातले,f=113
word=सक्छन,f=113
word=राहुल,f=113
word=बेस्ट,f=113
word=पातलो,f=113
word=उद्गम,f=113
word=आजैको,f=113
word=महास,f=113
word=ब्लू,f=113
word=टोपी,f=113
word=गौरा,f=113
word=गामा,f=113
word=एक्स,f=113
word=जेन,f=113
word=चि,f=113
word=प्रतियोगिताले,f=112
word=सहभागीहरू,f=112
word=न्यायाधीश,f=112
word=समारोहमा,f=112
word=दिनुहोस्,f=112
word=अभियानमा,f=112
word=सकेसम्म,f=112
word=लाग्दैन,f=112
word=महारानी,f=112
word=हेर्नु,f=112
word=हटाइने,f=112
word=वस्त्र,f=112
word=लगाउनु,f=112
word=मेडीकल,f=112
word=महावीर,f=112
word=पहाडको,f=112
word=नसकेको,f=112
word=चिन्तन,f=112
word=कान्छा,f=112
word=भारती,f=112
word=नैतिक,f=112
word=ध्वनि,f=112
word=जरूरी,f=112
word=ग्रेज,f=112
word=ग्रीक,f=112
word=हालै,f=112
word=सिमा,f=112
word=षिका,f=112
word=रहित,f=112
word=पूरै,f=112
word=गोला,f=112
word=गहरू,f=112
word=शिर,f=112
word=दशौ,f=112
word=डाग,f=112
word=डन,f=112
word=गौ,f=112
word=अन्तर्राष्ट्रीय,f=111
word=अष्ट्रेलियाका,f=111
word=अस्ट्रेलियन,f=111
word=सल्लाहकार,f=111
word=परराष्ट्र,f=111
word=हरिद्वार,f=111
word=मानचित्र,f=111
word=प्राइभेट,f=111
word=जनमुक्ति,f=111
word=अत्याधिक,f=111
word=सुचीलाई,f=111
word=मिनेटमा,f=111
word=भित्रको,f=111
word=भाषालाई,f=111
word=बङ्गाली,f=111
word=पूर्वको,f=111
word=किङ्ग्स,f=111
word=एसियामा,f=111
word=जनाएको,f=111
word=कट्टेल,f=111
word=आयोगको,f=111
word=बत्ती,f=111
word=जेलमा,f=111
word=कार्ल,f=111
word=आफैले,f=111
word=लगेर,f=111
word=धुलो,f=111
word=कसरि,f=111
word=साग,f=111
word=कफी,f=111
word=प्रमाणपत्र,f=110
word=आयरल्याण्ड,f=110
word=अस्तित्वमा,f=110
word=वातावरणमा,f=110
word=महाभारतका,f=110
word=फिलिपिन्स,f=110
word=दूरसञ्चार,f=110
word=विशेषगरी,f=110
word=भूतपूर्व,f=110
word=बर्डलाईफ,f=110
word=निकायहरू,f=110
word=चिसापानी,f=110
word=अनुच्छेद,f=110
word=पोखरीको,f=110
word=परामर्श,f=110
word=चार्ल्स,f=110
word=अरुणाचल,f=110
word=समुहगत,f=110
word=डिजाइन,f=110
word=ग्रहको,f=110
word=उत्पति,f=110
word=आकाशमा,f=110
word=समयका,f=110
word=श्राप,f=110
word=युगको,f=110
word=भाषिक,f=110
word=पाईने,f=110
word=डेभिड,f=110
word=जातको,f=110
word=मसला,f=110
word=बिदा,f=110
word=फलको,f=110
word=दमाई,f=110
word=पुष,f=110
word=राष्ट्रपतिहरू,f=109
word=राजतन्त्र,f=109
word=विशेषतया,f=109
word=रवीन्द्र,f=109
word=देशहरूको,f=109
word=सम्बद्ध,f=109
word=रायमाझी,f=109
word=म्युनिख,f=109
word=मुलुकको,f=109
word=मिल्दैन,f=109
word=दिपावली,f=109
word=अवस्थीत,f=109
word=मालिका,f=109
word=नाच्ने,f=109
word=क्रमित,f=109
word=श्रवण,f=109
word=मुखमा,f=109
word=महिमा,f=109
word=ठाउमा,f=109
word=टिमको,f=109
word=गनडाग,f=109
word=उपहार,f=109
word=वेदा,f=109
word=रियो,f=109
word=नारद,f=109
word=नरसि,f=109
word=ज्ञा,f=109
word=आहार,f=109
word=यम,f=109
word=राजनितिज्ञहरू,f=108
word=डेमोक्र्याटिक,f=108
word=सुरक्षाको,f=108
word=भेनेजुएला,f=108
word=छोड्दैछौँ,f=108
word=कम्प्यूटर,f=108
word=विष्णुले,f=108
word=भागहरूमा,f=108
word=प्रप्ताव,f=108
word=पदार्थको,f=108
word=खानेपानी,f=108
word=सूक्ष्म,f=108
word=साइप्रस,f=108
word=सकिँदैछ,f=108
word=महत्वको,f=108
word=बताइएको,f=108
word=पस्कनको,f=108
word=व्यस्त,f=108
word=मधुमेह,f=108
word=भागलाई,f=108
word=फूलहरू,f=108
word=देख्दा,f=108
word=जनताका,f=108
word=गौरबमय,f=108
word=अग्रणी,f=108
word=साधना,f=108
word=रहँदा,f=108
word=ट्रफी,f=108
word=होता,f=108
word=लुगा,f=108
word=दिगो,f=108
word=जाबी,f=108
word=ईसाई,f=108
word=सरह,f=108
word=सयौ,f=108
word=वचन,f=108
word=रेट,f=108
word=मील,f=108
word=मार,f=108
word=बिल,f=108
word=चिन,f=108
word=ते,f=108
word=वर्षहरूलाई,f=107
word=क्रियाकलाप,f=107
word=शासनकालमा,f=107
word=प्रतिबन्ध,f=107
word=नक्षत्रको,f=107
word=लिनक्समा,f=107
word=प्रवर्तक,f=107
word=मेटाउने,f=107
word=मार्गमा,f=107
word=प्रसङ्ग,f=107
word=तिनीहरू,f=107
word=इटालियन,f=107
word=अर्काको,f=107
word=शब्दमा,f=107
word=शनिबार,f=107
word=नायिका,f=107
word=जातिले,f=107
word=विहार,f=107
word=मार्न,f=107
word=प्रभु,f=107
word=प्याज,f=107
word=निहित,f=107
word=डब्लु,f=107
word=जित्न,f=107
word=कार्ड,f=107
word=कर्ता,f=107
word=उपदेश,f=107
word=आयोजन,f=107
word=साँझ,f=107
word=समथर,f=107
word=रहको,f=107
word=मलाइ,f=107
word=भुवन,f=107
word=पोषण,f=107
word=दुरी,f=107
word=दलाई,f=107
word=तोरी,f=107
word=छठको,f=107
word=गलमा,f=107
word=कोमल,f=107
word=कसले,f=107
word=अकबर,f=107
word=वान,f=107
word=भोट,f=107
word=फुट,f=107
word=ञ,f=107
word=सदरमुकामबाट,f=106
word=बालबालिकाको,f=106
word=जनजातीहरू,f=106
word=उत्पादनको,f=106
word=कम्पनीले,f=106
word=सालसम्म,f=106
word=नाभिकीय,f=106
word=त्यसपछी,f=106
word=कालिदास,f=106
word=काउन्टी,f=106
word=अनुवादक,f=106
word=सिन्धु,f=106
word=समारोह,f=106
word=विधामा,f=106
word=रोजगार,f=106
word=तराईका,f=106
word=डिजिटल,f=106
word=आस्विन,f=106
word=श्वास,f=106
word=निषेध,f=106
word=नर्वे,f=106
word=देखिन,f=106
word=अनौठो,f=106